%TF.GenerationSoftware,Altium Limited,Altium Designer,22.4.2 (48)*%
G04 Layer_Color=0*
%FSLAX26Y26*%
%MOIN*%
%TF.SameCoordinates,6A4FBD83-F959-4084-BF4F-9C1771895810*%
%TF.FilePolarity,Positive*%
%TF.FileFunction,Plated,1,6,PTH,Drill*%
%TF.Part,Single*%
G01*
G75*
%TA.AperFunction,ComponentDrill*%
%ADD245C,0.039370*%
%ADD247C,0.051181*%
%ADD248O,0.137795X0.039370*%
%ADD249O,0.039370X0.118110*%
%ADD250C,0.039370*%
%ADD251C,0.070866*%
%ADD252C,0.125984*%
%ADD253O,0.039370X0.078740*%
%ADD254O,0.039370X0.066929*%
%ADD255O,0.078740X0.039370*%
%ADD256O,0.066929X0.039370*%
%ADD257C,0.023622*%
%ADD258C,0.029528*%
%ADD259O,0.019685X0.094488*%
%ADD260C,0.027559*%
%ADD261C,0.062992*%
%TA.AperFunction,ViaDrill,NotFilled*%
%ADD262C,0.011811*%
%ADD263C,0.007874*%
%ADD264C,0.028000*%
%ADD265C,0.015748*%
D245*
X5019685Y2795276D02*
D03*
X4901575Y2185039D02*
D03*
X3267716Y5629921D02*
D03*
X4881890Y6574803D02*
D03*
X275591Y4940945D02*
D03*
X708661Y5688976D02*
D03*
X5019685Y2677165D02*
D03*
X1230315Y2834646D02*
D03*
X3956693Y1102362D02*
D03*
D247*
X6476378Y531496D02*
D03*
X6279528D02*
D03*
X6476378Y728346D02*
D03*
X6279528D02*
D03*
X6377953Y629921D02*
D03*
Y433071D02*
D03*
D248*
X6318898Y1519685D02*
D03*
D249*
X6535433Y1657480D02*
D03*
X6425197Y1767716D02*
D03*
D250*
X5255905Y844882D02*
D03*
Y944882D02*
D03*
Y1044882D02*
D03*
X6067323Y5129331D02*
D03*
X6167323Y5179331D02*
D03*
X6067323Y5229331D02*
D03*
X6167323Y5279331D02*
D03*
X6067323Y5329331D02*
D03*
X6167323Y5379331D02*
D03*
X6067323Y5429331D02*
D03*
X6167323Y5479331D02*
D03*
X6067323Y5529331D02*
D03*
X6167323Y5579331D02*
D03*
X6597244Y5089370D02*
D03*
Y5189370D02*
D03*
Y5519291D02*
D03*
Y5619291D02*
D03*
X3956693Y2047244D02*
D03*
X5275591Y2598425D02*
D03*
Y1525591D02*
D03*
X4645669Y1299213D02*
D03*
X5275591Y541339D02*
D03*
D251*
X6299213Y1161417D02*
D03*
Y1346457D02*
D03*
Y976378D02*
D03*
D252*
X2078740Y4358268D02*
D03*
X4771654D02*
D03*
Y2610236D02*
D03*
X2078740D02*
D03*
D253*
X4619095Y6543307D02*
D03*
X2073819D02*
D03*
X4619095Y112205D02*
D03*
X4496063Y208661D02*
D03*
X2073819Y112205D02*
D03*
X2196850Y208661D02*
D03*
D254*
X4496063Y6446850D02*
D03*
X2196850D02*
D03*
X4619095Y6356299D02*
D03*
X2073819D02*
D03*
X4619095Y299213D02*
D03*
X2073819D02*
D03*
D255*
X110236Y4619095D02*
D03*
Y2073819D02*
D03*
X6580709Y4619095D02*
D03*
X6484252Y4496063D02*
D03*
X6580709Y2073819D02*
D03*
X6484252Y2196850D02*
D03*
D256*
X206693Y4496063D02*
D03*
Y2196850D02*
D03*
X297244Y4619095D02*
D03*
Y2073819D02*
D03*
X6393701Y4619095D02*
D03*
Y2073819D02*
D03*
D257*
X6555118Y6178150D02*
D03*
D258*
Y5947835D02*
D03*
D259*
X6596457Y6062992D02*
D03*
D260*
X6513779Y5978346D02*
D03*
Y6147638D02*
D03*
D261*
X6297244Y5659252D02*
D03*
Y5049409D02*
D03*
D262*
X5905512Y6466535D02*
D03*
X3490157Y5568898D02*
D03*
X3873032Y5626772D02*
D03*
X1402559Y4694882D02*
D03*
X1373032D02*
D03*
X1402559Y4576772D02*
D03*
Y4606300D02*
D03*
Y4635827D02*
D03*
Y4665355D02*
D03*
X1373032Y4576772D02*
D03*
Y4606300D02*
D03*
Y4635827D02*
D03*
Y4665355D02*
D03*
X2651527Y6009799D02*
D03*
X3175197Y5994095D02*
D03*
X3622856Y5571185D02*
D03*
X1062992Y4453740D02*
D03*
X263779Y3771653D02*
D03*
X3267716Y6488189D02*
D03*
X2417323Y3941929D02*
D03*
X4023622Y253937D02*
D03*
X4630905Y3297244D02*
D03*
X2352362Y3641732D02*
D03*
X2531496Y3710630D02*
D03*
X3041339Y4237205D02*
D03*
X3070866D02*
D03*
X3129921D02*
D03*
X3100394D02*
D03*
X3159449D02*
D03*
X3188976D02*
D03*
X4413386Y4059055D02*
D03*
Y4090551D02*
D03*
X4444882Y4059055D02*
D03*
Y4090551D02*
D03*
Y4027559D02*
D03*
X4413386D02*
D03*
X5639764Y757874D02*
D03*
X3307087Y2559055D02*
D03*
X1177165Y2492126D02*
D03*
X2291339Y6523622D02*
D03*
X5059055Y1343504D02*
D03*
X5629921Y1904528D02*
D03*
X4837598Y1584646D02*
D03*
X4901575Y1820866D02*
D03*
X988189Y3742126D02*
D03*
X2061024Y4031496D02*
D03*
X3169291Y3092520D02*
D03*
X3151575Y2751968D02*
D03*
X5970472Y4881890D02*
D03*
Y4724409D02*
D03*
X6186024Y4990158D02*
D03*
X5970472Y4566929D02*
D03*
Y4409449D02*
D03*
X1417323Y3986220D02*
D03*
X1382874D02*
D03*
X1451772D02*
D03*
X2564961Y3415354D02*
D03*
X3424016Y420866D02*
D03*
X6525591Y3866142D02*
D03*
X5137795Y4190945D02*
D03*
X1043307Y2226378D02*
D03*
X3159449Y2381890D02*
D03*
X4478346Y1200787D02*
D03*
X4320866Y1181102D02*
D03*
X5054134Y5398622D02*
D03*
X3174213Y1924213D02*
D03*
X2354331Y1905512D02*
D03*
X3533465Y1318898D02*
D03*
X3484843Y1097736D02*
D03*
X4948622Y2047244D02*
D03*
X2805118Y2781496D02*
D03*
X2765748D02*
D03*
X2726378Y2675197D02*
D03*
X2765748D02*
D03*
X2805118D02*
D03*
X2726378Y2781496D02*
D03*
X2844488D02*
D03*
X2883858D02*
D03*
X2824803Y2858268D02*
D03*
X2785433D02*
D03*
X2746063D02*
D03*
X2864173D02*
D03*
X2746063Y2897638D02*
D03*
X2785433D02*
D03*
X2824803D02*
D03*
X2864173D02*
D03*
X2746063Y2598425D02*
D03*
X4188976Y3295276D02*
D03*
X2653543Y3673228D02*
D03*
X1240158Y4906496D02*
D03*
X6525591Y2795276D02*
D03*
X3159449Y4069882D02*
D03*
X927165Y4370079D02*
D03*
X2708661Y3700787D02*
D03*
X4394685Y3375984D02*
D03*
X6458661Y6240158D02*
D03*
Y6210630D02*
D03*
X6466535Y5972441D02*
D03*
Y5944882D02*
D03*
X3513780Y2727165D02*
D03*
X905512Y623819D02*
D03*
X2204724Y3651575D02*
D03*
X129921Y2543307D02*
D03*
X3740157Y6122047D02*
D03*
X4539370Y4352362D02*
D03*
X173228Y3362205D02*
D03*
X2204724Y3415354D02*
D03*
X3457874Y420866D02*
D03*
X2598425Y3415354D02*
D03*
X984252Y5211614D02*
D03*
X4118110Y6488189D02*
D03*
X1279527Y5516732D02*
D03*
X807087Y5590551D02*
D03*
X4852362Y1269685D02*
D03*
Y1299213D02*
D03*
Y1328740D02*
D03*
X5014764Y1299213D02*
D03*
Y1269685D02*
D03*
Y1328740D02*
D03*
X5487205Y5108268D02*
D03*
X5359252D02*
D03*
X5733268Y5374016D02*
D03*
X5649606Y5452756D02*
D03*
X5600394Y5708661D02*
D03*
X5142717D02*
D03*
X5113189D02*
D03*
X3043307Y2582677D02*
D03*
X4488189Y4133858D02*
D03*
X3488189Y6488189D02*
D03*
X4318898Y2962598D02*
D03*
X4803150Y3051181D02*
D03*
X5413386Y5157480D02*
D03*
X1023622Y1011811D02*
D03*
X2637795Y6271654D02*
D03*
X4118110Y6523622D02*
D03*
X2606299Y175197D02*
D03*
X1826772Y2456693D02*
D03*
X5649606Y5275591D02*
D03*
X5201772Y5201772D02*
D03*
Y5255905D02*
D03*
X3590551Y2444882D02*
D03*
X1338583Y1328740D02*
D03*
X2450787Y3941929D02*
D03*
X3299213Y6488189D02*
D03*
X2350394Y3183071D02*
D03*
X3046063Y420866D02*
D03*
X748032Y1818898D02*
D03*
X3183071Y2490157D02*
D03*
X1437008Y2226378D02*
D03*
X3342520Y2413386D02*
D03*
X5221457Y2500000D02*
D03*
X5088583Y2066929D02*
D03*
X275591Y6166339D02*
D03*
X5275591Y6220472D02*
D03*
X6023622Y6402559D02*
D03*
X6259842Y6092520D02*
D03*
X6395669Y5867126D02*
D03*
X5866142Y6156496D02*
D03*
X5964567Y6274606D02*
D03*
X5895669Y6392717D02*
D03*
X5374016Y6156496D02*
D03*
X354331Y1011811D02*
D03*
X314961D02*
D03*
X354331Y1051181D02*
D03*
X275591Y1011811D02*
D03*
X314961Y1051181D02*
D03*
X275591D02*
D03*
X263779Y2543307D02*
D03*
X6173228Y3937008D02*
D03*
X4688976Y4011811D02*
D03*
X3456693Y175197D02*
D03*
X3838583Y3676181D02*
D03*
X5418307Y807087D02*
D03*
X5452756Y930118D02*
D03*
X3385827Y2925197D02*
D03*
X4395669Y3080709D02*
D03*
X4500000Y4181102D02*
D03*
X3740157Y6236221D02*
D03*
X2271653Y3415354D02*
D03*
X1417323Y1153543D02*
D03*
X232283Y4338583D02*
D03*
X1599409Y5600394D02*
D03*
X1343504Y5976378D02*
D03*
X4601378Y4985236D02*
D03*
X6296339Y3047244D02*
D03*
X4724409Y4082677D02*
D03*
X6188976Y4141732D02*
D03*
X2204724Y3710630D02*
D03*
X173228Y2637795D02*
D03*
X2271653Y2824803D02*
D03*
X2354331Y261811D02*
D03*
X2637795Y5743110D02*
D03*
X1845472Y851378D02*
D03*
X3828740Y1751968D02*
D03*
X3809055Y1948819D02*
D03*
X3671260Y1338583D02*
D03*
X3267716Y2057087D02*
D03*
X3513780Y4104331D02*
D03*
X6523622Y3362205D02*
D03*
X4501968Y3173228D02*
D03*
X3645669Y844488D02*
D03*
X1929134Y895669D02*
D03*
X2531496Y4064961D02*
D03*
X3307086Y2925197D02*
D03*
X4314961Y3120079D02*
D03*
X452559Y3174409D02*
D03*
X2422047Y3533465D02*
D03*
X6431102Y3015748D02*
D03*
X6561024Y3236220D02*
D03*
X830709Y2509843D02*
D03*
X5187008Y5521654D02*
D03*
X895669Y3129921D02*
D03*
X866142Y1541535D02*
D03*
X4232283Y2775590D02*
D03*
X4055118Y131890D02*
D03*
X1860236Y556102D02*
D03*
X4704724Y1210630D02*
D03*
X4763779D02*
D03*
X4734252D02*
D03*
X4793307D02*
D03*
X4704724Y1240158D02*
D03*
X4793307D02*
D03*
X4734252D02*
D03*
X4763779D02*
D03*
X4704724Y1269685D02*
D03*
X4734252D02*
D03*
X4704724Y1328740D02*
D03*
Y1299213D02*
D03*
X4734252D02*
D03*
Y1328740D02*
D03*
X4704724Y1599409D02*
D03*
X2810039Y4190945D02*
D03*
X3244095Y6086614D02*
D03*
X2322835Y6488189D02*
D03*
X1948819Y4119095D02*
D03*
X868110Y3816929D02*
D03*
X5182087Y5452756D02*
D03*
X4970472Y723425D02*
D03*
X2238189Y3356299D02*
D03*
X129921Y3267716D02*
D03*
X6561024Y3866142D02*
D03*
X544095Y2234055D02*
D03*
X5211614Y5369095D02*
D03*
X5068898Y5295276D02*
D03*
X5339567Y5620079D02*
D03*
X5487205Y5610236D02*
D03*
X5595472Y5265748D02*
D03*
X4945866Y5354331D02*
D03*
X3174213Y1889764D02*
D03*
X2352362Y1846457D02*
D03*
X3533465Y1284449D02*
D03*
X3457677Y1130807D02*
D03*
X4919095Y2086614D02*
D03*
X5826772Y6062992D02*
D03*
X6561024Y2858268D02*
D03*
X1815945Y1117126D02*
D03*
X1417323Y623819D02*
D03*
X3690945Y2727165D02*
D03*
X378051Y4940819D02*
D03*
X6082677Y6402559D02*
D03*
X2422047Y3592520D02*
D03*
X392716Y3267716D02*
D03*
X3677165Y6271654D02*
D03*
X173228Y3393701D02*
D03*
X2238189Y3415354D02*
D03*
X3488189Y261811D02*
D03*
X511811Y5462598D02*
D03*
X6525591Y4181102D02*
D03*
X5462598Y5044291D02*
D03*
X5556102Y4921260D02*
D03*
X5221457Y5063976D02*
D03*
X2598425Y3061024D02*
D03*
X3299213Y175197D02*
D03*
X1023622Y1153543D02*
D03*
X4181102Y6488189D02*
D03*
X708661Y5511811D02*
D03*
X129921Y2574803D02*
D03*
X2637795Y175197D02*
D03*
X1826772Y2492126D02*
D03*
X5718504Y5305118D02*
D03*
X2125997Y3899961D02*
D03*
X2732283Y6523622D02*
D03*
X2271653Y3120079D02*
D03*
X748032Y2226378D02*
D03*
X3218504Y2490157D02*
D03*
X5669291Y5334646D02*
D03*
X4975394Y3051181D02*
D03*
X4399606Y2854331D02*
D03*
X6220472Y6186024D02*
D03*
X354331Y1153543D02*
D03*
Y1114173D02*
D03*
X314961Y1153543D02*
D03*
Y1114173D02*
D03*
X590551Y1153543D02*
D03*
Y1114173D02*
D03*
X6173228Y3968504D02*
D03*
X4724409Y4011811D02*
D03*
X3488189Y175197D02*
D03*
X3838583Y3641732D02*
D03*
X1289370Y5590551D02*
D03*
X447835Y5944882D02*
D03*
X4758858Y6397638D02*
D03*
X3356299Y2594488D02*
D03*
X1088583Y2492126D02*
D03*
X4458661Y4311024D02*
D03*
X129921Y3456693D02*
D03*
X1456693Y1011811D02*
D03*
X129921Y4370079D02*
D03*
X5585630Y757874D02*
D03*
X5570866Y885827D02*
D03*
X3159449Y4187008D02*
D03*
X3917323Y3700787D02*
D03*
X3612992Y420866D02*
D03*
X4822835Y3744095D02*
D03*
X6517717Y3456693D02*
D03*
X2388583Y3710630D02*
D03*
X452559Y3329528D02*
D03*
X4886811Y4886811D02*
D03*
X6523622Y3078740D02*
D03*
X4395669Y3139764D02*
D03*
X2140748Y4060039D02*
D03*
X2543307Y6488189D02*
D03*
X3307087Y3095472D02*
D03*
X263779Y3204724D02*
D03*
X6559055Y3267716D02*
D03*
X3454724Y4104331D02*
D03*
X1005905Y2492126D02*
D03*
X3307087Y2523622D02*
D03*
X5300197Y5068898D02*
D03*
X5590551Y4990158D02*
D03*
X3330709Y6523622D02*
D03*
X4086614Y131890D02*
D03*
X944882Y5364173D02*
D03*
X3902559Y1003937D02*
D03*
X3769685Y570866D02*
D03*
X5177165Y2824803D02*
D03*
X2354331Y6488189D02*
D03*
X1983268Y4119095D02*
D03*
X403543Y4389764D02*
D03*
X5016732Y5612205D02*
D03*
X6525591Y3929134D02*
D03*
X5155512Y4242126D02*
D03*
X944882Y2226378D02*
D03*
X3261811Y2488189D02*
D03*
X1240158Y4453740D02*
D03*
X2759843Y3842520D02*
D03*
X4114173Y3440945D02*
D03*
X3203740Y1958661D02*
D03*
X3769685Y1264764D02*
D03*
X3779528Y949803D02*
D03*
X4318898Y3435039D02*
D03*
X6559055Y2889764D02*
D03*
X4724409Y4788386D02*
D03*
X3027559Y2533465D02*
D03*
X2992126Y2775590D02*
D03*
X927165Y4734252D02*
D03*
X2744095Y3700787D02*
D03*
X4289370Y3377953D02*
D03*
X5059055Y2106299D02*
D03*
X3513780Y2762598D02*
D03*
X866142Y623819D02*
D03*
X3708661Y6236221D02*
D03*
X4466535Y4181102D02*
D03*
X129921Y3425197D02*
D03*
X3518504Y420866D02*
D03*
X2564961Y3474409D02*
D03*
X1141732Y1653543D02*
D03*
X1043307D02*
D03*
X944882D02*
D03*
X846457D02*
D03*
X748032D02*
D03*
X3095965Y2742421D02*
D03*
X3206693Y3090551D02*
D03*
X4399606Y2952756D02*
D03*
X4837598Y3051181D02*
D03*
X2271653Y3001968D02*
D03*
X4181102Y6523622D02*
D03*
X173228Y2606299D02*
D03*
X2238189Y3710630D02*
D03*
X2669291Y131890D02*
D03*
X5620079Y5994095D02*
D03*
X4936024Y5797244D02*
D03*
X5551181Y1904528D02*
D03*
X3590551Y2480315D02*
D03*
X1299213Y1328740D02*
D03*
X4665354Y3297244D02*
D03*
X3960630Y253937D02*
D03*
X2531496Y3120079D02*
D03*
X846457Y1818898D02*
D03*
X3271653Y2523622D02*
D03*
X5639764Y2667323D02*
D03*
X1240158Y4808071D02*
D03*
X2679134Y3836614D02*
D03*
X4220472Y3405512D02*
D03*
X5964567Y6402559D02*
D03*
X6114173Y6204724D02*
D03*
X6082677Y6446850D02*
D03*
X393701Y1011811D02*
D03*
X629921D02*
D03*
Y1051181D02*
D03*
X6431102Y3677165D02*
D03*
X2921260Y261811D02*
D03*
X3519685Y131890D02*
D03*
X1220472Y5536417D02*
D03*
Y6008858D02*
D03*
X447835Y5994095D02*
D03*
X4803150Y6397638D02*
D03*
X4454724Y4133858D02*
D03*
X3456693Y6488189D02*
D03*
X1456693Y1328740D02*
D03*
X3629921Y2393701D02*
D03*
X232283Y4379921D02*
D03*
X1681102Y5870079D02*
D03*
X3139764Y4370079D02*
D03*
X2271653Y3651575D02*
D03*
X2752439Y5669291D02*
D03*
X1835630Y703740D02*
D03*
X1914370D02*
D03*
X1875000Y743110D02*
D03*
X1914370Y782480D02*
D03*
X1835630D02*
D03*
X3513780Y4069882D02*
D03*
X6559055Y3362205D02*
D03*
X3041339Y4069882D02*
D03*
X6525591Y2606299D02*
D03*
X4501968Y3139764D02*
D03*
X5723425Y964567D02*
D03*
X5757874Y2829724D02*
D03*
X393110Y3236220D02*
D03*
X2388583Y3592520D02*
D03*
X6260827Y3047126D02*
D03*
X4601378Y4950787D02*
D03*
X6523622Y3267716D02*
D03*
X3454724Y4069882D02*
D03*
X5246063Y5585630D02*
D03*
X5625000Y4990158D02*
D03*
X5334646Y5068898D02*
D03*
X6559055Y2291339D02*
D03*
X826772Y1541535D02*
D03*
X4198819Y2775590D02*
D03*
X3362205Y6488189D02*
D03*
X2417323Y3882874D02*
D03*
X4118110Y131890D02*
D03*
X2805118Y4106299D02*
D03*
X2864173D02*
D03*
X2923228D02*
D03*
X2805118Y4039370D02*
D03*
X2844488D02*
D03*
X2883858D02*
D03*
X2923228D02*
D03*
X2844488Y4074803D02*
D03*
X2883858D02*
D03*
X2923228D02*
D03*
X2805118D02*
D03*
X3267716Y2704724D02*
D03*
X944882Y1818898D02*
D03*
X2385827Y6523622D02*
D03*
X226378Y1742126D02*
D03*
X3159449Y2925197D02*
D03*
X5019685Y748032D02*
D03*
X5113189Y5649606D02*
D03*
X2271653Y3356299D02*
D03*
X6561024Y3929134D02*
D03*
X1437008Y2814961D02*
D03*
X5177165Y5393701D02*
D03*
X3233268Y2022638D02*
D03*
X4501968Y3435039D02*
D03*
X6523622Y2889764D02*
D03*
X4689961Y4788386D02*
D03*
X807087Y3218504D02*
D03*
X3494095Y2531496D02*
D03*
X984252Y1328740D02*
D03*
X2531496Y3592520D02*
D03*
X3552362Y420866D02*
D03*
X2598425Y3474409D02*
D03*
X511811Y5364173D02*
D03*
X4149606Y133858D02*
D03*
X1338583Y1818898D02*
D03*
X3385827Y2779528D02*
D03*
X5925197Y2829724D02*
D03*
X4342520Y4381890D02*
D03*
X173228Y3551181D02*
D03*
X5556102Y4886811D02*
D03*
X5221457Y5029528D02*
D03*
X2531496Y3001968D02*
D03*
X2732283Y6271654D02*
D03*
X4244095Y6488189D02*
D03*
X4620177Y5127953D02*
D03*
X2700787Y175197D02*
D03*
X1921260Y2492126D02*
D03*
X5703740Y5167323D02*
D03*
X5324803Y4858268D02*
D03*
X4734252Y3051181D02*
D03*
X4468504Y3039370D02*
D03*
X5521654Y5994095D02*
D03*
X4832677Y5851378D02*
D03*
X5147638Y5108268D02*
D03*
X773622Y3779528D02*
D03*
Y3937008D02*
D03*
Y4094488D02*
D03*
Y4251968D02*
D03*
X3572835Y2727165D02*
D03*
X1102362Y623819D02*
D03*
X4271654Y3297244D02*
D03*
X1467520Y2784449D02*
D03*
X2347638Y3887795D02*
D03*
X1637795Y2456693D02*
D03*
X2354331Y175197D02*
D03*
X846457Y2226378D02*
D03*
X3177165Y2437008D02*
D03*
X6070866Y6204724D02*
D03*
X5964567Y6446850D02*
D03*
X393701Y1153543D02*
D03*
X629921D02*
D03*
Y1114173D02*
D03*
X263779Y2637795D02*
D03*
X6188976Y4110236D02*
D03*
X4688976Y4082677D02*
D03*
X3551181Y175197D02*
D03*
X4025590Y3700787D02*
D03*
X1072835Y5590551D02*
D03*
X3326772Y2683071D02*
D03*
X4053150Y3100394D02*
D03*
X4596457Y3262795D02*
D03*
X4318898Y3651575D02*
D03*
X129921Y4433071D02*
D03*
X5457677Y5679134D02*
D03*
X3159449Y4104331D02*
D03*
X6559055Y2795276D02*
D03*
X4858268Y3744095D02*
D03*
X6517717Y3488189D02*
D03*
X2531496Y3651575D02*
D03*
X2448819Y261811D02*
D03*
X4886811Y4921260D02*
D03*
X6559055Y3078740D02*
D03*
X4301181Y5009842D02*
D03*
X6523622Y2322835D02*
D03*
X5570866Y964567D02*
D03*
X3966535Y1220472D02*
D03*
X3528543Y1446850D02*
D03*
X6431102Y3110236D02*
D03*
X6561024Y3330709D02*
D03*
X807087Y2864173D02*
D03*
X4488189Y2878937D02*
D03*
X4940945Y3051181D02*
D03*
X5590551Y5142717D02*
D03*
X6559055Y2322835D02*
D03*
X4340551Y5009842D02*
D03*
X3212598Y6086614D02*
D03*
X2810039Y4224409D02*
D03*
X3393701Y6488189D02*
D03*
X2450787Y3882874D02*
D03*
X2448819Y6488189D02*
D03*
X2096457Y4119095D02*
D03*
X868110Y3974409D02*
D03*
X447835Y1830709D02*
D03*
X5752953Y5129331D02*
D03*
X5177165Y5620079D02*
D03*
X4119095Y1299213D02*
D03*
X2455709Y3356299D02*
D03*
X6525591Y3992126D02*
D03*
X5250984Y4251968D02*
D03*
X1240158Y4552165D02*
D03*
X2728346Y3909449D02*
D03*
X4185039Y3440945D02*
D03*
X5172244Y5226378D02*
D03*
X4393701Y3415354D02*
D03*
X2582677Y3828740D02*
D03*
X1240158Y4955709D02*
D03*
X6561024Y2952756D02*
D03*
X2204724Y3533465D02*
D03*
X173228Y2417323D02*
D03*
X3771653Y6271654D02*
D03*
X129921Y3488189D02*
D03*
X4458661Y4344488D02*
D03*
X3582677Y261811D02*
D03*
X3025590Y2740157D02*
D03*
X3129921Y3096457D02*
D03*
X3204724Y4874016D02*
D03*
X2157480Y4948819D02*
D03*
X2271850Y5505905D02*
D03*
X4635827Y4124016D02*
D03*
X3740157Y6488189D02*
D03*
X3951772Y3700787D02*
D03*
X3646850Y420866D02*
D03*
X4486220Y2928150D02*
D03*
X4872047Y3051181D02*
D03*
X5521654Y5142717D02*
D03*
X1779527Y2456693D02*
D03*
X2543307Y175197D02*
D03*
X4244095Y6523622D02*
D03*
X129921Y2669291D02*
D03*
X2732283Y175197D02*
D03*
X1921260Y2456693D02*
D03*
X6299213Y5964567D02*
D03*
X6358268D02*
D03*
X6417323D02*
D03*
X4911417Y5378937D02*
D03*
X2531496Y3887795D02*
D03*
X2647638Y3120079D02*
D03*
X3362205Y175197D02*
D03*
X3582677D02*
D03*
X4060039Y3700787D02*
D03*
X1141732Y5536417D02*
D03*
X3334646Y2763780D02*
D03*
X1240158Y2226378D02*
D03*
X4578740Y3651575D02*
D03*
X1496063Y1328740D02*
D03*
X3629921Y2358268D02*
D03*
X6431102Y2259843D02*
D03*
X4527559Y4985236D02*
D03*
X6559055Y2511811D02*
D03*
X4318898Y3710630D02*
D03*
X2238189Y3651575D02*
D03*
X129921Y2511811D02*
D03*
X2834646Y5669291D02*
D03*
X5383858Y5044291D02*
D03*
X3454724Y4187008D02*
D03*
X2982283D02*
D03*
X5521654Y939961D02*
D03*
X1313976Y162402D02*
D03*
X1141732Y2226378D02*
D03*
X3358268Y2476378D02*
D03*
X263779Y3299213D02*
D03*
X6296339Y3141732D02*
D03*
X4714567Y4985236D02*
D03*
X5246063Y5551181D02*
D03*
X2962598Y2594488D02*
D03*
X5659449Y5054134D02*
D03*
X5221457Y5142717D02*
D03*
X3425197Y6523622D02*
D03*
X4181102Y131890D02*
D03*
X2750984Y4224409D02*
D03*
X3230315Y2738189D02*
D03*
X403543Y1742126D02*
D03*
X2448819Y6523622D02*
D03*
X2062008Y4119095D02*
D03*
X5250984Y5649606D02*
D03*
X5334646Y5546260D02*
D03*
X5433071D02*
D03*
X4911417Y5526575D02*
D03*
X2381102Y3356299D02*
D03*
X173228Y3173228D02*
D03*
X6561024Y3992126D02*
D03*
X1240158Y4857283D02*
D03*
X2653543Y3712598D02*
D03*
X4153543Y3295276D02*
D03*
X5201772Y5314961D02*
D03*
X5037401Y4086614D02*
D03*
X129921Y3960630D02*
D03*
X6559055Y2984252D02*
D03*
X4803150Y4788386D02*
D03*
X2984252Y175197D02*
D03*
X2236942Y2295262D02*
D03*
X900591Y3484252D02*
D03*
X3494095Y2566929D02*
D03*
X944882Y1328740D02*
D03*
X2388583Y3533465D02*
D03*
X452559Y3140551D02*
D03*
X3803150Y6271654D02*
D03*
X129921Y3519685D02*
D03*
X437992Y5260827D02*
D03*
X153543Y4149606D02*
D03*
X1240158Y1818898D02*
D03*
X3253937Y2877953D02*
D03*
X5846457Y2829724D02*
D03*
X3336614Y4104331D02*
D03*
X6296260Y3483169D02*
D03*
X3001968Y2885827D02*
D03*
X4307087Y4381890D02*
D03*
X173228Y3582677D02*
D03*
X2531496Y3828740D02*
D03*
X2417323Y2947835D02*
D03*
X3173228Y175197D02*
D03*
X4307087Y6488189D02*
D03*
X129921Y2700787D02*
D03*
X2204724Y3769685D02*
D03*
X6525591Y4118110D02*
D03*
X1181102Y5216535D02*
D03*
X2763780Y131890D02*
D03*
X3572835Y2762598D02*
D03*
X1062992Y623819D02*
D03*
X4318898Y3297244D02*
D03*
X2268701Y3882874D02*
D03*
X2826772Y6488189D02*
D03*
X1637795Y2492126D02*
D03*
X2322835Y175197D02*
D03*
X6431102Y3771653D02*
D03*
X3015748Y261811D02*
D03*
X3614173Y131890D02*
D03*
X5846457Y920276D02*
D03*
X1289370Y6062992D02*
D03*
X3293307Y2683071D02*
D03*
X4053150Y3135827D02*
D03*
X4493110Y3257874D02*
D03*
X2826772Y6523622D02*
D03*
X2234252Y3882874D02*
D03*
X4055118Y2273622D02*
D03*
X2962598Y4370079D02*
D03*
X6260827Y3141614D02*
D03*
X4680118Y4985236D02*
D03*
X4862205Y1756890D02*
D03*
X6559055Y2385827D02*
D03*
X5310039Y5679134D02*
D03*
X3204724Y6271654D02*
D03*
X4212598Y131890D02*
D03*
X4037401Y5277559D02*
D03*
X4261811Y3041339D02*
D03*
X3387795Y2885827D02*
D03*
X2480315Y6523622D02*
D03*
X4192913Y1264764D02*
D03*
X2564961Y3356299D02*
D03*
X3329528Y420866D02*
D03*
X6525591Y4055118D02*
D03*
X5250984Y4301181D02*
D03*
X5605315Y5374016D02*
D03*
X5659449Y5088583D02*
D03*
X6523622Y2984252D02*
D03*
X4803150Y4753937D02*
D03*
X3015748Y175197D02*
D03*
X2236942Y2260814D02*
D03*
X1062992Y4955709D02*
D03*
X1228346Y2492126D02*
D03*
X3307087Y2594488D02*
D03*
X2238189Y3533465D02*
D03*
X173228Y2448819D02*
D03*
X5570866Y2795276D02*
D03*
X5585630Y2667323D02*
D03*
X4822835Y4985236D02*
D03*
X6296339Y3236220D02*
D03*
X3027559Y2775590D02*
D03*
X2951968Y3153740D02*
D03*
X2872835Y3904134D02*
D03*
X2745866Y4488484D02*
D03*
X2749213Y4917323D02*
D03*
X2299213Y5224409D02*
D03*
X4669291Y4124016D02*
D03*
X3771653Y6488189D02*
D03*
X4232283Y3853347D02*
D03*
X3740157Y175197D02*
D03*
X4399606Y2903543D02*
D03*
X4906496Y3051181D02*
D03*
X5556102Y5142717D02*
D03*
X2238189Y3828740D02*
D03*
X173228Y2826772D02*
D03*
X1779527Y2492126D02*
D03*
X2511811Y175197D02*
D03*
X1102362Y1153543D02*
D03*
X2826772Y6271654D02*
D03*
X4307087Y6523622D02*
D03*
X129921Y2732284D02*
D03*
X2238189Y3769685D02*
D03*
X6561024Y4118110D02*
D03*
X2795276Y175197D02*
D03*
X1909449Y2721457D02*
D03*
X3553150Y2531496D02*
D03*
X1181102Y1328740D02*
D03*
X4596457Y3297244D02*
D03*
X2681102Y3120079D02*
D03*
X3393701Y175197D02*
D03*
X1043307Y1818898D02*
D03*
X3118110Y2503937D02*
D03*
X1240134Y4502930D02*
D03*
X2795276Y3842520D02*
D03*
X4149606Y3440945D02*
D03*
X263779Y2732284D02*
D03*
X6431102Y3803150D02*
D03*
X3645669Y175197D02*
D03*
X4099409Y3823819D02*
D03*
X452756Y6190945D02*
D03*
X3240157Y2940945D02*
D03*
X4119095Y3169291D02*
D03*
X1535433Y1153543D02*
D03*
X1441929Y2903543D02*
D03*
X4493110Y4985236D02*
D03*
X6523622Y2511811D02*
D03*
X2858268Y6523622D02*
D03*
X2543307Y261811D02*
D03*
X2913386Y5669291D02*
D03*
X2982283Y4220472D02*
D03*
X3362205Y6236221D02*
D03*
X1062992Y4502953D02*
D03*
X452559Y3363386D02*
D03*
X2422047Y3710630D02*
D03*
X6431102Y3204724D02*
D03*
X6561024Y3425197D02*
D03*
X3641732Y1377953D02*
D03*
X6559055Y2417323D02*
D03*
X4443898Y5009842D02*
D03*
X6299213Y4753937D02*
D03*
X3275590Y6149606D02*
D03*
X2923228Y4253937D02*
D03*
X4244095Y131890D02*
D03*
X2750984Y4190945D02*
D03*
X3206693Y5994095D02*
D03*
Y2879921D02*
D03*
X344488Y1742126D02*
D03*
X2511811Y6488189D02*
D03*
X2106299Y4060039D02*
D03*
X868110Y4131890D02*
D03*
X285433Y1742126D02*
D03*
X3175197Y2895669D02*
D03*
X5364173Y5595472D02*
D03*
X2414567Y3356299D02*
D03*
X173228Y3204724D02*
D03*
X6561024Y4055118D02*
D03*
X6594488Y4803150D02*
D03*
X6397638D02*
D03*
X3740157Y610236D02*
D03*
X5061024Y4062992D02*
D03*
X129921Y4023622D02*
D03*
X6561024Y3047244D02*
D03*
X3047244Y131890D02*
D03*
X5187008Y2002953D02*
D03*
X3677165Y261811D02*
D03*
X1141732Y1818898D02*
D03*
X3307087Y2366142D02*
D03*
X2007874Y669291D02*
D03*
X3608268Y881890D02*
D03*
X4395669Y3173228D02*
D03*
X5418307Y2795276D02*
D03*
X3336614Y4069882D02*
D03*
X6261122Y3482185D02*
D03*
X2977362Y3120079D02*
D03*
X4303150Y4484252D02*
D03*
X129921Y3645669D02*
D03*
X4688976Y3940945D02*
D03*
X6561024Y3740157D02*
D03*
X2422047Y3828740D02*
D03*
X381890Y3519685D02*
D03*
X2450787Y2947835D02*
D03*
X3204724Y175197D02*
D03*
X1141732Y1011811D02*
D03*
X4370079Y6488189D02*
D03*
X129921Y2763780D02*
D03*
X2826772Y175197D02*
D03*
X1909449Y2687008D02*
D03*
X1978346Y848425D02*
D03*
X3559055Y1005905D02*
D03*
X4314961Y3238189D02*
D03*
X5521654Y6092520D02*
D03*
X5895669D02*
D03*
X4438976Y3297244D02*
D03*
X4699803Y3400590D02*
D03*
X5155512Y4438976D02*
D03*
X5905512Y4525591D02*
D03*
X2347441Y4178150D02*
D03*
X2271653Y3061024D02*
D03*
X2163386Y1375984D02*
D03*
X787402Y1153543D02*
D03*
X3079921Y420866D02*
D03*
X2383858Y3183071D02*
D03*
X3677165Y175197D02*
D03*
X4133858Y3823819D02*
D03*
X1072835Y6062992D02*
D03*
X1574803Y1011811D02*
D03*
X6431102Y2354331D02*
D03*
X3100394Y4187008D02*
D03*
X2921260Y6488189D02*
D03*
X2421260Y4183071D02*
D03*
X5019685Y1599409D02*
D03*
X3091960Y4895030D02*
D03*
X3456693Y6236221D02*
D03*
X263779Y3393701D02*
D03*
X6559055Y2259843D02*
D03*
X4862205Y1609252D02*
D03*
X5383858Y5743110D02*
D03*
X3533465Y1358268D02*
D03*
X4318898Y2844488D02*
D03*
X6525591Y2417323D02*
D03*
X4409449Y5009842D02*
D03*
X3307087Y6149606D02*
D03*
X2923228Y4220472D02*
D03*
X3519685Y6523622D02*
D03*
X4275591Y131890D02*
D03*
X2746063Y4370079D02*
D03*
X2259843Y6271654D02*
D03*
X5388779Y5620079D02*
D03*
X2450787Y4060039D02*
D03*
X3110236Y6488189D02*
D03*
X2598425Y3356299D02*
D03*
X3363386Y420866D02*
D03*
X4606299Y2844488D02*
D03*
X3868110Y506890D02*
D03*
X3078740Y175197D02*
D03*
X2106299Y2298228D02*
D03*
X1062992Y4906496D02*
D03*
X5068898Y5196850D02*
D03*
X5123032Y2032480D02*
D03*
X2271653Y3533465D02*
D03*
X129921Y3614173D02*
D03*
X3707480Y420866D02*
D03*
X3956693Y3833661D02*
D03*
X4788386Y4985236D02*
D03*
X6260827Y3236102D02*
D03*
X3004035Y2586516D02*
D03*
X2918307Y3006890D02*
D03*
X4163386Y3208661D02*
D03*
X4828740Y4167323D02*
D03*
X4590551Y4064961D02*
D03*
X3645669Y6488189D02*
D03*
X4266732Y3853347D02*
D03*
X3771653Y175197D02*
D03*
X2204724Y3828740D02*
D03*
X173228Y2795276D02*
D03*
X2271653Y2942913D02*
D03*
X1141732Y1328740D02*
D03*
X3553150Y2566929D02*
D03*
X4370079Y6523622D02*
D03*
X6561024Y4181102D02*
D03*
X2858268Y131890D02*
D03*
X1141732Y6008858D02*
D03*
X2531299Y4178150D02*
D03*
X2531496Y3061023D02*
D03*
X381890Y3456693D02*
D03*
X2422047Y3769685D02*
D03*
X2169291Y1456693D02*
D03*
X511811Y1011811D02*
D03*
X826772D02*
D03*
X3110236Y261811D02*
D03*
X3708661Y131890D02*
D03*
X1441929Y2726378D02*
D03*
X3080709Y4370079D02*
D03*
X2921260Y6523622D02*
D03*
X2386811Y4183071D02*
D03*
X2992126Y5669291D02*
D03*
X5009842Y5526575D02*
D03*
X2982283Y4253937D02*
D03*
X3330709Y6236221D02*
D03*
X5905512Y4368110D02*
D03*
X5145669Y4372047D02*
D03*
X4734252Y3400590D02*
D03*
X4493110Y3297244D02*
D03*
X381890Y3425197D02*
D03*
X2388583Y3769685D02*
D03*
X5556102Y5526575D02*
D03*
X6561024Y2480315D02*
D03*
X3299213Y6271654D02*
D03*
X3551181Y6488189D02*
D03*
X4464567Y3991142D02*
D03*
X4307087Y131890D02*
D03*
X1343504Y6448819D02*
D03*
X1440945Y293307D02*
D03*
X2574803Y6523622D02*
D03*
X2259843Y131890D02*
D03*
X1131890Y2492126D02*
D03*
X3356299Y2559055D02*
D03*
X61024Y1633858D02*
D03*
X5383858Y5708661D02*
D03*
X905512Y5590551D02*
D03*
X2271653Y3297244D02*
D03*
X4768701Y3371063D02*
D03*
X3834646Y216535D02*
D03*
X3110236Y175197D02*
D03*
X2141732Y2299213D02*
D03*
X2531496Y3533465D02*
D03*
X129921Y3992126D02*
D03*
X3741339Y420866D02*
D03*
X3991142Y3833661D02*
D03*
X3277559Y4187008D02*
D03*
X4303150Y4519685D02*
D03*
X129921Y3677165D02*
D03*
X4724409Y3940945D02*
D03*
X6561024Y3771653D02*
D03*
X2388583Y3828740D02*
D03*
X381890Y3551181D02*
D03*
X2531496Y2942913D02*
D03*
X1181102Y1011811D02*
D03*
X2921260Y6271654D02*
D03*
X6525591Y4244095D02*
D03*
X2889764Y175197D02*
D03*
X2308071Y2381890D02*
D03*
X5718504Y5875984D02*
D03*
X4404528Y3238189D02*
D03*
X3657480Y807087D02*
D03*
X2029469Y543366D02*
D03*
X2271653Y3828740D02*
D03*
X1692913Y2456693D02*
D03*
X2417323Y175197D02*
D03*
X263779Y3488189D02*
D03*
X5718504Y5423228D02*
D03*
X263779Y2826772D02*
D03*
X3140551Y420866D02*
D03*
X2417323Y3184055D02*
D03*
X4318898Y3592520D02*
D03*
X330709Y417323D02*
D03*
X3100394Y4104331D02*
D03*
X6559055Y2700787D02*
D03*
X2952756Y6523622D02*
D03*
X2637795Y261811D02*
D03*
X2251968Y6027559D02*
D03*
X3037510Y4891960D02*
D03*
X3425197Y6236221D02*
D03*
X5903543Y4293307D02*
D03*
X6431102Y3299213D02*
D03*
X6561024Y3519685D02*
D03*
X3582677Y6488189D02*
D03*
X4498032Y3991142D02*
D03*
X129921Y3047244D02*
D03*
X4338583Y133858D02*
D03*
X1978346Y885827D02*
D03*
X3539370Y1051181D02*
D03*
X4273622Y3238189D02*
D03*
X2706693Y4293307D02*
D03*
Y4253937D02*
D03*
X2667323D02*
D03*
Y4293307D02*
D03*
X2706693Y4370079D02*
D03*
X2667323D02*
D03*
Y4409449D02*
D03*
X2706693D02*
D03*
X2606299Y6488189D02*
D03*
X2165354Y4000984D02*
D03*
X3803150Y6523622D02*
D03*
X2291339Y131890D02*
D03*
X868110Y4289370D02*
D03*
X4468504Y1297244D02*
D03*
X2417323Y4060039D02*
D03*
X3078740Y6488189D02*
D03*
X2455709Y3297244D02*
D03*
X1437008Y1818898D02*
D03*
X3385827Y2744095D02*
D03*
X1692913Y777559D02*
D03*
X4438976Y3375984D02*
D03*
X4630905Y3400590D02*
D03*
X5118110Y4517717D02*
D03*
X5905512Y4840551D02*
D03*
X6561024Y3141732D02*
D03*
X3141732Y131890D02*
D03*
X1062992Y4857283D02*
D03*
X2202756Y3472441D02*
D03*
X129921Y2322835D02*
D03*
X3771653Y261811D02*
D03*
X2066929Y738189D02*
D03*
X3608268Y921260D02*
D03*
X4314961Y3155512D02*
D03*
X3257874Y4370079D02*
D03*
X4624016Y4064961D02*
D03*
X3677165Y6488189D02*
D03*
X2271653Y3769685D02*
D03*
X4433071Y6523622D02*
D03*
X129921Y2858268D02*
D03*
X6561024Y4244095D02*
D03*
X2921260Y175197D02*
D03*
X2273622Y2381890D02*
D03*
X2564961Y3061024D02*
D03*
X3267716Y175197D02*
D03*
X5984252Y6003937D02*
D03*
X6033465D02*
D03*
X6082677D02*
D03*
X5984252Y6053150D02*
D03*
X6033465D02*
D03*
X6082677D02*
D03*
X5984252Y6102362D02*
D03*
X6033465D02*
D03*
X6082677D02*
D03*
X3174409Y420866D02*
D03*
X2450787Y3184055D02*
D03*
X4578740Y3592520D02*
D03*
X6431102Y2448819D02*
D03*
X2984252Y6488189D02*
D03*
X2417323Y4119094D02*
D03*
X3070866Y5669291D02*
D03*
X4606299Y2278543D02*
D03*
X3395669Y4187008D02*
D03*
X6296339Y3330709D02*
D03*
X3218504Y4104331D02*
D03*
X6561024Y3551181D02*
D03*
X4822835Y3818898D02*
D03*
X3614173Y6523622D02*
D03*
X129921Y3078740D02*
D03*
X2381102Y3297244D02*
D03*
X4370079Y131890D02*
D03*
X1440945Y379921D02*
D03*
X2354331Y6271654D02*
D03*
X2637795Y6488189D02*
D03*
X2199803Y4000984D02*
D03*
X3866142Y6488189D02*
D03*
X4543307Y5267717D02*
D03*
X129921Y2259843D02*
D03*
X61024Y1456693D02*
D03*
X5511811Y5777559D02*
D03*
X2347638Y4005905D02*
D03*
X1692913Y718504D02*
D03*
X6053150Y5905512D02*
D03*
X6358268Y6057087D02*
D03*
Y6131890D02*
D03*
X4699803Y3297244D02*
D03*
X3897638Y253937D02*
D03*
X1786417Y108268D02*
D03*
X6559055Y3173228D02*
D03*
X3395669Y4069882D02*
D03*
X4358268Y4283465D02*
D03*
X2388583Y3474409D02*
D03*
X392716Y3078740D02*
D03*
X129921Y3708661D02*
D03*
Y4055118D02*
D03*
X3803150Y261811D02*
D03*
X3277559Y4104331D02*
D03*
X6260827Y3425079D02*
D03*
X4330709Y4606299D02*
D03*
X173228Y3740157D02*
D03*
X2531496Y3769685D02*
D03*
X263779Y2259843D02*
D03*
X129921Y2889764D02*
D03*
X2204724Y3120079D02*
D03*
X6525591Y4307087D02*
D03*
X2952756Y131890D02*
D03*
X1692913Y2492126D02*
D03*
X2448819Y175197D02*
D03*
X5187008Y5585630D02*
D03*
X6431102Y2732284D02*
D03*
X3204724Y261811D02*
D03*
X3803150Y131890D02*
D03*
X3100394Y4069882D02*
D03*
X6523622Y2700787D02*
D03*
X3015748Y6488189D02*
D03*
X2450787Y4119094D02*
D03*
X2903543Y4370079D02*
D03*
X6260827Y3330590D02*
D03*
X3218504Y4069882D02*
D03*
X6561024Y3582677D02*
D03*
X4858268Y3818898D02*
D03*
X6561024Y2574803D02*
D03*
X3393701Y6271654D02*
D03*
X129921Y3110236D02*
D03*
X2414567Y3297244D02*
D03*
X4401575Y133858D02*
D03*
X4913386Y4167323D02*
D03*
X2669291Y6523622D02*
D03*
X3866142D02*
D03*
X129921Y2291339D02*
D03*
X5551181Y5777559D02*
D03*
X6264764Y5895669D02*
D03*
X2531496Y4005905D02*
D03*
X2598425Y3238189D02*
D03*
X3268898Y420866D02*
D03*
X4311024Y2278543D02*
D03*
X2007874Y807087D02*
D03*
X1397638Y1333661D02*
D03*
X6092520Y5905512D02*
D03*
X6394685Y6057087D02*
D03*
Y6131890D02*
D03*
X4438976Y3336614D02*
D03*
X4665354Y3400590D02*
D03*
X5118110Y4478346D02*
D03*
X5905512Y4683071D02*
D03*
X1781496Y196850D02*
D03*
X4980315Y5226378D02*
D03*
X4539370Y4283465D02*
D03*
X2236220Y3472441D02*
D03*
X129921Y2354331D02*
D03*
X149606Y4086614D02*
D03*
X910433Y5364173D02*
D03*
X1220472Y1153543D02*
D03*
X3015748Y6271654D02*
D03*
X129921Y2921260D02*
D03*
X2238189Y3120079D02*
D03*
X6561024Y4307087D02*
D03*
X263779Y3582677D02*
D03*
X5305118Y5255905D02*
D03*
Y5305118D02*
D03*
Y5354331D02*
D03*
Y5403543D02*
D03*
X5354331Y5305118D02*
D03*
Y5255905D02*
D03*
Y5403543D02*
D03*
Y5354331D02*
D03*
X5403543Y5305118D02*
D03*
Y5255905D02*
D03*
Y5354331D02*
D03*
Y5403543D02*
D03*
X5452756Y5305118D02*
D03*
Y5354331D02*
D03*
Y5255905D02*
D03*
Y5403543D02*
D03*
X5501968Y5305118D02*
D03*
Y5255905D02*
D03*
Y5403543D02*
D03*
Y5354331D02*
D03*
X5305118Y5452756D02*
D03*
X5354331D02*
D03*
X5403543D02*
D03*
X5452756D02*
D03*
X5501968D02*
D03*
X263779Y2921260D02*
D03*
X3235039Y420866D02*
D03*
X2564961Y3239173D02*
D03*
X3047244Y6523622D02*
D03*
X2732283Y261811D02*
D03*
X4527559Y2278543D02*
D03*
X3395669Y4104331D02*
D03*
X6523622Y3173228D02*
D03*
X2531496Y2824803D02*
D03*
X688976Y6331102D02*
D03*
X728346D02*
D03*
X688976Y6370472D02*
D03*
X728346D02*
D03*
X5903543Y4450787D02*
D03*
X6431102Y3393701D02*
D03*
X6561024Y3614173D02*
D03*
X3705709Y1304134D02*
D03*
X6559055Y2606299D02*
D03*
X3041339Y4104331D02*
D03*
X615158Y3484252D02*
D03*
X129921Y3141732D02*
D03*
X4433071Y131890D02*
D03*
X3120079Y2781496D02*
D03*
X2732283Y6488189D02*
D03*
X2160446Y3899961D02*
D03*
X3929134Y6488189D02*
D03*
X4578740Y5267717D02*
D03*
X2385827Y131890D02*
D03*
X61024Y1515748D02*
D03*
X4232283Y2278543D02*
D03*
X3690945Y2762598D02*
D03*
X1377953Y623819D02*
D03*
X2238189Y3179134D02*
D03*
X173228Y3015748D02*
D03*
X2047244Y807087D02*
D03*
X3804134Y536417D02*
D03*
X1781496Y433071D02*
D03*
X3236220Y131890D02*
D03*
X1062992Y4808071D02*
D03*
X226378Y5752953D02*
D03*
X4330709Y4433071D02*
D03*
X381890Y3614173D02*
D03*
X2422047Y3474409D02*
D03*
X393110Y3047244D02*
D03*
X173228Y3771653D02*
D03*
X4330709Y4641732D02*
D03*
X129921Y4118110D02*
D03*
X3277559Y4069882D02*
D03*
X6296339Y3425197D02*
D03*
X4688976Y3870079D02*
D03*
X6517717Y3645669D02*
D03*
X129921Y2952756D02*
D03*
X6525591Y4370079D02*
D03*
X5570866Y5994095D02*
D03*
X4936024Y5841535D02*
D03*
X2347638Y4124016D02*
D03*
X3941929Y3188976D02*
D03*
X905512Y1153543D02*
D03*
X5644685Y2795276D02*
D03*
X226378Y5893701D02*
D03*
X6431102Y2543307D02*
D03*
X5472441Y5994095D02*
D03*
X4832677Y5885827D02*
D03*
X3149606Y4940945D02*
D03*
X3519685Y6236221D02*
D03*
X1338583Y2226378D02*
D03*
X3385827Y2708661D02*
D03*
X4500000Y2799213D02*
D03*
X3708661Y6523622D02*
D03*
X2448819Y6271654D02*
D03*
X3929134Y6523622D02*
D03*
X5757874Y5477362D02*
D03*
X2450787Y4000984D02*
D03*
X3204724Y6488189D02*
D03*
X3149606Y5669291D02*
D03*
X1919291Y556102D02*
D03*
X6171260Y5984252D02*
D03*
X1472441Y514173D02*
D03*
X1062992Y4601378D02*
D03*
X226378Y5703740D02*
D03*
X4539370Y4318898D02*
D03*
X3708661Y6122047D02*
D03*
X2271653Y3474409D02*
D03*
X129921Y3803150D02*
D03*
X2271653Y2883858D02*
D03*
X1259842Y1153543D02*
D03*
X263779Y2354331D02*
D03*
X173228Y2984252D02*
D03*
X2204724Y3179134D02*
D03*
X6561024Y4370079D02*
D03*
X5000000Y2883858D02*
D03*
X5029528D02*
D03*
X5059055D02*
D03*
X2531496Y4124016D02*
D03*
X381890Y3645669D02*
D03*
X4366142Y4433071D02*
D03*
X4084646Y2962598D02*
D03*
X944882Y1011811D02*
D03*
X6431102Y2826772D02*
D03*
X3299213Y261811D02*
D03*
X3866142Y131890D02*
D03*
X688976Y6432087D02*
D03*
X728346D02*
D03*
X688976Y6471457D02*
D03*
X728346D02*
D03*
X6517717Y3677165D02*
D03*
X4724409Y3870079D02*
D03*
X6561024Y2669291D02*
D03*
X1220472Y623819D02*
D03*
X3631890Y2762598D02*
D03*
X3488189Y6271654D02*
D03*
X2763780Y6523622D02*
D03*
X3992126Y6488189D02*
D03*
X4614173Y5267717D02*
D03*
X129921Y2385827D02*
D03*
X61024Y1574803D02*
D03*
X5334646Y2805118D02*
D03*
X2271653Y3179134D02*
D03*
X4389764Y2278543D02*
D03*
X1463583Y68504D02*
D03*
X1240158Y4601378D02*
D03*
X2679134Y3942913D02*
D03*
X4185039Y3405512D02*
D03*
X2531496Y3474409D02*
D03*
X129921Y3834646D02*
D03*
X4990158Y4086614D02*
D03*
X129921Y4181102D02*
D03*
X3218504Y4187008D02*
D03*
X4318898Y3986220D02*
D03*
X2531496Y2883858D02*
D03*
X1299213Y1011811D02*
D03*
X3110236Y6271654D02*
D03*
X6525591Y4433071D02*
D03*
X6220472Y6274606D02*
D03*
X263779Y3677165D02*
D03*
Y3015748D02*
D03*
X3141732Y6523622D02*
D03*
X2027559Y708661D02*
D03*
X3576772Y958661D02*
D03*
X4277559Y3155512D02*
D03*
X5275591Y2790354D02*
D03*
X3149606Y4975394D02*
D03*
X3551181Y6236221D02*
D03*
X5903543Y4608268D02*
D03*
X6431102Y3488189D02*
D03*
X6561024Y3708661D02*
D03*
X5688976Y5477362D02*
D03*
X4318898Y2765748D02*
D03*
X129921Y3236220D02*
D03*
X4318898Y3001968D02*
D03*
X3992126Y6523622D02*
D03*
X2480315Y131890D02*
D03*
X5723425Y5477362D02*
D03*
X1267716Y2665354D02*
D03*
X2417323Y4000984D02*
D03*
X3204724Y6523622D02*
D03*
X2531496Y3179134D02*
D03*
X544095Y1821063D02*
D03*
X3330709Y131890D02*
D03*
X1062992Y4552165D02*
D03*
X5925197Y920276D02*
D03*
X3233760Y3009843D02*
D03*
X992126Y2755905D02*
D03*
X129921Y3866142D02*
D03*
Y4212598D02*
D03*
X393701Y5260827D02*
D03*
X1574803Y5314961D02*
D03*
X3198819Y4370079D02*
D03*
X4578740Y3992126D02*
D03*
X2271653Y3710630D02*
D03*
X6561024Y4433071D02*
D03*
X381890Y3708661D02*
D03*
X4330709Y4552165D02*
D03*
X3385827Y3095472D02*
D03*
X6431102Y2637795D02*
D03*
X3929134Y131890D02*
D03*
X4783465Y1860236D02*
D03*
X4862205Y748032D02*
D03*
X3307087Y2086614D02*
D03*
X4591535Y2765748D02*
D03*
X1259842Y623819D02*
D03*
X3631890Y2727165D02*
D03*
X4501968Y3001968D02*
D03*
X2543307Y6271654D02*
D03*
X4055118Y6488189D02*
D03*
X4649606Y5267717D02*
D03*
X5659449Y5167323D02*
D03*
X2347638Y3946850D02*
D03*
X6171260Y6062992D02*
D03*
X129921Y3897638D02*
D03*
X5013779Y4114173D02*
D03*
X129921Y4244095D02*
D03*
X5925197Y1904528D02*
D03*
X1338583Y1011811D02*
D03*
X263779Y2448819D02*
D03*
X2259843Y261811D02*
D03*
X3956693Y2258858D02*
D03*
X381890Y3740157D02*
D03*
X4365158Y4552165D02*
D03*
X6431102Y2921260D02*
D03*
X3393701Y261811D02*
D03*
X5098425Y1609252D02*
D03*
X1948819Y664370D02*
D03*
X2844488Y4370079D02*
D03*
X2271653Y2765748D02*
D03*
X4862205Y1860236D02*
D03*
X2455709Y3415354D02*
D03*
X4404528Y2765748D02*
D03*
X6561024Y2763780D02*
D03*
X3582677Y6271654D02*
D03*
X129921Y3299213D02*
D03*
X2204724Y3356299D02*
D03*
X4468504Y3003937D02*
D03*
X4768701Y3051181D02*
D03*
X5187008Y5142717D02*
D03*
X5487205D02*
D03*
X4055118Y6523622D02*
D03*
X129921Y2480315D02*
D03*
X1943898Y378937D02*
D03*
X2531496Y3946850D02*
D03*
X644095Y1821063D02*
D03*
X5418307Y2716535D02*
D03*
X551181Y1011811D02*
D03*
Y1051181D02*
D03*
X403543Y4744095D02*
D03*
X4502756Y3710630D02*
D03*
X1377953Y1153543D02*
D03*
X129921Y3929134D02*
D03*
X236220Y4275591D02*
D03*
X1736220Y5866142D02*
D03*
X263779Y3110236D02*
D03*
X3236220Y6523622D02*
D03*
X3992126Y131890D02*
D03*
X2531496Y2765748D02*
D03*
X2259843Y6523622D02*
D03*
X5903543Y4765748D02*
D03*
X4911417Y748032D02*
D03*
X6561024Y3803150D02*
D03*
X4500000Y2763780D02*
D03*
X389665Y4586614D02*
D03*
X129921Y3330709D02*
D03*
X3061023Y2858268D02*
D03*
X5556102Y4955709D02*
D03*
X5275591Y5049213D02*
D03*
X2574803Y131890D02*
D03*
X5004921Y5157480D02*
D03*
X644291Y2234055D02*
D03*
X6456693Y3582677D02*
D03*
X2826772Y261811D02*
D03*
X3425197Y131890D02*
D03*
X129921Y4307087D02*
D03*
X5846457Y1904528D02*
D03*
X2347638Y4064961D02*
D03*
X381890Y3803150D02*
D03*
X4124016Y3090551D02*
D03*
X5708661Y1904528D02*
D03*
D263*
X4468504Y5575787D02*
D03*
X2755000Y5990000D02*
D03*
X3635000Y6125000D02*
D03*
X4165000Y6075000D02*
D03*
X2835000Y5990000D02*
D03*
X2995000Y5830000D02*
D03*
X2923228Y6033465D02*
D03*
X3917323Y3966535D02*
D03*
X2476378Y391732D02*
D03*
X4045276Y2858268D02*
D03*
X3956693Y4419291D02*
D03*
X6226378Y2610236D02*
D03*
X3848425Y2667323D02*
D03*
X3690945Y4110236D02*
D03*
X4927165Y1431102D02*
D03*
Y1454724D02*
D03*
X4950787D02*
D03*
X4927165Y1478347D02*
D03*
X4950787D02*
D03*
X4927165Y1501968D02*
D03*
X4950787D02*
D03*
X4974409Y1431102D02*
D03*
X4950787D02*
D03*
X4974409Y1454724D02*
D03*
Y1478347D02*
D03*
Y1501968D02*
D03*
X2854331Y391732D02*
D03*
X3927165Y2755905D02*
D03*
X3740157Y3553150D02*
D03*
X2704724Y391732D02*
D03*
X3671260Y4266732D02*
D03*
X2570866Y466535D02*
D03*
X3238189Y3612205D02*
D03*
X468504Y2988189D02*
D03*
X3671260Y4365158D02*
D03*
X3553150Y2667323D02*
D03*
X2554134Y6131890D02*
D03*
X3976378Y4498032D02*
D03*
X3631890Y2858268D02*
D03*
X468504Y2570866D02*
D03*
X3267716Y3346457D02*
D03*
X2893701Y391732D02*
D03*
X3927165Y2716535D02*
D03*
X2381890Y466535D02*
D03*
X3572835Y4266732D02*
D03*
X3809055Y4596457D02*
D03*
X2799213Y466535D02*
D03*
X3868110Y4110236D02*
D03*
X2952756Y2401575D02*
D03*
X393701Y2854331D02*
D03*
X3454724Y3159449D02*
D03*
X2326772Y391732D02*
D03*
X2593504Y6131890D02*
D03*
X4015748Y4498032D02*
D03*
X468504Y2610236D02*
D03*
X3307087Y3346457D02*
D03*
X2421260Y466535D02*
D03*
X3572835Y4227362D02*
D03*
X3700787Y3553150D02*
D03*
X2665354Y391732D02*
D03*
X3848425Y4365158D02*
D03*
X4025590Y2603347D02*
D03*
X3809055Y2858268D02*
D03*
X4173228Y2583661D02*
D03*
X2948819Y466535D02*
D03*
X3966535Y2573819D02*
D03*
X3769685Y4596457D02*
D03*
X2759843Y466535D02*
D03*
X2992126Y2401575D02*
D03*
X393701Y2893701D02*
D03*
X3415354Y3159449D02*
D03*
X2287401Y391732D02*
D03*
X3513780Y2858268D02*
D03*
X2746063Y6112205D02*
D03*
X4055118Y4281496D02*
D03*
X3612205Y2667323D02*
D03*
X393701Y2665354D02*
D03*
X3740157Y4527559D02*
D03*
X2988189Y466535D02*
D03*
X3966535Y2534449D02*
D03*
X4104331Y4110236D02*
D03*
X3700787Y4488189D02*
D03*
X393701Y2515748D02*
D03*
X3799213Y2913386D02*
D03*
X2992126Y6097441D02*
D03*
X2785433Y6112205D02*
D03*
X4094488Y4281496D02*
D03*
X393701Y2704724D02*
D03*
X3740157Y4566929D02*
D03*
X6301181Y2287402D02*
D03*
X3809055Y4040354D02*
D03*
X2515748Y391732D02*
D03*
X3917323Y4005905D02*
D03*
X3435039Y4365158D02*
D03*
X4084646Y4370079D02*
D03*
X3986220Y2785433D02*
D03*
X3789370Y2667323D02*
D03*
X3631890Y4110236D02*
D03*
X6301181Y2326772D02*
D03*
X3809055Y4079724D02*
D03*
X3336614Y3651575D02*
D03*
X468504Y2799213D02*
D03*
X3700787Y4448819D02*
D03*
X393701Y2476378D02*
D03*
X3759843Y2913386D02*
D03*
X2992126Y6058071D02*
D03*
X3494095Y2667323D02*
D03*
X2854331Y6033465D02*
D03*
X3789370Y2696850D02*
D03*
X3612205Y4365158D02*
D03*
X3572835Y2858268D02*
D03*
X468504Y2759843D02*
D03*
X3375984Y3651575D02*
D03*
X4163386Y2854331D02*
D03*
X3809055Y4109252D02*
D03*
X4242126Y2864173D02*
D03*
X5526575Y2972441D02*
D03*
X2893701Y6033465D02*
D03*
X3789370Y2736220D02*
D03*
X3129921Y3228347D02*
D03*
X468504Y2421260D02*
D03*
X6226378Y2381890D02*
D03*
X3828740Y4261811D02*
D03*
X2610236Y466535D02*
D03*
X3671260Y4227362D02*
D03*
X3789370Y4365158D02*
D03*
X3966535Y2603347D02*
D03*
X2283465Y6077756D02*
D03*
X3602362Y4586614D02*
D03*
X3750000Y2858268D02*
D03*
X3553150Y4438976D02*
D03*
X393701Y2326772D02*
D03*
X6301181Y2665354D02*
D03*
X4192913Y3996063D02*
D03*
X6226378Y2421260D02*
D03*
X3868110Y4261811D02*
D03*
X4010827Y4232283D02*
D03*
X2608268Y6220472D02*
D03*
X4242126Y2903543D02*
D03*
X5526575Y3011811D02*
D03*
X2322835Y6077756D02*
D03*
X3641732Y4586614D02*
D03*
X3090551Y3228347D02*
D03*
X468504Y2381890D02*
D03*
X6301181Y2704724D02*
D03*
X4232283Y3996063D02*
D03*
X4143701Y2603347D02*
D03*
X4045276Y4109252D02*
D03*
X4094488Y4645669D02*
D03*
X2509843Y6220472D02*
D03*
X4153543Y2706693D02*
D03*
X5679134Y2972441D02*
D03*
X3553150Y4399606D02*
D03*
X393701Y2287402D02*
D03*
X6301181Y2476378D02*
D03*
X4045276Y4040354D02*
D03*
X3375984Y4365158D02*
D03*
X4025590Y4370079D02*
D03*
X3971457Y4232283D02*
D03*
X2568898Y6220472D02*
D03*
X3927165Y2785433D02*
D03*
X2332677Y6171260D02*
D03*
X3307087Y4291339D02*
D03*
X3730315Y2667323D02*
D03*
X3572835Y4110236D02*
D03*
X6226378Y2759843D02*
D03*
X4143701Y4212598D02*
D03*
X6301181Y2515748D02*
D03*
X4045276Y4079724D02*
D03*
X4055118Y4645669D02*
D03*
X2470472Y6220472D02*
D03*
X4153543Y2746063D02*
D03*
X5679134Y3011811D02*
D03*
X2372047Y6171260D02*
D03*
X3346457Y4291339D02*
D03*
X3553150Y4365158D02*
D03*
X4202756Y4370079D02*
D03*
X468504Y2948819D02*
D03*
X3277559Y3612205D02*
D03*
X6226378Y2799213D02*
D03*
X4183071Y4212598D02*
D03*
X4104331Y2858268D02*
D03*
X3750000Y4110236D02*
D03*
X6226378Y2570866D02*
D03*
X3917323Y4419291D02*
D03*
X3730315Y4365158D02*
D03*
X3907480Y2603347D02*
D03*
X3690945Y2858268D02*
D03*
X3927165Y4110236D02*
D03*
X3907480Y4365158D02*
D03*
X4084646Y2603347D02*
D03*
X3986220Y4110236D02*
D03*
X3966535Y4365158D02*
D03*
X3868110Y2858268D02*
D03*
X3671260Y2667323D02*
D03*
X4163386Y4110236D02*
D03*
X3494095Y4365158D02*
D03*
X4143701Y4370079D02*
D03*
X5526575Y3041339D02*
D03*
X6301181Y2635827D02*
D03*
X2824803Y391732D02*
D03*
X3671260Y4296260D02*
D03*
X4153543Y2677165D02*
D03*
X6226378Y2828740D02*
D03*
Y2639764D02*
D03*
X5679134Y3041339D02*
D03*
X393701Y2446850D02*
D03*
X5679134Y2942913D02*
D03*
X6301181Y2734252D02*
D03*
X2992126Y6028543D02*
D03*
Y6126968D02*
D03*
X4242126Y2834646D02*
D03*
X2923228Y2401575D02*
D03*
X6226378Y2730315D02*
D03*
X3986220Y4419291D02*
D03*
X468504Y2450787D02*
D03*
X2253937Y6077756D02*
D03*
X4153543Y2775590D02*
D03*
X3887795Y4419291D02*
D03*
X4242126Y2933071D02*
D03*
X2401575Y6171260D02*
D03*
X2446850Y391732D02*
D03*
X4045276Y4498032D02*
D03*
X393701Y2545276D02*
D03*
X3021653Y2401575D02*
D03*
X2524606Y6131890D02*
D03*
X3946850Y4498032D02*
D03*
X393701Y2356299D02*
D03*
X2352362Y6077756D02*
D03*
X2440945Y6220472D02*
D03*
X3789370Y2765748D02*
D03*
X393701Y2635827D02*
D03*
X3966535Y2504921D02*
D03*
X2623032Y6131890D02*
D03*
X4124016Y4645669D02*
D03*
X393701Y2257874D02*
D03*
X6226378Y2541339D02*
D03*
X3336614Y3346457D02*
D03*
X4025590Y4645669D02*
D03*
X393701Y2734252D02*
D03*
X3838583Y4596457D02*
D03*
X3553150Y4468504D02*
D03*
X6226378Y2450787D02*
D03*
X3740157Y4596457D02*
D03*
X3572835Y4296260D02*
D03*
X6301181Y2545276D02*
D03*
X3927165Y2687008D02*
D03*
X3740157Y4498032D02*
D03*
X2716535Y6112205D02*
D03*
X6301181Y2446850D02*
D03*
X393701Y2824803D02*
D03*
X3700787Y4517717D02*
D03*
X2356299Y391732D02*
D03*
X3017716Y466535D02*
D03*
X3828740Y2913386D02*
D03*
X3917323Y3937008D02*
D03*
X3799213Y4261811D02*
D03*
X6226378Y2352362D02*
D03*
X468504D02*
D03*
X3700787Y4419291D02*
D03*
X3385827Y3159449D02*
D03*
X6301181Y2356299D02*
D03*
X3730315Y2913386D02*
D03*
X2303150Y6171260D02*
D03*
X2450787Y466535D02*
D03*
X2923228Y391732D02*
D03*
X393701Y2923228D02*
D03*
X3572835Y4586614D02*
D03*
X6301181Y2257874D02*
D03*
X3769685Y3553150D02*
D03*
X3671260Y4586614D02*
D03*
X3897638Y4261811D02*
D03*
X2828740Y466535D02*
D03*
X3277559Y4291339D02*
D03*
X3484252Y3159449D02*
D03*
X3671260Y3553150D02*
D03*
X3375984Y4291339D02*
D03*
X2637795Y6220472D02*
D03*
X2919291Y466535D02*
D03*
X468504Y2639764D02*
D03*
X3809055Y4010827D02*
D03*
X2352362Y466535D02*
D03*
X3671260Y4197835D02*
D03*
X3307087Y3612205D02*
D03*
X3917323Y4035433D02*
D03*
X3941929Y4232283D02*
D03*
X3572835Y4197835D02*
D03*
X3208661Y3612205D02*
D03*
X4261811Y3996063D02*
D03*
X3238189Y3346457D02*
D03*
X2734252Y391732D02*
D03*
X468504Y2730315D02*
D03*
X4163386Y3996063D02*
D03*
X2541339Y466535D02*
D03*
X2730315D02*
D03*
X3405512Y3651575D02*
D03*
X4045276Y4010827D02*
D03*
X4040354Y4232283D02*
D03*
X2639764Y466535D02*
D03*
X3307087Y3651575D02*
D03*
X4212598Y4212598D02*
D03*
X2539370Y6220472D02*
D03*
X2824803Y6033465D02*
D03*
X468504Y2919291D02*
D03*
X4124016Y4281496D02*
D03*
X2814961Y6112205D02*
D03*
X2635827Y391732D02*
D03*
X3159449Y3228347D02*
D03*
X4114173Y4212598D02*
D03*
X3061024Y3228347D02*
D03*
X2545276Y391732D02*
D03*
X2257874D02*
D03*
X4025590Y4281496D02*
D03*
X468504Y2828740D02*
D03*
Y2541339D02*
D03*
X5526575Y2942913D02*
D03*
D264*
X807087Y4616142D02*
D03*
D265*
X5610236Y2450787D02*
D03*
X5846457D02*
D03*
X5452756D02*
D03*
Y1978347D02*
D03*
X5610236D02*
D03*
X5688976D02*
D03*
X5531496D02*
D03*
X5295276D02*
D03*
X5374016D02*
D03*
X5295276Y2057087D02*
D03*
X5374016D02*
D03*
X5295276Y2135827D02*
D03*
X5374016D02*
D03*
X5295276Y2214567D02*
D03*
Y2293307D02*
D03*
X5452756Y2057087D02*
D03*
X5925197D02*
D03*
X5452756Y2135827D02*
D03*
X5925197D02*
D03*
X5452756Y2214567D02*
D03*
X5374016D02*
D03*
X5925197D02*
D03*
X5452756Y2293307D02*
D03*
X5925197D02*
D03*
X5374016D02*
D03*
X5452756Y2372047D02*
D03*
X5925197D02*
D03*
X5688976Y2450787D02*
D03*
X5767717D02*
D03*
X5925197D02*
D03*
X5531496D02*
D03*
X5767717Y1978347D02*
D03*
X5846457D02*
D03*
X5925197D02*
D03*
X5216535Y1299213D02*
D03*
Y1181102D02*
D03*
Y1240158D02*
D03*
X4365158Y2608268D02*
D03*
Y2667323D02*
D03*
X4542323Y2608268D02*
D03*
X4404528Y2667323D02*
D03*
X4502953D02*
D03*
X4542323D02*
D03*
X4404528Y2549213D02*
D03*
X4365158D02*
D03*
X4502953D02*
D03*
X4542323D02*
D03*
X4502953Y2608268D02*
D03*
X4404528D02*
D03*
X5216535Y314961D02*
D03*
X5157480D02*
D03*
X4921260Y374016D02*
D03*
X4862205D02*
D03*
X4921260Y314961D02*
D03*
X4862205D02*
D03*
X5098425D02*
D03*
X4980315D02*
D03*
X5039370D02*
D03*
X4980315Y374016D02*
D03*
X5039370D02*
D03*
X6604331Y1683071D02*
D03*
Y1584646D02*
D03*
Y1633858D02*
D03*
X6466535D02*
D03*
X6604331Y1732284D02*
D03*
X6555118Y1781496D02*
D03*
X6604331D02*
D03*
X6505905D02*
D03*
X6555118Y1830709D02*
D03*
X6505905D02*
D03*
X5452756Y68898D02*
D03*
X5531496D02*
D03*
X5610236D02*
D03*
X5688976D02*
D03*
X5452756Y147638D02*
D03*
Y226378D02*
D03*
Y305118D02*
D03*
Y383858D02*
D03*
Y462598D02*
D03*
Y541339D02*
D03*
X5531496D02*
D03*
X5610236D02*
D03*
X5688976D02*
D03*
X5767717D02*
D03*
Y68898D02*
D03*
X5846457D02*
D03*
X5925197D02*
D03*
Y147638D02*
D03*
Y226378D02*
D03*
Y305118D02*
D03*
Y383858D02*
D03*
Y462598D02*
D03*
X5846457Y541339D02*
D03*
X5925197D02*
D03*
X6003937Y226378D02*
D03*
X6318898Y305118D02*
D03*
X6082677Y226378D02*
D03*
X6161417D02*
D03*
X6240158D02*
D03*
X6318898D02*
D03*
X6161417Y305118D02*
D03*
X6240158D02*
D03*
X6161417Y383858D02*
D03*
X6240158D02*
D03*
X5452756Y1525591D02*
D03*
Y1053150D02*
D03*
X5531496D02*
D03*
X5610236D02*
D03*
X5688976D02*
D03*
X5452756Y1131890D02*
D03*
Y1210630D02*
D03*
Y1289370D02*
D03*
Y1368110D02*
D03*
Y1446850D02*
D03*
X5531496Y1525591D02*
D03*
X5610236D02*
D03*
X5688976D02*
D03*
X5767717Y1053150D02*
D03*
X5846457D02*
D03*
X5925197D02*
D03*
Y1131890D02*
D03*
Y1289370D02*
D03*
Y1210630D02*
D03*
Y1368110D02*
D03*
Y1446850D02*
D03*
X5767717Y1525591D02*
D03*
X5846457D02*
D03*
X5925197D02*
D03*
X4370079Y1427165D02*
D03*
X3976378D02*
D03*
X4055118D02*
D03*
X4133858D02*
D03*
X4212598D02*
D03*
X4291339D02*
D03*
X4448819D02*
D03*
X4527559D02*
D03*
X4606299D02*
D03*
X3976378Y1505906D02*
D03*
X4055118D02*
D03*
X4133858D02*
D03*
X3976378Y1584646D02*
D03*
X4055118D02*
D03*
X4133858D02*
D03*
X3976378Y1663386D02*
D03*
X4055118D02*
D03*
X4133858D02*
D03*
X3976378Y1742126D02*
D03*
X4055118D02*
D03*
X4133858D02*
D03*
X4606299Y1505906D02*
D03*
Y1584646D02*
D03*
Y1663386D02*
D03*
Y1742126D02*
D03*
X4133858Y1820866D02*
D03*
X4606299D02*
D03*
X4448819Y1899606D02*
D03*
X4527559D02*
D03*
X4370079D02*
D03*
X4291339D02*
D03*
X4133858D02*
D03*
X4212598D02*
D03*
X4606299D02*
D03*
X6624016Y1220472D02*
D03*
Y1102362D02*
D03*
Y1141732D02*
D03*
Y1181102D02*
D03*
X6033465Y1776575D02*
D03*
X6082677D02*
D03*
X6033465Y1825787D02*
D03*
Y1875000D02*
D03*
X6131890Y1776575D02*
D03*
X6082677Y1825787D02*
D03*
X6131890D02*
D03*
X6082677Y1875000D02*
D03*
X6131890D02*
D03*
X4714567Y2066929D02*
D03*
X4763779D02*
D03*
Y2116142D02*
D03*
X4714567D02*
D03*
X4665354D02*
D03*
X4714567Y2165354D02*
D03*
X4665354Y2066929D02*
D03*
X4606299Y2116142D02*
D03*
X4763779Y2165354D02*
D03*
X4665354D02*
D03*
X6377953Y1594488D02*
D03*
X6279528D02*
D03*
X6230315D02*
D03*
X6328740D02*
D03*
X3976378Y482284D02*
D03*
X4055118D02*
D03*
X4133858D02*
D03*
X3976378Y561024D02*
D03*
X4055118D02*
D03*
X4133858D02*
D03*
X3976378Y639764D02*
D03*
X4055118D02*
D03*
X4133858D02*
D03*
X3976378Y718504D02*
D03*
X4055118D02*
D03*
X4133858D02*
D03*
X3976378Y797244D02*
D03*
X4055118D02*
D03*
X4133858D02*
D03*
Y875984D02*
D03*
Y954724D02*
D03*
X4212598Y482284D02*
D03*
X4370079D02*
D03*
X4291339D02*
D03*
X4606299D02*
D03*
X4527559D02*
D03*
X4448819D02*
D03*
X4606299Y561024D02*
D03*
Y639764D02*
D03*
Y718504D02*
D03*
Y797244D02*
D03*
Y875984D02*
D03*
X4448819Y954724D02*
D03*
X4527559D02*
D03*
X4370079D02*
D03*
X4291339D02*
D03*
X4212598D02*
D03*
X4606299D02*
D03*
X6624016Y925197D02*
D03*
Y885827D02*
D03*
Y964567D02*
D03*
Y1003937D02*
D03*
X6313976Y118110D02*
D03*
X5334646Y944882D02*
D03*
X5374016D02*
D03*
%TF.MD5,53c7dfd45c3a39b6cd7d61ab44b93334*%
M02*
