G04*
G04 #@! TF.GenerationSoftware,Altium Limited,Altium Designer,22.4.2 (48)*
G04*
G04 Layer_Color=32896*
%FSLAX44Y44*%
%MOMM*%
G71*
G04*
G04 #@! TF.SameCoordinates,48E91D8D-70C2-4821-B120-44B0D6A4F858*
G04*
G04*
G04 #@! TF.FilePolarity,Positive*
G04*
G01*
G75*
%ADD23C,0.0875*%
D23*
X-19998Y118058D02*
X-20832Y118891D01*
X-21248Y120141D01*
Y121807D01*
X-20832Y123057D01*
X-19998Y123890D01*
X-19165D01*
X-18332Y123474D01*
X-17916Y123057D01*
X-17499Y122224D01*
X-16666Y119725D01*
X-16249Y118891D01*
X-15833Y118475D01*
X-15000Y118058D01*
X-13750D01*
X-12917Y118891D01*
X-12500Y120141D01*
Y121807D01*
X-12917Y123057D01*
X-13750Y123890D01*
X-21248Y116100D02*
X-12500D01*
X-21248Y114268D02*
X-12500D01*
Y109269D01*
X-21248Y108310D02*
X-12500D01*
X-21248Y102478D02*
X-15416Y108310D01*
X-17499Y106228D02*
X-12500Y102478D01*
X-19998Y94688D02*
X-20832Y95521D01*
X-21248Y96771D01*
Y98438D01*
X-20832Y99687D01*
X-19998Y100520D01*
X-19165D01*
X-18332Y100104D01*
X-17916Y99687D01*
X-17499Y98854D01*
X-16666Y96355D01*
X-16249Y95521D01*
X-15833Y95105D01*
X-15000Y94688D01*
X-13750D01*
X-12917Y95521D01*
X-12500Y96771D01*
Y98438D01*
X-12917Y99687D01*
X-13750Y100520D01*
X-19165Y86482D02*
X-19998Y86898D01*
X-20832Y87732D01*
X-21248Y88565D01*
Y90231D01*
X-20832Y91064D01*
X-19998Y91897D01*
X-19165Y92314D01*
X-17916Y92730D01*
X-15833D01*
X-14583Y92314D01*
X-13750Y91897D01*
X-12917Y91064D01*
X-12500Y90231D01*
Y88565D01*
X-12917Y87732D01*
X-13750Y86898D01*
X-14583Y86482D01*
X-21248Y84024D02*
X-12500D01*
X-21248D02*
Y80275D01*
X-20832Y79025D01*
X-20415Y78608D01*
X-19582Y78192D01*
X-18749D01*
X-17916Y78608D01*
X-17499Y79025D01*
X-17082Y80275D01*
Y84024D01*
Y81108D02*
X-12500Y78192D01*
X-21248Y70818D02*
Y76234D01*
X-12500D01*
Y70818D01*
X-17082Y76234D02*
Y72901D01*
X-21248Y63945D02*
Y69360D01*
X-12500D01*
Y63945D01*
X-17082Y69360D02*
Y66028D01*
X-21248Y62487D02*
X-12500D01*
X-21248D02*
X-12500Y56655D01*
X-21248D02*
X-12500D01*
X-21248Y47365D02*
X-12500D01*
X-21248D02*
Y43616D01*
X-20832Y42366D01*
X-20415Y41950D01*
X-19582Y41533D01*
X-18749D01*
X-17916Y41950D01*
X-17499Y42366D01*
X-17082Y43616D01*
Y47365D02*
Y43616D01*
X-16666Y42366D01*
X-16249Y41950D01*
X-15416Y41533D01*
X-14166D01*
X-13333Y41950D01*
X-12917Y42366D01*
X-12500Y43616D01*
Y47365D01*
X-21248Y37076D02*
X-20832Y37909D01*
X-19998Y38742D01*
X-19165Y39159D01*
X-17916Y39575D01*
X-15833D01*
X-14583Y39159D01*
X-13750Y38742D01*
X-12917Y37909D01*
X-12500Y37076D01*
Y35409D01*
X-12917Y34576D01*
X-13750Y33743D01*
X-14583Y33326D01*
X-15833Y32910D01*
X-17916D01*
X-19165Y33326D01*
X-19998Y33743D01*
X-20832Y34576D01*
X-21248Y35409D01*
Y37076D01*
Y27953D02*
X-12500D01*
X-21248Y30869D02*
Y25037D01*
Y21079D02*
X-12500D01*
X-21248Y23995D02*
Y18163D01*
Y14622D02*
X-20832Y15455D01*
X-19998Y16288D01*
X-19165Y16705D01*
X-17916Y17122D01*
X-15833D01*
X-14583Y16705D01*
X-13750Y16288D01*
X-12917Y15455D01*
X-12500Y14622D01*
Y12956D01*
X-12917Y12123D01*
X-13750Y11290D01*
X-14583Y10873D01*
X-15833Y10456D01*
X-17916D01*
X-19165Y10873D01*
X-19998Y11290D01*
X-20832Y12123D01*
X-21248Y12956D01*
Y14622D01*
Y8415D02*
X-12500D01*
X-21248D02*
X-12500Y5083D01*
X-21248Y1750D02*
X-12500Y5083D01*
X-21248Y1750D02*
X-12500D01*
M02*
