ISO-10303-21;
HEADER;
FILE_DESCRIPTION(('STEP AP214'),'1');
FILE_NAME('21-0076E_MXM','2020-08-27T17:16:45',(''),(''),'','','');
FILE_SCHEMA(('AUTOMOTIVE_DESIGN'));
ENDSEC;
DATA;
#1=SHAPE_DEFINITION_REPRESENTATION(#2,#3);
#2=PRODUCT_DEFINITION_SHAPE('',$,#4);
#3=SHAPE_REPRESENTATION('',(#71,#127,#816,#1686,#2556,#3426,#4296,#19),#11);
#4=PRODUCT_DEFINITION('design','example product_definition',#6,#5);
#5=PRODUCT_DEFINITION_CONTEXT('3D Mechanical Parts',#10,'design');
#6=PRODUCT_DEFINITION_FORMATION('1.0','first version',#8);
#7=APPLICATION_PROTOCOL_DEFINITION('international standard','automotive_design',2003,#10);
#8=PRODUCT('product','part','',(#9));
#9=PRODUCT_CONTEXT('3D Mechanical Parts',#10,'mechanical');
#10=APPLICATION_CONTEXT('Core Data for Automotive Mechanical Design Process');
#11=(GEOMETRIC_REPRESENTATION_CONTEXT(3) GLOBAL_UNCERTAINTY_ASSIGNED_CONTEXT((#12)) GLOBAL_UNIT_ASSIGNED_CONTEXT((#13,#14,#18)) REPRESENTATION_CONTEXT('ID1','3D'));
#12=UNCERTAINTY_MEASURE_WITH_UNIT(LENGTH_MEASURE(1.E-005),#13,'DISTANCE_ACCURACY_VALUE','Maximum model space distance between geometric entities at asserted connectivities');
#13=(LENGTH_UNIT() NAMED_UNIT(*) SI_UNIT(.MILLI.,.METRE.));
#14=(CONVERSION_BASED_UNIT('degree',#16) NAMED_UNIT(#15) PLANE_ANGLE_UNIT());
#15=DIMENSIONAL_EXPONENTS(0.,0.,0.,0.,0.,0.,0.);
#16=MEASURE_WITH_UNIT(PLANE_ANGLE_MEASURE(0.01745329252),#17);
#17=(NAMED_UNIT(*) PLANE_ANGLE_UNIT() SI_UNIT($,.RADIAN.));
#18=(NAMED_UNIT(*) SI_UNIT($,.STERADIAN.) SOLID_ANGLE_UNIT());
#19=AXIS2_PLACEMENT_3D('',#20,#21,#22);
#20=CARTESIAN_POINT('',(0.0,0.0,0.0));
#21=DIRECTION('',(0.0,0.0,1.0));
#22=DIRECTION('',(1.0,0.0,0.0));
#25=MECHANICAL_DESIGN_GEOMETRIC_PRESENTATION_REPRESENTATION($,(#123,#124,#125,#129,#178,#227,#276,#325,#374,#423,#472,#521,#570,#619,#668,#717,#766,#818,#867,#916,#965,#1014,#1063,#1112,#1161,#1210,#1261,#1312,#1363,#1414,#1550,#1688,#1737,#1786,#1835,#1884,#1933,#1982,#2031,#2080,#2131,#2182,#2233,#2284,#2420,#2558,#2607,#2656,#2705,#2754,#2803,#2852,#2901,#2950,#3001,#3052,#3103,#3154,#3290,#3428,#3477,#3526,#3575,#3624,#3673,#3722,#3771,#3820,#3871,#3922,#3973,#4024,#4160,#4298,#4347,#4396,#4445,#4494,#4543,#4592,#4641,#4690,#4741,#4792,#4843,#4894,#5030),#11);
#26=PRODUCT_CATEGORY_RELATIONSHIP('','',#27,#28);
#27=PRODUCT_CATEGORY('part','');
#28=PRODUCT_RELATED_PRODUCT_CATEGORY('','',(#8));
#34=PRESENTATION_STYLE_ASSIGNMENT((#35,#40));
#35=SURFACE_STYLE_USAGE(.BOTH.,#36);
#36=SURFACE_SIDE_STYLE('',(#37));
#37=SURFACE_STYLE_FILL_AREA(#38);
#38=FILL_AREA_STYLE('',(#39));
#39=FILL_AREA_STYLE_COLOUR('',#41);
#40=CURVE_STYLE('',#42,POSITIVE_LENGTH_MEASURE(0.1),#41);
#41=COLOUR_RGB('Aluminum',0.725,0.725,0.725);
#42=DRAUGHTING_PRE_DEFINED_CURVE_FONT('continuous');
#43=PRESENTATION_STYLE_ASSIGNMENT((#44,#49));
#44=SURFACE_STYLE_USAGE(.BOTH.,#45);
#45=SURFACE_SIDE_STYLE('',(#46));
#46=SURFACE_STYLE_FILL_AREA(#47);
#47=FILL_AREA_STYLE('',(#48));
#48=FILL_AREA_STYLE_COLOUR('',#50);
#49=CURVE_STYLE('',#51,POSITIVE_LENGTH_MEASURE(0.1),#50);
#50=COLOUR_RGB('Black',0.196,0.196,0.196);
#51=DRAUGHTING_PRE_DEFINED_CURVE_FONT('continuous');
#52=PRESENTATION_STYLE_ASSIGNMENT((#53,#58));
#53=SURFACE_STYLE_USAGE(.BOTH.,#54);
#54=SURFACE_SIDE_STYLE('',(#55));
#55=SURFACE_STYLE_FILL_AREA(#56);
#56=FILL_AREA_STYLE('',(#57));
#57=FILL_AREA_STYLE_COLOUR('',#59);
#58=CURVE_STYLE('',#60,POSITIVE_LENGTH_MEASURE(0.1),#59);
#59=COLOUR_RGB('Pin1',0.588,0.588,0.588);
#60=DRAUGHTING_PRE_DEFINED_CURVE_FONT('continuous');
#61=PRESENTATION_STYLE_ASSIGNMENT((#62,#67));
#62=SURFACE_STYLE_USAGE(.BOTH.,#63);
#63=SURFACE_SIDE_STYLE('',(#64));
#64=SURFACE_STYLE_FILL_AREA(#65);
#65=FILL_AREA_STYLE('',(#66));
#66=FILL_AREA_STYLE_COLOUR('',#68);
#67=CURVE_STYLE('',#69,POSITIVE_LENGTH_MEASURE(0.1),#68);
#68=COLOUR_RGB('HeatTab',0.588,0.588,0.588);
#69=DRAUGHTING_PRE_DEFINED_CURVE_FONT('continuous');
#71=MANIFOLD_SOLID_BREP($,#72);
#72=CLOSED_SHELL('',(#73,#74,#75));
#73=ADVANCED_FACE($,(#79,#78),#96,.T.);
#74=ADVANCED_FACE($,(#80),#76,.F.);
#75=ADVANCED_FACE($,(#81),#77,.T.);
#76=PLANE($,#101);
#77=PLANE($,#102);
#78=FACE_BOUND($,#83,.T.);
#79=FACE_OUTER_BOUND($,#82,.T.);
#80=FACE_OUTER_BOUND($,#84,.T.);
#81=FACE_OUTER_BOUND($,#85,.T.);
#82=EDGE_LOOP($,(#92));
#83=EDGE_LOOP($,(#93));
#84=EDGE_LOOP($,(#94));
#85=EDGE_LOOP($,(#95));
#86=CIRCLE($,#99,0.033655);
#87=CIRCLE($,#100,0.033655);
#88=VERTEX_POINT('',#117);
#89=VERTEX_POINT('',#119);
#90=EDGE_CURVE($,#88,#88,#86,.T.);
#91=EDGE_CURVE($,#89,#89,#87,.T.);
#92=ORIENTED_EDGE($,*,*,#90,.F.);
#93=ORIENTED_EDGE($,*,*,#91,.F.);
#94=ORIENTED_EDGE($,*,*,#91,.T.);
#95=ORIENTED_EDGE($,*,*,#90,.T.);
#96=CYLINDRICAL_SURFACE($,#98,0.033655);
#97=AXIS2_PLACEMENT_3D('placement',#115,#103,#104);
#98=AXIS2_PLACEMENT_3D($,#116,#105,#106);
#99=AXIS2_PLACEMENT_3D($,#118,#107,#108);
#100=AXIS2_PLACEMENT_3D($,#120,#109,#110);
#101=AXIS2_PLACEMENT_3D($,#121,#111,#112);
#102=AXIS2_PLACEMENT_3D($,#122,#113,#114);
#103=DIRECTION('axis',(0.,1.,0.));
#104=DIRECTION('refdir',(1.,0.,0.));
#105=DIRECTION('',(0.,0.,1.));
#106=DIRECTION('',(1.,0.,0.));
#107=DIRECTION('',(0.,0.,1.));
#108=DIRECTION('',(1.,0.,0.));
#109=DIRECTION('',(0.,0.,-1.));
#110=DIRECTION('',(1.,0.,0.));
#111=DIRECTION('',(0.,0.,1.));
#112=DIRECTION('',(0.,1.,0.));
#113=DIRECTION('',(0.,0.,1.));
#114=DIRECTION('',(0.,1.,0.));
#115=CARTESIAN_POINT('',(0.,0.,0.));
#116=CARTESIAN_POINT('',(-0.361,0.65,1.092));
#117=CARTESIAN_POINT('',(-0.395,0.65,1.095));
#118=CARTESIAN_POINT('',(-0.361,0.65,1.095));
#119=CARTESIAN_POINT('',(-0.395,0.65,1.092));
#120=CARTESIAN_POINT('',(-0.361,0.65,1.092));
#121=CARTESIAN_POINT('',(-0.361,0.65,1.092));
#122=CARTESIAN_POINT('',(-0.361,0.65,1.095));
#123=STYLED_ITEM('color',(#52),#73);
#124=STYLED_ITEM('color',(#52),#74);
#125=STYLED_ITEM('color',(#52),#75);
#127=MANIFOLD_SOLID_BREP($,#128);
#128=CLOSED_SHELL('',(#130,#179,#228,#277,#326,#375,#424,#473,#522,#571,#620,#669,#718,#767));
#129=STYLED_ITEM('',(#43),#130);
#130=ADVANCED_FACE('',(#136),#131,.T.);
#131=PLANE('',#132);
#132=AXIS2_PLACEMENT_3D('',#133,#134,#135);
#133=CARTESIAN_POINT('',(-0.521,-1.08,1.092));
#134=DIRECTION('',(0.0,0.0,1.0));
#135=DIRECTION('',(0.,1.,0.));
#136=FACE_OUTER_BOUND('',#137,.T.);
#137=EDGE_LOOP('',(#138,#148,#158,#168));
#141=CARTESIAN_POINT('',(0.521,-1.08,1.092));
#140=VERTEX_POINT('',#141);
#143=CARTESIAN_POINT('',(-0.521,-1.08,1.092));
#142=VERTEX_POINT('',#143);
#139=EDGE_CURVE('',#140,#142,#144,.T.);
#144=LINE('',#141,#146);
#146=VECTOR('',#147,1.0414);
#147=DIRECTION('',(-1.0,0.0,0.0));
#138=ORIENTED_EDGE('',*,*,#139,.F.);
#151=CARTESIAN_POINT('',(0.521,1.08,1.092));
#150=VERTEX_POINT('',#151);
#149=EDGE_CURVE('',#150,#140,#154,.T.);
#154=LINE('',#151,#156);
#156=VECTOR('',#157,2.159);
#157=DIRECTION('',(0.0,-1.0,0.0));
#148=ORIENTED_EDGE('',*,*,#149,.F.);
#161=CARTESIAN_POINT('',(-0.521,1.08,1.092));
#160=VERTEX_POINT('',#161);
#159=EDGE_CURVE('',#160,#150,#164,.T.);
#164=LINE('',#161,#166);
#166=VECTOR('',#167,1.0414);
#167=DIRECTION('',(1.0,0.0,0.0));
#158=ORIENTED_EDGE('',*,*,#159,.F.);
#169=EDGE_CURVE('',#142,#160,#174,.T.);
#174=LINE('',#143,#176);
#176=VECTOR('',#177,2.159);
#177=DIRECTION('',(0.0,1.0,0.0));
#168=ORIENTED_EDGE('',*,*,#169,.F.);
#178=STYLED_ITEM('',(#43),#179);
#179=ADVANCED_FACE('',(#185),#180,.T.);
#180=PLANE('',#181);
#181=AXIS2_PLACEMENT_3D('',#182,#183,#184);
#182=CARTESIAN_POINT('',(-0.673,-1.105,0.688));
#183=DIRECTION('',(0.0,-0.998,0.063));
#184=DIRECTION('',(0.,0.,1.));
#185=FACE_OUTER_BOUND('',#186,.T.);
#186=EDGE_LOOP('',(#187,#197,#207,#217));
#190=CARTESIAN_POINT('',(0.673,-1.105,0.688));
#189=VERTEX_POINT('',#190);
#192=CARTESIAN_POINT('',(-0.673,-1.105,0.688));
#191=VERTEX_POINT('',#192);
#188=EDGE_CURVE('',#189,#191,#193,.T.);
#193=LINE('',#190,#195);
#195=VECTOR('',#196,1.3462);
#196=DIRECTION('',(-1.0,0.0,0.0));
#187=ORIENTED_EDGE('',*,*,#188,.F.);
#198=EDGE_CURVE('',#140,#189,#203,.T.);
#203=LINE('',#141,#205);
#205=VECTOR('',#206,0.432404694239089);
#206=DIRECTION('',(0.352,-0.059,-0.934));
#197=ORIENTED_EDGE('',*,*,#198,.F.);
#207=ORIENTED_EDGE('',*,*,#139,.T.);
#218=EDGE_CURVE('',#191,#142,#223,.T.);
#223=LINE('',#192,#225);
#225=VECTOR('',#226,0.432404694239089);
#226=DIRECTION('',(0.352,0.059,0.934));
#217=ORIENTED_EDGE('',*,*,#218,.F.);
#227=STYLED_ITEM('',(#43),#228);
#228=ADVANCED_FACE('',(#234),#229,.T.);
#229=PLANE('',#230);
#230=AXIS2_PLACEMENT_3D('',#231,#232,#233);
#231=CARTESIAN_POINT('',(0.673,-1.105,0.688));
#232=DIRECTION('',(0.936,0.0,0.353));
#233=DIRECTION('',(0.,0.,1.));
#234=FACE_OUTER_BOUND('',#235,.T.);
#235=EDGE_LOOP('',(#236,#246,#256,#266));
#239=CARTESIAN_POINT('',(0.673,1.105,0.688));
#238=VERTEX_POINT('',#239);
#237=EDGE_CURVE('',#238,#189,#242,.T.);
#242=LINE('',#239,#244);
#244=VECTOR('',#245,2.2098);
#245=DIRECTION('',(0.0,-1.0,0.0));
#236=ORIENTED_EDGE('',*,*,#237,.F.);
#247=EDGE_CURVE('',#150,#238,#252,.T.);
#252=LINE('',#151,#254);
#254=VECTOR('',#255,0.432404694239089);
#255=DIRECTION('',(0.352,0.059,-0.934));
#246=ORIENTED_EDGE('',*,*,#247,.F.);
#256=ORIENTED_EDGE('',*,*,#149,.T.);
#266=ORIENTED_EDGE('',*,*,#198,.T.);
#276=STYLED_ITEM('',(#43),#277);
#277=ADVANCED_FACE('',(#283),#278,.T.);
#278=PLANE('',#279);
#279=AXIS2_PLACEMENT_3D('',#280,#281,#282);
#280=CARTESIAN_POINT('',(0.673,1.105,0.688));
#281=DIRECTION('',(0.0,0.998,0.063));
#282=DIRECTION('',(0.,0.,1.));
#283=FACE_OUTER_BOUND('',#284,.T.);
#284=EDGE_LOOP('',(#285,#295,#305,#315));
#288=CARTESIAN_POINT('',(-0.673,1.105,0.688));
#287=VERTEX_POINT('',#288);
#286=EDGE_CURVE('',#287,#238,#291,.T.);
#291=LINE('',#288,#293);
#293=VECTOR('',#294,1.3462);
#294=DIRECTION('',(1.0,0.0,0.0));
#285=ORIENTED_EDGE('',*,*,#286,.F.);
#296=EDGE_CURVE('',#160,#287,#301,.T.);
#301=LINE('',#161,#303);
#303=VECTOR('',#304,0.432404694239089);
#304=DIRECTION('',(-0.352,0.059,-0.934));
#295=ORIENTED_EDGE('',*,*,#296,.F.);
#305=ORIENTED_EDGE('',*,*,#159,.T.);
#315=ORIENTED_EDGE('',*,*,#247,.T.);
#325=STYLED_ITEM('',(#43),#326);
#326=ADVANCED_FACE('',(#332),#327,.T.);
#327=PLANE('',#328);
#328=AXIS2_PLACEMENT_3D('',#329,#330,#331);
#329=CARTESIAN_POINT('',(-0.673,1.105,0.688));
#330=DIRECTION('',(-0.936,0.0,0.353));
#331=DIRECTION('',(0.,0.,1.));
#332=FACE_OUTER_BOUND('',#333,.T.);
#333=EDGE_LOOP('',(#334,#344,#354,#364));
#335=EDGE_CURVE('',#191,#287,#340,.T.);
#340=LINE('',#192,#342);
#342=VECTOR('',#343,2.2098);
#343=DIRECTION('',(0.0,1.0,0.0));
#334=ORIENTED_EDGE('',*,*,#335,.F.);
#344=ORIENTED_EDGE('',*,*,#218,.T.);
#354=ORIENTED_EDGE('',*,*,#169,.T.);
#364=ORIENTED_EDGE('',*,*,#296,.T.);
#374=STYLED_ITEM('',(#43),#375);
#375=ADVANCED_FACE('',(#381),#376,.T.);
#376=PLANE('',#377);
#377=AXIS2_PLACEMENT_3D('',#378,#379,#380);
#378=CARTESIAN_POINT('',(-0.673,-1.105,0.404));
#379=DIRECTION('',(0.0,-1.0,0.0));
#380=DIRECTION('',(0.,0.,1.));
#381=FACE_OUTER_BOUND('',#382,.T.);
#382=EDGE_LOOP('',(#383,#393,#403,#413));
#386=CARTESIAN_POINT('',(0.673,-1.105,0.404));
#385=VERTEX_POINT('',#386);
#388=CARTESIAN_POINT('',(-0.673,-1.105,0.404));
#387=VERTEX_POINT('',#388);
#384=EDGE_CURVE('',#385,#387,#389,.T.);
#389=LINE('',#386,#391);
#391=VECTOR('',#392,1.3462);
#392=DIRECTION('',(-1.0,0.0,0.0));
#383=ORIENTED_EDGE('',*,*,#384,.F.);
#394=EDGE_CURVE('',#189,#385,#399,.T.);
#399=LINE('',#190,#401);
#401=VECTOR('',#402,0.28448);
#402=DIRECTION('',(0.0,0.0,-1.0));
#393=ORIENTED_EDGE('',*,*,#394,.F.);
#403=ORIENTED_EDGE('',*,*,#188,.T.);
#414=EDGE_CURVE('',#387,#191,#419,.T.);
#419=LINE('',#388,#421);
#421=VECTOR('',#422,0.28448);
#422=DIRECTION('',(0.0,0.0,1.0));
#413=ORIENTED_EDGE('',*,*,#414,.F.);
#423=STYLED_ITEM('',(#43),#424);
#424=ADVANCED_FACE('',(#430),#425,.T.);
#425=PLANE('',#426);
#426=AXIS2_PLACEMENT_3D('',#427,#428,#429);
#427=CARTESIAN_POINT('',(0.673,-1.105,0.404));
#428=DIRECTION('',(1.0,0.0,0.0));
#429=DIRECTION('',(0.,0.,1.));
#430=FACE_OUTER_BOUND('',#431,.T.);
#431=EDGE_LOOP('',(#432,#442,#452,#462));
#435=CARTESIAN_POINT('',(0.673,1.105,0.404));
#434=VERTEX_POINT('',#435);
#433=EDGE_CURVE('',#434,#385,#438,.T.);
#438=LINE('',#435,#440);
#440=VECTOR('',#441,2.2098);
#441=DIRECTION('',(0.0,-1.0,0.0));
#432=ORIENTED_EDGE('',*,*,#433,.F.);
#443=EDGE_CURVE('',#238,#434,#448,.T.);
#448=LINE('',#239,#450);
#450=VECTOR('',#451,0.28448);
#451=DIRECTION('',(0.0,0.0,-1.0));
#442=ORIENTED_EDGE('',*,*,#443,.F.);
#452=ORIENTED_EDGE('',*,*,#237,.T.);
#462=ORIENTED_EDGE('',*,*,#394,.T.);
#472=STYLED_ITEM('',(#43),#473);
#473=ADVANCED_FACE('',(#479),#474,.T.);
#474=PLANE('',#475);
#475=AXIS2_PLACEMENT_3D('',#476,#477,#478);
#476=CARTESIAN_POINT('',(0.673,1.105,0.404));
#477=DIRECTION('',(0.0,1.0,0.0));
#478=DIRECTION('',(0.,0.,1.));
#479=FACE_OUTER_BOUND('',#480,.T.);
#480=EDGE_LOOP('',(#481,#491,#501,#511));
#484=CARTESIAN_POINT('',(-0.673,1.105,0.404));
#483=VERTEX_POINT('',#484);
#482=EDGE_CURVE('',#483,#434,#487,.T.);
#487=LINE('',#484,#489);
#489=VECTOR('',#490,1.3462);
#490=DIRECTION('',(1.0,0.0,0.0));
#481=ORIENTED_EDGE('',*,*,#482,.F.);
#492=EDGE_CURVE('',#287,#483,#497,.T.);
#497=LINE('',#288,#499);
#499=VECTOR('',#500,0.28448);
#500=DIRECTION('',(0.0,0.0,-1.0));
#491=ORIENTED_EDGE('',*,*,#492,.F.);
#501=ORIENTED_EDGE('',*,*,#286,.T.);
#511=ORIENTED_EDGE('',*,*,#443,.T.);
#521=STYLED_ITEM('',(#43),#522);
#522=ADVANCED_FACE('',(#528),#523,.T.);
#523=PLANE('',#524);
#524=AXIS2_PLACEMENT_3D('',#525,#526,#527);
#525=CARTESIAN_POINT('',(-0.673,1.105,0.404));
#526=DIRECTION('',(-1.0,0.0,0.0));
#527=DIRECTION('',(0.,0.,1.));
#528=FACE_OUTER_BOUND('',#529,.T.);
#529=EDGE_LOOP('',(#530,#540,#550,#560));
#531=EDGE_CURVE('',#387,#483,#536,.T.);
#536=LINE('',#388,#538);
#538=VECTOR('',#539,2.2098);
#539=DIRECTION('',(0.0,1.0,0.0));
#530=ORIENTED_EDGE('',*,*,#531,.F.);
#540=ORIENTED_EDGE('',*,*,#414,.T.);
#550=ORIENTED_EDGE('',*,*,#335,.T.);
#560=ORIENTED_EDGE('',*,*,#492,.T.);
#570=STYLED_ITEM('',(#43),#571);
#571=ADVANCED_FACE('',(#577),#572,.T.);
#572=PLANE('',#573);
#573=AXIS2_PLACEMENT_3D('',#574,#575,#576);
#574=CARTESIAN_POINT('',(-0.597,-1.054,0.0));
#575=DIRECTION('',(0.0,-0.992,-0.125));
#576=DIRECTION('',(0.,0.,1.));
#577=FACE_OUTER_BOUND('',#578,.T.);
#578=EDGE_LOOP('',(#579,#589,#599,#609));
#582=CARTESIAN_POINT('',(0.597,-1.054,0.0));
#581=VERTEX_POINT('',#582);
#584=CARTESIAN_POINT('',(-0.597,-1.054,0.0));
#583=VERTEX_POINT('',#584);
#580=EDGE_CURVE('',#581,#583,#585,.T.);
#585=LINE('',#582,#587);
#587=VECTOR('',#588,1.1938);
#588=DIRECTION('',(-1.0,0.0,0.0));
#579=ORIENTED_EDGE('',*,*,#580,.F.);
#590=EDGE_CURVE('',#385,#581,#595,.T.);
#595=LINE('',#386,#597);
#597=VECTOR('',#598,0.414113486377829);
#598=DIRECTION('',(-0.184,0.123,-0.975));
#589=ORIENTED_EDGE('',*,*,#590,.F.);
#599=ORIENTED_EDGE('',*,*,#384,.T.);
#610=EDGE_CURVE('',#583,#387,#615,.T.);
#615=LINE('',#584,#617);
#617=VECTOR('',#618,0.414113486377829);
#618=DIRECTION('',(-0.184,-0.123,0.975));
#609=ORIENTED_EDGE('',*,*,#610,.F.);
#619=STYLED_ITEM('',(#43),#620);
#620=ADVANCED_FACE('',(#626),#621,.T.);
#621=PLANE('',#622);
#622=AXIS2_PLACEMENT_3D('',#623,#624,#625);
#623=CARTESIAN_POINT('',(0.597,-1.054,0.0));
#624=DIRECTION('',(0.983,0.0,-0.185));
#625=DIRECTION('',(0.,0.,1.));
#626=FACE_OUTER_BOUND('',#627,.T.);
#627=EDGE_LOOP('',(#628,#638,#648,#658));
#631=CARTESIAN_POINT('',(0.597,1.054,0.0));
#630=VERTEX_POINT('',#631);
#629=EDGE_CURVE('',#630,#581,#634,.T.);
#634=LINE('',#631,#636);
#636=VECTOR('',#637,2.1082);
#637=DIRECTION('',(0.0,-1.0,0.0));
#628=ORIENTED_EDGE('',*,*,#629,.F.);
#639=EDGE_CURVE('',#434,#630,#644,.T.);
#644=LINE('',#435,#646);
#646=VECTOR('',#647,0.414113486377829);
#647=DIRECTION('',(-0.184,-0.123,-0.975));
#638=ORIENTED_EDGE('',*,*,#639,.F.);
#648=ORIENTED_EDGE('',*,*,#433,.T.);
#658=ORIENTED_EDGE('',*,*,#590,.T.);
#668=STYLED_ITEM('',(#43),#669);
#669=ADVANCED_FACE('',(#675),#670,.T.);
#670=PLANE('',#671);
#671=AXIS2_PLACEMENT_3D('',#672,#673,#674);
#672=CARTESIAN_POINT('',(0.597,1.054,0.0));
#673=DIRECTION('',(0.0,0.992,-0.125));
#674=DIRECTION('',(0.,0.,1.));
#675=FACE_OUTER_BOUND('',#676,.T.);
#676=EDGE_LOOP('',(#677,#687,#697,#707));
#680=CARTESIAN_POINT('',(-0.597,1.054,0.0));
#679=VERTEX_POINT('',#680);
#678=EDGE_CURVE('',#679,#630,#683,.T.);
#683=LINE('',#680,#685);
#685=VECTOR('',#686,1.1938);
#686=DIRECTION('',(1.0,0.0,0.0));
#677=ORIENTED_EDGE('',*,*,#678,.F.);
#688=EDGE_CURVE('',#483,#679,#693,.T.);
#693=LINE('',#484,#695);
#695=VECTOR('',#696,0.414113486377829);
#696=DIRECTION('',(0.184,-0.123,-0.975));
#687=ORIENTED_EDGE('',*,*,#688,.F.);
#697=ORIENTED_EDGE('',*,*,#482,.T.);
#707=ORIENTED_EDGE('',*,*,#639,.T.);
#717=STYLED_ITEM('',(#43),#718);
#718=ADVANCED_FACE('',(#724),#719,.T.);
#719=PLANE('',#720);
#720=AXIS2_PLACEMENT_3D('',#721,#722,#723);
#721=CARTESIAN_POINT('',(-0.597,1.054,0.0));
#722=DIRECTION('',(-0.983,0.0,-0.185));
#723=DIRECTION('',(0.,0.,1.));
#724=FACE_OUTER_BOUND('',#725,.T.);
#725=EDGE_LOOP('',(#726,#736,#746,#756));
#727=EDGE_CURVE('',#583,#679,#732,.T.);
#732=LINE('',#584,#734);
#734=VECTOR('',#735,2.1082);
#735=DIRECTION('',(0.0,1.0,0.0));
#726=ORIENTED_EDGE('',*,*,#727,.F.);
#736=ORIENTED_EDGE('',*,*,#610,.T.);
#746=ORIENTED_EDGE('',*,*,#531,.T.);
#756=ORIENTED_EDGE('',*,*,#688,.T.);
#766=STYLED_ITEM('',(#43),#767);
#767=ADVANCED_FACE('',(#773),#768,.T.);
#768=PLANE('',#769);
#769=AXIS2_PLACEMENT_3D('',#770,#771,#772);
#770=CARTESIAN_POINT('',(-0.597,1.054,0.0));
#771=DIRECTION('',(0.0,0.0,-1.0));
#772=DIRECTION('',(0.,1.,0.));
#773=FACE_OUTER_BOUND('',#774,.T.);
#774=EDGE_LOOP('',(#775,#785,#795,#805));
#775=ORIENTED_EDGE('',*,*,#678,.T.);
#785=ORIENTED_EDGE('',*,*,#629,.T.);
#795=ORIENTED_EDGE('',*,*,#580,.T.);
#805=ORIENTED_EDGE('',*,*,#727,.T.);
#816=MANIFOLD_SOLID_BREP($,#817);
#817=CLOSED_SHELL('',(#819,#868,#917,#966,#1015,#1064,#1113,#1162,#1211,#1262,#1313,#1364,#1415,#1551));
#818=STYLED_ITEM('',(#34),#819);
#819=ADVANCED_FACE('',(#825),#820,.T.);
#820=PLANE('',#821);
#821=AXIS2_PLACEMENT_3D('',#822,#823,#824);
#822=CARTESIAN_POINT('',(-0.673,0.498,0.543));
#823=DIRECTION('',(1.0,0.0,0.0));
#824=DIRECTION('',(0.,0.,1.));
#825=FACE_OUTER_BOUND('',#826,.T.);
#826=EDGE_LOOP('',(#827,#837,#847,#857));
#830=CARTESIAN_POINT('',(-0.673,0.802,0.543));
#829=VERTEX_POINT('',#830);
#832=CARTESIAN_POINT('',(-0.673,0.498,0.543));
#831=VERTEX_POINT('',#832);
#828=EDGE_CURVE('',#829,#831,#833,.T.);
#833=LINE('',#830,#835);
#835=VECTOR('',#836,0.304799994946644);
#836=DIRECTION('',(0.0,-1.0,0.0));
#827=ORIENTED_EDGE('',*,*,#828,.F.);
#840=CARTESIAN_POINT('',(-0.673,0.802,0.673));
#839=VERTEX_POINT('',#840);
#838=EDGE_CURVE('',#839,#829,#843,.T.);
#843=LINE('',#840,#845);
#845=VECTOR('',#846,0.130175);
#846=DIRECTION('',(0.0,0.0,-1.0));
#837=ORIENTED_EDGE('',*,*,#838,.F.);
#850=CARTESIAN_POINT('',(-0.673,0.498,0.673));
#849=VERTEX_POINT('',#850);
#848=EDGE_CURVE('',#849,#839,#853,.T.);
#853=LINE('',#850,#855);
#855=VECTOR('',#856,0.304799994946644);
#856=DIRECTION('',(0.0,1.0,0.0));
#847=ORIENTED_EDGE('',*,*,#848,.F.);
#858=EDGE_CURVE('',#831,#849,#863,.T.);
#863=LINE('',#832,#865);
#865=VECTOR('',#866,0.130175);
#866=DIRECTION('',(0.0,0.0,1.0));
#857=ORIENTED_EDGE('',*,*,#858,.F.);
#867=STYLED_ITEM('',(#34),#868);
#868=ADVANCED_FACE('',(#874),#869,.T.);
#869=PLANE('',#870);
#870=AXIS2_PLACEMENT_3D('',#871,#872,#873);
#871=CARTESIAN_POINT('',(-0.673,0.498,0.673));
#872=DIRECTION('',(0.0,0.0,1.0));
#873=DIRECTION('',(0.,1.,0.));
#874=FACE_OUTER_BOUND('',#875,.T.);
#875=EDGE_LOOP('',(#876,#886,#896,#906));
#876=ORIENTED_EDGE('',*,*,#848,.T.);
#889=CARTESIAN_POINT('',(-0.711,0.802,0.673));
#888=VERTEX_POINT('',#889);
#887=EDGE_CURVE('',#888,#839,#892,.T.);
#892=LINE('',#889,#894);
#894=VECTOR('',#895,3.77820721013587E-02);
#895=DIRECTION('',(1.0,0.0,0.0));
#886=ORIENTED_EDGE('',*,*,#887,.F.);
#899=CARTESIAN_POINT('',(-0.711,0.498,0.673));
#898=VERTEX_POINT('',#899);
#897=EDGE_CURVE('',#898,#888,#902,.T.);
#902=LINE('',#899,#904);
#904=VECTOR('',#905,0.304799994968323);
#905=DIRECTION('',(0.0,1.0,0.0));
#896=ORIENTED_EDGE('',*,*,#897,.F.);
#907=EDGE_CURVE('',#849,#898,#912,.T.);
#912=LINE('',#850,#914);
#914=VECTOR('',#915,3.77820721013588E-02);
#915=DIRECTION('',(-1.0,0.0,0.0));
#906=ORIENTED_EDGE('',*,*,#907,.F.);
#916=STYLED_ITEM('',(#34),#917);
#917=ADVANCED_FACE('',(#923),#918,.T.);
#918=PLANE('',#919);
#919=AXIS2_PLACEMENT_3D('',#920,#921,#922);
#920=CARTESIAN_POINT('',(-0.673,0.802,0.543));
#921=DIRECTION('',(0.0,0.0,-1.0));
#922=DIRECTION('',(0.,1.,0.));
#923=FACE_OUTER_BOUND('',#924,.T.);
#924=EDGE_LOOP('',(#925,#935,#945,#955));
#925=ORIENTED_EDGE('',*,*,#828,.T.);
#938=CARTESIAN_POINT('',(-0.711,0.498,0.543));
#937=VERTEX_POINT('',#938);
#936=EDGE_CURVE('',#937,#831,#941,.T.);
#941=LINE('',#938,#943);
#943=VECTOR('',#944,3.77820721013588E-02);
#944=DIRECTION('',(1.0,0.0,0.0));
#935=ORIENTED_EDGE('',*,*,#936,.F.);
#948=CARTESIAN_POINT('',(-0.711,0.802,0.543));
#947=VERTEX_POINT('',#948);
#946=EDGE_CURVE('',#947,#937,#951,.T.);
#951=LINE('',#948,#953);
#953=VECTOR('',#954,0.304799994968323);
#954=DIRECTION('',(0.0,-1.0,0.0));
#945=ORIENTED_EDGE('',*,*,#946,.F.);
#956=EDGE_CURVE('',#829,#947,#961,.T.);
#961=LINE('',#830,#963);
#963=VECTOR('',#964,3.77820721013587E-02);
#964=DIRECTION('',(-1.0,0.0,0.0));
#955=ORIENTED_EDGE('',*,*,#956,.F.);
#965=STYLED_ITEM('',(#34),#966);
#966=ADVANCED_FACE('',(#972),#967,.T.);
#967=PLANE('',#968);
#968=AXIS2_PLACEMENT_3D('',#969,#970,#971);
#969=CARTESIAN_POINT('',(-1.03,0.802,0.227));
#970=DIRECTION('',(-0.966,0.0,0.259));
#971=DIRECTION('',(0.,0.,1.));
#972=FACE_OUTER_BOUND('',#973,.T.);
#973=EDGE_LOOP('',(#974,#984,#994,#1004));
#977=CARTESIAN_POINT('',(-1.03,0.498,0.227));
#976=VERTEX_POINT('',#977);
#979=CARTESIAN_POINT('',(-1.03,0.802,0.227));
#978=VERTEX_POINT('',#979);
#975=EDGE_CURVE('',#976,#978,#980,.T.);
#980=LINE('',#977,#982);
#982=VECTOR('',#983,0.304799995818656);
#983=DIRECTION('',(0.0,1.0,0.0));
#974=ORIENTED_EDGE('',*,*,#975,.F.);
#987=CARTESIAN_POINT('',(-0.962,0.498,0.48));
#986=VERTEX_POINT('',#987);
#985=EDGE_CURVE('',#986,#976,#990,.T.);
#990=LINE('',#987,#992);
#992=VECTOR('',#993,0.262415537526308);
#993=DIRECTION('',(-0.259,0.0,-0.966));
#984=ORIENTED_EDGE('',*,*,#985,.F.);
#997=CARTESIAN_POINT('',(-0.962,0.802,0.48));
#996=VERTEX_POINT('',#997);
#995=EDGE_CURVE('',#996,#986,#1000,.T.);
#1000=LINE('',#997,#1002);
#1002=VECTOR('',#1003,0.304799995406365);
#1003=DIRECTION('',(0.0,-1.0,0.0));
#994=ORIENTED_EDGE('',*,*,#995,.F.);
#1005=EDGE_CURVE('',#978,#996,#1010,.T.);
#1010=LINE('',#979,#1012);
#1012=VECTOR('',#1013,0.262415537526308);
#1013=DIRECTION('',(0.259,0.0,0.966));
#1004=ORIENTED_EDGE('',*,*,#1005,.F.);
#1014=STYLED_ITEM('',(#34),#1015);
#1015=ADVANCED_FACE('',(#1021),#1016,.T.);
#1016=PLANE('',#1017);
#1017=AXIS2_PLACEMENT_3D('',#1018,#1019,#1020);
#1018=CARTESIAN_POINT('',(-0.905,0.498,0.193));
#1019=DIRECTION('',(0.966,0.0,-0.259));
#1020=DIRECTION('',(0.,0.,1.));
#1021=FACE_OUTER_BOUND('',#1022,.T.);
#1022=EDGE_LOOP('',(#1023,#1033,#1043,#1053));
#1026=CARTESIAN_POINT('',(-0.905,0.802,0.193));
#1025=VERTEX_POINT('',#1026);
#1028=CARTESIAN_POINT('',(-0.905,0.498,0.193));
#1027=VERTEX_POINT('',#1028);
#1024=EDGE_CURVE('',#1025,#1027,#1029,.T.);
#1029=LINE('',#1026,#1031);
#1031=VECTOR('',#1032,0.304799995219162);
#1032=DIRECTION('',(0.0,-1.0,0.0));
#1023=ORIENTED_EDGE('',*,*,#1024,.F.);
#1036=CARTESIAN_POINT('',(-0.837,0.802,0.446));
#1035=VERTEX_POINT('',#1036);
#1034=EDGE_CURVE('',#1035,#1025,#1039,.T.);
#1039=LINE('',#1036,#1041);
#1041=VECTOR('',#1042,0.262415537584304);
#1042=DIRECTION('',(-0.259,0.0,-0.966));
#1033=ORIENTED_EDGE('',*,*,#1034,.F.);
#1046=CARTESIAN_POINT('',(-0.837,0.498,0.446));
#1045=VERTEX_POINT('',#1046);
#1044=EDGE_CURVE('',#1045,#1035,#1049,.T.);
#1049=LINE('',#1046,#1051);
#1051=VECTOR('',#1052,0.304799995090222);
#1052=DIRECTION('',(0.0,1.0,0.0));
#1043=ORIENTED_EDGE('',*,*,#1044,.F.);
#1054=EDGE_CURVE('',#1027,#1045,#1059,.T.);
#1059=LINE('',#1028,#1061);
#1061=VECTOR('',#1062,0.262415537584304);
#1062=DIRECTION('',(0.259,0.0,0.966));
#1053=ORIENTED_EDGE('',*,*,#1054,.F.);
#1063=STYLED_ITEM('',(#34),#1064);
#1064=ADVANCED_FACE('',(#1070),#1065,.T.);
#1065=PLANE('',#1066);
#1066=AXIS2_PLACEMENT_3D('',#1067,#1068,#1069);
#1067=CARTESIAN_POINT('',(-1.194,0.802,0.13));
#1068=DIRECTION('',(0.0,0.0,1.0));
#1069=DIRECTION('',(0.,1.,0.));
#1070=FACE_OUTER_BOUND('',#1071,.T.);
#1071=EDGE_LOOP('',(#1072,#1082,#1092,#1102));
#1075=CARTESIAN_POINT('',(-1.194,0.498,0.13));
#1074=VERTEX_POINT('',#1075);
#1077=CARTESIAN_POINT('',(-1.194,0.802,0.13));
#1076=VERTEX_POINT('',#1077);
#1073=EDGE_CURVE('',#1074,#1076,#1078,.T.);
#1078=LINE('',#1075,#1080);
#1080=VECTOR('',#1081,0.3048);
#1081=DIRECTION('',(0.0,1.0,0.0));
#1072=ORIENTED_EDGE('',*,*,#1073,.F.);
#1085=CARTESIAN_POINT('',(-1.156,0.498,0.13));
#1084=VERTEX_POINT('',#1085);
#1083=EDGE_CURVE('',#1084,#1074,#1088,.T.);
#1088=LINE('',#1085,#1090);
#1090=VECTOR('',#1091,3.77820715208328E-02);
#1091=DIRECTION('',(-1.0,0.0,0.0));
#1082=ORIENTED_EDGE('',*,*,#1083,.F.);
#1095=CARTESIAN_POINT('',(-1.156,0.802,0.13));
#1094=VERTEX_POINT('',#1095);
#1093=EDGE_CURVE('',#1094,#1084,#1098,.T.);
#1098=LINE('',#1095,#1100);
#1100=VECTOR('',#1101,0.304799998290099);
#1101=DIRECTION('',(0.0,-1.0,0.0));
#1092=ORIENTED_EDGE('',*,*,#1093,.F.);
#1103=EDGE_CURVE('',#1076,#1094,#1108,.T.);
#1108=LINE('',#1077,#1110);
#1110=VECTOR('',#1111,3.77820715208327E-02);
#1111=DIRECTION('',(1.0,0.0,0.0));
#1102=ORIENTED_EDGE('',*,*,#1103,.F.);
#1112=STYLED_ITEM('',(#34),#1113);
#1113=ADVANCED_FACE('',(#1119),#1114,.T.);
#1114=PLANE('',#1115);
#1115=AXIS2_PLACEMENT_3D('',#1116,#1117,#1118);
#1116=CARTESIAN_POINT('',(-1.156,0.802,0.0));
#1117=DIRECTION('',(0.0,0.0,-1.0));
#1118=DIRECTION('',(0.,1.,0.));
#1119=FACE_OUTER_BOUND('',#1120,.T.);
#1120=EDGE_LOOP('',(#1121,#1131,#1141,#1151));
#1124=CARTESIAN_POINT('',(-1.156,0.498,0.0));
#1123=VERTEX_POINT('',#1124);
#1126=CARTESIAN_POINT('',(-1.156,0.802,0.0));
#1125=VERTEX_POINT('',#1126);
#1122=EDGE_CURVE('',#1123,#1125,#1127,.T.);
#1127=LINE('',#1124,#1129);
#1129=VECTOR('',#1130,0.304799998290099);
#1130=DIRECTION('',(0.0,1.0,0.0));
#1121=ORIENTED_EDGE('',*,*,#1122,.F.);
#1134=CARTESIAN_POINT('',(-1.194,0.498,0.0));
#1133=VERTEX_POINT('',#1134);
#1132=EDGE_CURVE('',#1133,#1123,#1137,.T.);
#1137=LINE('',#1134,#1139);
#1139=VECTOR('',#1140,3.77820715208328E-02);
#1140=DIRECTION('',(1.0,0.0,0.0));
#1131=ORIENTED_EDGE('',*,*,#1132,.F.);
#1144=CARTESIAN_POINT('',(-1.194,0.802,0.0));
#1143=VERTEX_POINT('',#1144);
#1142=EDGE_CURVE('',#1143,#1133,#1147,.T.);
#1147=LINE('',#1144,#1149);
#1149=VECTOR('',#1150,0.3048);
#1150=DIRECTION('',(0.0,-1.0,0.0));
#1141=ORIENTED_EDGE('',*,*,#1142,.F.);
#1152=EDGE_CURVE('',#1125,#1143,#1157,.T.);
#1157=LINE('',#1126,#1159);
#1159=VECTOR('',#1160,3.77820715208327E-02);
#1160=DIRECTION('',(-1.0,0.0,0.0));
#1151=ORIENTED_EDGE('',*,*,#1152,.F.);
#1161=STYLED_ITEM('',(#34),#1162);
#1162=ADVANCED_FACE('',(#1168),#1163,.T.);
#1163=PLANE('',#1164);
#1164=AXIS2_PLACEMENT_3D('',#1165,#1166,#1167);
#1165=CARTESIAN_POINT('',(-1.194,0.802,0.0));
#1166=DIRECTION('',(-1.0,0.0,0.0));
#1167=DIRECTION('',(0.,0.,1.));
#1168=FACE_OUTER_BOUND('',#1169,.T.);
#1169=EDGE_LOOP('',(#1170,#1180,#1190,#1200));
#1170=ORIENTED_EDGE('',*,*,#1142,.T.);
#1181=EDGE_CURVE('',#1074,#1133,#1186,.T.);
#1186=LINE('',#1075,#1188);
#1188=VECTOR('',#1189,0.130175);
#1189=DIRECTION('',(0.0,0.0,-1.0));
#1180=ORIENTED_EDGE('',*,*,#1181,.F.);
#1190=ORIENTED_EDGE('',*,*,#1073,.T.);
#1201=EDGE_CURVE('',#1143,#1076,#1206,.T.);
#1206=LINE('',#1144,#1208);
#1208=VECTOR('',#1209,0.130175);
#1209=DIRECTION('',(0.0,0.0,1.0));
#1200=ORIENTED_EDGE('',*,*,#1201,.F.);
#1210=STYLED_ITEM($,(#34),#1211);
#1211=ADVANCED_FACE($,(#1217),#1212,.T.);
#1212=CYLINDRICAL_SURFACE($,#1213,0.26035);
#1213=AXIS2_PLACEMENT_3D($,#1214,#1215,#1216);
#1214=CARTESIAN_POINT('',(-0.711,0.498,0.413));
#1215=DIRECTION('',(0.0,-1.0,0.0));
#1216=DIRECTION('',(0.,0.,1.));
#1217=FACE_OUTER_BOUND($,#1218,.T.);
#1218=EDGE_LOOP($,(#1230,#1240,#1251,#1219));
#1230=ORIENTED_EDGE('',*,*,#897,.T.);
#1241=EDGE_CURVE($,#996,#888,#1246,.T.);
#1246=CIRCLE($,#1247,0.26035);
#1248=CARTESIAN_POINT('',(-0.711,0.802,0.413));
#1247=AXIS2_PLACEMENT_3D($,#1248,#1249,#1250);
#1249=DIRECTION('',(0.0,1.0,0.0));
#1250=DIRECTION('',(0.793,0.0,0.609));
#1240=ORIENTED_EDGE('',*,*,#1241,.F.);
#1251=ORIENTED_EDGE('',*,*,#995,.T.);
#1220=EDGE_CURVE($,#898,#986,#1225,.T.);
#1225=CIRCLE($,#1226,0.26035);
#1227=CARTESIAN_POINT('',(-0.711,0.498,0.413));
#1226=AXIS2_PLACEMENT_3D($,#1227,#1228,#1229);
#1228=DIRECTION('',(0.0,-1.0,0.0));
#1229=DIRECTION('',(-0.793,0.0,-0.609));
#1219=ORIENTED_EDGE('',*,*,#1220,.F.);
#1261=STYLED_ITEM($,(#34),#1262);
#1262=ADVANCED_FACE($,(#1268),#1263,.F.);
#1263=CYLINDRICAL_SURFACE($,#1264,0.130175);
#1264=AXIS2_PLACEMENT_3D($,#1265,#1266,#1267);
#1265=CARTESIAN_POINT('',(-0.711,0.802,0.413));
#1266=DIRECTION('',(0.0,-1.0,0.0));
#1267=DIRECTION('',(0.,0.,-1.));
#1268=FACE_OUTER_BOUND($,#1269,.T.);
#1269=EDGE_LOOP($,(#1281,#1291,#1302,#1270));
#1281=ORIENTED_EDGE('',*,*,#946,.T.);
#1292=EDGE_CURVE($,#1045,#937,#1297,.T.);
#1297=CIRCLE($,#1298,0.130175);
#1298=AXIS2_PLACEMENT_3D($,#1227,#1300,#1301);
#1300=DIRECTION('',(0.0,1.0,0.0));
#1301=DIRECTION('',(0.793,0.0,0.609));
#1291=ORIENTED_EDGE('',*,*,#1292,.F.);
#1302=ORIENTED_EDGE('',*,*,#1044,.T.);
#1271=EDGE_CURVE($,#947,#1035,#1276,.T.);
#1276=CIRCLE($,#1277,0.130175);
#1277=AXIS2_PLACEMENT_3D($,#1248,#1279,#1280);
#1279=DIRECTION('',(0.0,-1.0,0.0));
#1280=DIRECTION('',(-0.793,0.0,-0.609));
#1270=ORIENTED_EDGE('',*,*,#1271,.F.);
#1312=STYLED_ITEM($,(#34),#1313);
#1313=ADVANCED_FACE($,(#1319),#1314,.F.);
#1314=CYLINDRICAL_SURFACE($,#1315,0.130175);
#1315=AXIS2_PLACEMENT_3D($,#1316,#1317,#1318);
#1316=CARTESIAN_POINT('',(-1.156,0.802,0.26));
#1317=DIRECTION('',(0.0,-1.0,0.0));
#1318=DIRECTION('',(0.,0.,1.));
#1319=FACE_OUTER_BOUND($,#1320,.T.);
#1320=EDGE_LOOP($,(#1332,#1342,#1353,#1321));
#1332=ORIENTED_EDGE('',*,*,#1093,.T.);
#1343=EDGE_CURVE($,#976,#1084,#1348,.T.);
#1348=CIRCLE($,#1349,0.130175);
#1350=CARTESIAN_POINT('',(-1.156,0.498,0.26));
#1349=AXIS2_PLACEMENT_3D($,#1350,#1351,#1352);
#1351=DIRECTION('',(0.0,1.0,0.0));
#1352=DIRECTION('',(-0.793,0.0,-0.609));
#1342=ORIENTED_EDGE('',*,*,#1343,.F.);
#1353=ORIENTED_EDGE('',*,*,#975,.T.);
#1322=EDGE_CURVE($,#1094,#978,#1327,.T.);
#1327=CIRCLE($,#1328,0.130175);
#1329=CARTESIAN_POINT('',(-1.156,0.802,0.26));
#1328=AXIS2_PLACEMENT_3D($,#1329,#1330,#1331);
#1330=DIRECTION('',(0.0,-1.0,0.0));
#1331=DIRECTION('',(0.793,0.0,0.609));
#1321=ORIENTED_EDGE('',*,*,#1322,.F.);
#1363=STYLED_ITEM($,(#34),#1364);
#1364=ADVANCED_FACE($,(#1370),#1365,.T.);
#1365=CYLINDRICAL_SURFACE($,#1366,0.26035);
#1366=AXIS2_PLACEMENT_3D($,#1367,#1368,#1369);
#1367=CARTESIAN_POINT('',(-1.156,0.802,0.26));
#1368=DIRECTION('',(0.0,-1.0,0.0));
#1369=DIRECTION('',(0.,0.,-1.));
#1370=FACE_OUTER_BOUND($,#1371,.T.);
#1371=EDGE_LOOP($,(#1383,#1393,#1404,#1372));
#1383=ORIENTED_EDGE('',*,*,#1122,.T.);
#1394=EDGE_CURVE($,#1025,#1125,#1399,.T.);
#1399=CIRCLE($,#1400,0.26035);
#1400=AXIS2_PLACEMENT_3D($,#1329,#1402,#1403);
#1402=DIRECTION('',(0.0,1.0,0.0));
#1403=DIRECTION('',(-0.793,0.0,-0.609));
#1393=ORIENTED_EDGE('',*,*,#1394,.F.);
#1404=ORIENTED_EDGE('',*,*,#1024,.T.);
#1373=EDGE_CURVE($,#1123,#1027,#1378,.T.);
#1378=CIRCLE($,#1379,0.26035);
#1379=AXIS2_PLACEMENT_3D($,#1350,#1381,#1382);
#1381=DIRECTION('',(0.0,-1.0,0.0));
#1382=DIRECTION('',(0.793,0.0,0.609));
#1372=ORIENTED_EDGE('',*,*,#1373,.F.);
#1414=STYLED_ITEM('color',(#34),#1415);
#1415=ADVANCED_FACE($,(#1421),#1416,.T.);
#1416=PLANE($,#1417);
#1417=AXIS2_PLACEMENT_3D($,#1418,#1419,#1420);
#1418=CARTESIAN_POINT('',(-0.673,0.802,0.543));
#1419=DIRECTION('',(0.0,1.0,0.0));
#1420=DIRECTION('',(1.,0.,0.));
#1421=FACE_OUTER_BOUND($,#1422,.T.);
#1422=EDGE_LOOP($,(#1425, #1435, #1445, #1508, #1519, #1455, #1466, #1476, #1486, #1496, #1529, #1539));
#1425=ORIENTED_EDGE('',*,*,#887,.T.);
#1435=ORIENTED_EDGE('',*,*,#838,.T.);
#1445=ORIENTED_EDGE('',*,*,#956,.T.);
#1508=ORIENTED_EDGE('',*,*,#1271,.T.);
#1519=ORIENTED_EDGE('',*,*,#1034,.T.);
#1455=ORIENTED_EDGE('',*,*,#1394,.T.);
#1466=ORIENTED_EDGE('',*,*,#1152,.T.);
#1476=ORIENTED_EDGE('',*,*,#1201,.T.);
#1486=ORIENTED_EDGE('',*,*,#1103,.T.);
#1496=ORIENTED_EDGE('',*,*,#1322,.T.);
#1529=ORIENTED_EDGE('',*,*,#1005,.T.);
#1539=ORIENTED_EDGE('',*,*,#1241,.T.);
#1550=STYLED_ITEM('color',(#34),#1551);
#1551=ADVANCED_FACE($,(#1557),#1552,.T.);
#1552=PLANE($,#1553);
#1553=AXIS2_PLACEMENT_3D($,#1554,#1555,#1556);
#1554=CARTESIAN_POINT('',(-1.156,0.498,0.13));
#1555=DIRECTION('',(0.0,-1.0,0.0));
#1556=DIRECTION('',(1.,0.,0.));
#1557=FACE_OUTER_BOUND($,#1558,.T.);
#1558=EDGE_LOOP($,(#1561, #1571, #1581, #1644, #1655, #1591, #1602, #1612, #1622, #1632, #1665, #1675));
#1561=ORIENTED_EDGE('',*,*,#936,.T.);
#1571=ORIENTED_EDGE('',*,*,#858,.T.);
#1581=ORIENTED_EDGE('',*,*,#907,.T.);
#1644=ORIENTED_EDGE('',*,*,#1220,.T.);
#1655=ORIENTED_EDGE('',*,*,#985,.T.);
#1591=ORIENTED_EDGE('',*,*,#1343,.T.);
#1602=ORIENTED_EDGE('',*,*,#1083,.T.);
#1612=ORIENTED_EDGE('',*,*,#1181,.T.);
#1622=ORIENTED_EDGE('',*,*,#1132,.T.);
#1632=ORIENTED_EDGE('',*,*,#1373,.T.);
#1665=ORIENTED_EDGE('',*,*,#1054,.T.);
#1675=ORIENTED_EDGE('',*,*,#1292,.T.);
#1686=MANIFOLD_SOLID_BREP($,#1687);
#1687=CLOSED_SHELL('',(#1689,#1738,#1787,#1836,#1885,#1934,#1983,#2032,#2081,#2132,#2183,#2234,#2285,#2421));
#1688=STYLED_ITEM('',(#34),#1689);
#1689=ADVANCED_FACE('',(#1695),#1690,.T.);
#1690=PLANE('',#1691);
#1691=AXIS2_PLACEMENT_3D('',#1692,#1693,#1694);
#1692=CARTESIAN_POINT('',(-0.673,-0.152,0.543));
#1693=DIRECTION('',(1.0,0.0,0.0));
#1694=DIRECTION('',(0.,0.,1.));
#1695=FACE_OUTER_BOUND('',#1696,.T.);
#1696=EDGE_LOOP('',(#1697,#1707,#1717,#1727));
#1700=CARTESIAN_POINT('',(-0.673,0.152,0.543));
#1699=VERTEX_POINT('',#1700);
#1702=CARTESIAN_POINT('',(-0.673,-0.152,0.543));
#1701=VERTEX_POINT('',#1702);
#1698=EDGE_CURVE('',#1699,#1701,#1703,.T.);
#1703=LINE('',#1700,#1705);
#1705=VECTOR('',#1706,0.304799994946644);
#1706=DIRECTION('',(0.0,-1.0,0.0));
#1697=ORIENTED_EDGE('',*,*,#1698,.F.);
#1710=CARTESIAN_POINT('',(-0.673,0.152,0.673));
#1709=VERTEX_POINT('',#1710);
#1708=EDGE_CURVE('',#1709,#1699,#1713,.T.);
#1713=LINE('',#1710,#1715);
#1715=VECTOR('',#1716,0.130175);
#1716=DIRECTION('',(0.0,0.0,-1.0));
#1707=ORIENTED_EDGE('',*,*,#1708,.F.);
#1720=CARTESIAN_POINT('',(-0.673,-0.152,0.673));
#1719=VERTEX_POINT('',#1720);
#1718=EDGE_CURVE('',#1719,#1709,#1723,.T.);
#1723=LINE('',#1720,#1725);
#1725=VECTOR('',#1726,0.304799994946644);
#1726=DIRECTION('',(0.0,1.0,0.0));
#1717=ORIENTED_EDGE('',*,*,#1718,.F.);
#1728=EDGE_CURVE('',#1701,#1719,#1733,.T.);
#1733=LINE('',#1702,#1735);
#1735=VECTOR('',#1736,0.130175);
#1736=DIRECTION('',(0.0,0.0,1.0));
#1727=ORIENTED_EDGE('',*,*,#1728,.F.);
#1737=STYLED_ITEM('',(#34),#1738);
#1738=ADVANCED_FACE('',(#1744),#1739,.T.);
#1739=PLANE('',#1740);
#1740=AXIS2_PLACEMENT_3D('',#1741,#1742,#1743);
#1741=CARTESIAN_POINT('',(-0.673,-0.152,0.673));
#1742=DIRECTION('',(0.0,0.0,1.0));
#1743=DIRECTION('',(0.,1.,0.));
#1744=FACE_OUTER_BOUND('',#1745,.T.);
#1745=EDGE_LOOP('',(#1746,#1756,#1766,#1776));
#1746=ORIENTED_EDGE('',*,*,#1718,.T.);
#1759=CARTESIAN_POINT('',(-0.711,0.152,0.673));
#1758=VERTEX_POINT('',#1759);
#1757=EDGE_CURVE('',#1758,#1709,#1762,.T.);
#1762=LINE('',#1759,#1764);
#1764=VECTOR('',#1765,3.77820721013587E-02);
#1765=DIRECTION('',(1.0,0.0,0.0));
#1756=ORIENTED_EDGE('',*,*,#1757,.F.);
#1769=CARTESIAN_POINT('',(-0.711,-0.152,0.673));
#1768=VERTEX_POINT('',#1769);
#1767=EDGE_CURVE('',#1768,#1758,#1772,.T.);
#1772=LINE('',#1769,#1774);
#1774=VECTOR('',#1775,0.304799994968323);
#1775=DIRECTION('',(0.0,1.0,0.0));
#1766=ORIENTED_EDGE('',*,*,#1767,.F.);
#1777=EDGE_CURVE('',#1719,#1768,#1782,.T.);
#1782=LINE('',#1720,#1784);
#1784=VECTOR('',#1785,3.77820721013588E-02);
#1785=DIRECTION('',(-1.0,0.0,0.0));
#1776=ORIENTED_EDGE('',*,*,#1777,.F.);
#1786=STYLED_ITEM('',(#34),#1787);
#1787=ADVANCED_FACE('',(#1793),#1788,.T.);
#1788=PLANE('',#1789);
#1789=AXIS2_PLACEMENT_3D('',#1790,#1791,#1792);
#1790=CARTESIAN_POINT('',(-0.673,0.152,0.543));
#1791=DIRECTION('',(0.0,0.0,-1.0));
#1792=DIRECTION('',(0.,1.,0.));
#1793=FACE_OUTER_BOUND('',#1794,.T.);
#1794=EDGE_LOOP('',(#1795,#1805,#1815,#1825));
#1795=ORIENTED_EDGE('',*,*,#1698,.T.);
#1808=CARTESIAN_POINT('',(-0.711,-0.152,0.543));
#1807=VERTEX_POINT('',#1808);
#1806=EDGE_CURVE('',#1807,#1701,#1811,.T.);
#1811=LINE('',#1808,#1813);
#1813=VECTOR('',#1814,3.77820721013588E-02);
#1814=DIRECTION('',(1.0,0.0,0.0));
#1805=ORIENTED_EDGE('',*,*,#1806,.F.);
#1818=CARTESIAN_POINT('',(-0.711,0.152,0.543));
#1817=VERTEX_POINT('',#1818);
#1816=EDGE_CURVE('',#1817,#1807,#1821,.T.);
#1821=LINE('',#1818,#1823);
#1823=VECTOR('',#1824,0.304799994968323);
#1824=DIRECTION('',(0.0,-1.0,0.0));
#1815=ORIENTED_EDGE('',*,*,#1816,.F.);
#1826=EDGE_CURVE('',#1699,#1817,#1831,.T.);
#1831=LINE('',#1700,#1833);
#1833=VECTOR('',#1834,3.77820721013587E-02);
#1834=DIRECTION('',(-1.0,0.0,0.0));
#1825=ORIENTED_EDGE('',*,*,#1826,.F.);
#1835=STYLED_ITEM('',(#34),#1836);
#1836=ADVANCED_FACE('',(#1842),#1837,.T.);
#1837=PLANE('',#1838);
#1838=AXIS2_PLACEMENT_3D('',#1839,#1840,#1841);
#1839=CARTESIAN_POINT('',(-1.03,0.152,0.227));
#1840=DIRECTION('',(-0.966,0.0,0.259));
#1841=DIRECTION('',(0.,0.,1.));
#1842=FACE_OUTER_BOUND('',#1843,.T.);
#1843=EDGE_LOOP('',(#1844,#1854,#1864,#1874));
#1847=CARTESIAN_POINT('',(-1.03,-0.152,0.227));
#1846=VERTEX_POINT('',#1847);
#1849=CARTESIAN_POINT('',(-1.03,0.152,0.227));
#1848=VERTEX_POINT('',#1849);
#1845=EDGE_CURVE('',#1846,#1848,#1850,.T.);
#1850=LINE('',#1847,#1852);
#1852=VECTOR('',#1853,0.304799995818656);
#1853=DIRECTION('',(0.0,1.0,0.0));
#1844=ORIENTED_EDGE('',*,*,#1845,.F.);
#1857=CARTESIAN_POINT('',(-0.962,-0.152,0.48));
#1856=VERTEX_POINT('',#1857);
#1855=EDGE_CURVE('',#1856,#1846,#1860,.T.);
#1860=LINE('',#1857,#1862);
#1862=VECTOR('',#1863,0.262415537526308);
#1863=DIRECTION('',(-0.259,0.0,-0.966));
#1854=ORIENTED_EDGE('',*,*,#1855,.F.);
#1867=CARTESIAN_POINT('',(-0.962,0.152,0.48));
#1866=VERTEX_POINT('',#1867);
#1865=EDGE_CURVE('',#1866,#1856,#1870,.T.);
#1870=LINE('',#1867,#1872);
#1872=VECTOR('',#1873,0.304799995406365);
#1873=DIRECTION('',(0.0,-1.0,0.0));
#1864=ORIENTED_EDGE('',*,*,#1865,.F.);
#1875=EDGE_CURVE('',#1848,#1866,#1880,.T.);
#1880=LINE('',#1849,#1882);
#1882=VECTOR('',#1883,0.262415537526308);
#1883=DIRECTION('',(0.259,0.0,0.966));
#1874=ORIENTED_EDGE('',*,*,#1875,.F.);
#1884=STYLED_ITEM('',(#34),#1885);
#1885=ADVANCED_FACE('',(#1891),#1886,.T.);
#1886=PLANE('',#1887);
#1887=AXIS2_PLACEMENT_3D('',#1888,#1889,#1890);
#1888=CARTESIAN_POINT('',(-0.905,-0.152,0.193));
#1889=DIRECTION('',(0.966,0.0,-0.259));
#1890=DIRECTION('',(0.,0.,1.));
#1891=FACE_OUTER_BOUND('',#1892,.T.);
#1892=EDGE_LOOP('',(#1893,#1903,#1913,#1923));
#1896=CARTESIAN_POINT('',(-0.905,0.152,0.193));
#1895=VERTEX_POINT('',#1896);
#1898=CARTESIAN_POINT('',(-0.905,-0.152,0.193));
#1897=VERTEX_POINT('',#1898);
#1894=EDGE_CURVE('',#1895,#1897,#1899,.T.);
#1899=LINE('',#1896,#1901);
#1901=VECTOR('',#1902,0.304799995219162);
#1902=DIRECTION('',(0.0,-1.0,0.0));
#1893=ORIENTED_EDGE('',*,*,#1894,.F.);
#1906=CARTESIAN_POINT('',(-0.837,0.152,0.446));
#1905=VERTEX_POINT('',#1906);
#1904=EDGE_CURVE('',#1905,#1895,#1909,.T.);
#1909=LINE('',#1906,#1911);
#1911=VECTOR('',#1912,0.262415537584304);
#1912=DIRECTION('',(-0.259,0.0,-0.966));
#1903=ORIENTED_EDGE('',*,*,#1904,.F.);
#1916=CARTESIAN_POINT('',(-0.837,-0.152,0.446));
#1915=VERTEX_POINT('',#1916);
#1914=EDGE_CURVE('',#1915,#1905,#1919,.T.);
#1919=LINE('',#1916,#1921);
#1921=VECTOR('',#1922,0.304799995090222);
#1922=DIRECTION('',(0.0,1.0,0.0));
#1913=ORIENTED_EDGE('',*,*,#1914,.F.);
#1924=EDGE_CURVE('',#1897,#1915,#1929,.T.);
#1929=LINE('',#1898,#1931);
#1931=VECTOR('',#1932,0.262415537584304);
#1932=DIRECTION('',(0.259,0.0,0.966));
#1923=ORIENTED_EDGE('',*,*,#1924,.F.);
#1933=STYLED_ITEM('',(#34),#1934);
#1934=ADVANCED_FACE('',(#1940),#1935,.T.);
#1935=PLANE('',#1936);
#1936=AXIS2_PLACEMENT_3D('',#1937,#1938,#1939);
#1937=CARTESIAN_POINT('',(-1.194,0.152,0.13));
#1938=DIRECTION('',(0.0,0.0,1.0));
#1939=DIRECTION('',(0.,1.,0.));
#1940=FACE_OUTER_BOUND('',#1941,.T.);
#1941=EDGE_LOOP('',(#1942,#1952,#1962,#1972));
#1945=CARTESIAN_POINT('',(-1.194,-0.152,0.13));
#1944=VERTEX_POINT('',#1945);
#1947=CARTESIAN_POINT('',(-1.194,0.152,0.13));
#1946=VERTEX_POINT('',#1947);
#1943=EDGE_CURVE('',#1944,#1946,#1948,.T.);
#1948=LINE('',#1945,#1950);
#1950=VECTOR('',#1951,0.3048);
#1951=DIRECTION('',(0.0,1.0,0.0));
#1942=ORIENTED_EDGE('',*,*,#1943,.F.);
#1955=CARTESIAN_POINT('',(-1.156,-0.152,0.13));
#1954=VERTEX_POINT('',#1955);
#1953=EDGE_CURVE('',#1954,#1944,#1958,.T.);
#1958=LINE('',#1955,#1960);
#1960=VECTOR('',#1961,3.77820715208328E-02);
#1961=DIRECTION('',(-1.0,0.0,0.0));
#1952=ORIENTED_EDGE('',*,*,#1953,.F.);
#1965=CARTESIAN_POINT('',(-1.156,0.152,0.13));
#1964=VERTEX_POINT('',#1965);
#1963=EDGE_CURVE('',#1964,#1954,#1968,.T.);
#1968=LINE('',#1965,#1970);
#1970=VECTOR('',#1971,0.304799998290099);
#1971=DIRECTION('',(0.0,-1.0,0.0));
#1962=ORIENTED_EDGE('',*,*,#1963,.F.);
#1973=EDGE_CURVE('',#1946,#1964,#1978,.T.);
#1978=LINE('',#1947,#1980);
#1980=VECTOR('',#1981,3.77820715208327E-02);
#1981=DIRECTION('',(1.0,0.0,0.0));
#1972=ORIENTED_EDGE('',*,*,#1973,.F.);
#1982=STYLED_ITEM('',(#34),#1983);
#1983=ADVANCED_FACE('',(#1989),#1984,.T.);
#1984=PLANE('',#1985);
#1985=AXIS2_PLACEMENT_3D('',#1986,#1987,#1988);
#1986=CARTESIAN_POINT('',(-1.156,0.152,0.0));
#1987=DIRECTION('',(0.0,0.0,-1.0));
#1988=DIRECTION('',(0.,1.,0.));
#1989=FACE_OUTER_BOUND('',#1990,.T.);
#1990=EDGE_LOOP('',(#1991,#2001,#2011,#2021));
#1994=CARTESIAN_POINT('',(-1.156,-0.152,0.0));
#1993=VERTEX_POINT('',#1994);
#1996=CARTESIAN_POINT('',(-1.156,0.152,0.0));
#1995=VERTEX_POINT('',#1996);
#1992=EDGE_CURVE('',#1993,#1995,#1997,.T.);
#1997=LINE('',#1994,#1999);
#1999=VECTOR('',#2000,0.304799998290099);
#2000=DIRECTION('',(0.0,1.0,0.0));
#1991=ORIENTED_EDGE('',*,*,#1992,.F.);
#2004=CARTESIAN_POINT('',(-1.194,-0.152,0.0));
#2003=VERTEX_POINT('',#2004);
#2002=EDGE_CURVE('',#2003,#1993,#2007,.T.);
#2007=LINE('',#2004,#2009);
#2009=VECTOR('',#2010,3.77820715208328E-02);
#2010=DIRECTION('',(1.0,0.0,0.0));
#2001=ORIENTED_EDGE('',*,*,#2002,.F.);
#2014=CARTESIAN_POINT('',(-1.194,0.152,0.0));
#2013=VERTEX_POINT('',#2014);
#2012=EDGE_CURVE('',#2013,#2003,#2017,.T.);
#2017=LINE('',#2014,#2019);
#2019=VECTOR('',#2020,0.3048);
#2020=DIRECTION('',(0.0,-1.0,0.0));
#2011=ORIENTED_EDGE('',*,*,#2012,.F.);
#2022=EDGE_CURVE('',#1995,#2013,#2027,.T.);
#2027=LINE('',#1996,#2029);
#2029=VECTOR('',#2030,3.77820715208327E-02);
#2030=DIRECTION('',(-1.0,0.0,0.0));
#2021=ORIENTED_EDGE('',*,*,#2022,.F.);
#2031=STYLED_ITEM('',(#34),#2032);
#2032=ADVANCED_FACE('',(#2038),#2033,.T.);
#2033=PLANE('',#2034);
#2034=AXIS2_PLACEMENT_3D('',#2035,#2036,#2037);
#2035=CARTESIAN_POINT('',(-1.194,0.152,0.0));
#2036=DIRECTION('',(-1.0,0.0,0.0));
#2037=DIRECTION('',(0.,0.,1.));
#2038=FACE_OUTER_BOUND('',#2039,.T.);
#2039=EDGE_LOOP('',(#2040,#2050,#2060,#2070));
#2040=ORIENTED_EDGE('',*,*,#2012,.T.);
#2051=EDGE_CURVE('',#1944,#2003,#2056,.T.);
#2056=LINE('',#1945,#2058);
#2058=VECTOR('',#2059,0.130175);
#2059=DIRECTION('',(0.0,0.0,-1.0));
#2050=ORIENTED_EDGE('',*,*,#2051,.F.);
#2060=ORIENTED_EDGE('',*,*,#1943,.T.);
#2071=EDGE_CURVE('',#2013,#1946,#2076,.T.);
#2076=LINE('',#2014,#2078);
#2078=VECTOR('',#2079,0.130175);
#2079=DIRECTION('',(0.0,0.0,1.0));
#2070=ORIENTED_EDGE('',*,*,#2071,.F.);
#2080=STYLED_ITEM($,(#34),#2081);
#2081=ADVANCED_FACE($,(#2087),#2082,.T.);
#2082=CYLINDRICAL_SURFACE($,#2083,0.26035);
#2083=AXIS2_PLACEMENT_3D($,#2084,#2085,#2086);
#2084=CARTESIAN_POINT('',(-0.711,-0.152,0.413));
#2085=DIRECTION('',(0.0,-1.0,0.0));
#2086=DIRECTION('',(0.,0.,1.));
#2087=FACE_OUTER_BOUND($,#2088,.T.);
#2088=EDGE_LOOP($,(#2100,#2110,#2121,#2089));
#2100=ORIENTED_EDGE('',*,*,#1767,.T.);
#2111=EDGE_CURVE($,#1866,#1758,#2116,.T.);
#2116=CIRCLE($,#2117,0.26035);
#2118=CARTESIAN_POINT('',(-0.711,0.152,0.413));
#2117=AXIS2_PLACEMENT_3D($,#2118,#2119,#2120);
#2119=DIRECTION('',(0.0,1.0,0.0));
#2120=DIRECTION('',(0.793,0.0,0.609));
#2110=ORIENTED_EDGE('',*,*,#2111,.F.);
#2121=ORIENTED_EDGE('',*,*,#1865,.T.);
#2090=EDGE_CURVE($,#1768,#1856,#2095,.T.);
#2095=CIRCLE($,#2096,0.26035);
#2097=CARTESIAN_POINT('',(-0.711,-0.152,0.413));
#2096=AXIS2_PLACEMENT_3D($,#2097,#2098,#2099);
#2098=DIRECTION('',(0.0,-1.0,0.0));
#2099=DIRECTION('',(-0.793,0.0,-0.609));
#2089=ORIENTED_EDGE('',*,*,#2090,.F.);
#2131=STYLED_ITEM($,(#34),#2132);
#2132=ADVANCED_FACE($,(#2138),#2133,.F.);
#2133=CYLINDRICAL_SURFACE($,#2134,0.130175);
#2134=AXIS2_PLACEMENT_3D($,#2135,#2136,#2137);
#2135=CARTESIAN_POINT('',(-0.711,0.152,0.413));
#2136=DIRECTION('',(0.0,-1.0,0.0));
#2137=DIRECTION('',(0.,0.,-1.));
#2138=FACE_OUTER_BOUND($,#2139,.T.);
#2139=EDGE_LOOP($,(#2151,#2161,#2172,#2140));
#2151=ORIENTED_EDGE('',*,*,#1816,.T.);
#2162=EDGE_CURVE($,#1915,#1807,#2167,.T.);
#2167=CIRCLE($,#2168,0.130175);
#2168=AXIS2_PLACEMENT_3D($,#2097,#2170,#2171);
#2170=DIRECTION('',(0.0,1.0,0.0));
#2171=DIRECTION('',(0.793,0.0,0.609));
#2161=ORIENTED_EDGE('',*,*,#2162,.F.);
#2172=ORIENTED_EDGE('',*,*,#1914,.T.);
#2141=EDGE_CURVE($,#1817,#1905,#2146,.T.);
#2146=CIRCLE($,#2147,0.130175);
#2147=AXIS2_PLACEMENT_3D($,#2118,#2149,#2150);
#2149=DIRECTION('',(0.0,-1.0,0.0));
#2150=DIRECTION('',(-0.793,0.0,-0.609));
#2140=ORIENTED_EDGE('',*,*,#2141,.F.);
#2182=STYLED_ITEM($,(#34),#2183);
#2183=ADVANCED_FACE($,(#2189),#2184,.F.);
#2184=CYLINDRICAL_SURFACE($,#2185,0.130175);
#2185=AXIS2_PLACEMENT_3D($,#2186,#2187,#2188);
#2186=CARTESIAN_POINT('',(-1.156,0.152,0.26));
#2187=DIRECTION('',(0.0,-1.0,0.0));
#2188=DIRECTION('',(0.,0.,1.));
#2189=FACE_OUTER_BOUND($,#2190,.T.);
#2190=EDGE_LOOP($,(#2202,#2212,#2223,#2191));
#2202=ORIENTED_EDGE('',*,*,#1963,.T.);
#2213=EDGE_CURVE($,#1846,#1954,#2218,.T.);
#2218=CIRCLE($,#2219,0.130175);
#2220=CARTESIAN_POINT('',(-1.156,-0.152,0.26));
#2219=AXIS2_PLACEMENT_3D($,#2220,#2221,#2222);
#2221=DIRECTION('',(0.0,1.0,0.0));
#2222=DIRECTION('',(-0.793,0.0,-0.609));
#2212=ORIENTED_EDGE('',*,*,#2213,.F.);
#2223=ORIENTED_EDGE('',*,*,#1845,.T.);
#2192=EDGE_CURVE($,#1964,#1848,#2197,.T.);
#2197=CIRCLE($,#2198,0.130175);
#2199=CARTESIAN_POINT('',(-1.156,0.152,0.26));
#2198=AXIS2_PLACEMENT_3D($,#2199,#2200,#2201);
#2200=DIRECTION('',(0.0,-1.0,0.0));
#2201=DIRECTION('',(0.793,0.0,0.609));
#2191=ORIENTED_EDGE('',*,*,#2192,.F.);
#2233=STYLED_ITEM($,(#34),#2234);
#2234=ADVANCED_FACE($,(#2240),#2235,.T.);
#2235=CYLINDRICAL_SURFACE($,#2236,0.26035);
#2236=AXIS2_PLACEMENT_3D($,#2237,#2238,#2239);
#2237=CARTESIAN_POINT('',(-1.156,0.152,0.26));
#2238=DIRECTION('',(0.0,-1.0,0.0));
#2239=DIRECTION('',(0.,0.,-1.));
#2240=FACE_OUTER_BOUND($,#2241,.T.);
#2241=EDGE_LOOP($,(#2253,#2263,#2274,#2242));
#2253=ORIENTED_EDGE('',*,*,#1992,.T.);
#2264=EDGE_CURVE($,#1895,#1995,#2269,.T.);
#2269=CIRCLE($,#2270,0.26035);
#2270=AXIS2_PLACEMENT_3D($,#2199,#2272,#2273);
#2272=DIRECTION('',(0.0,1.0,0.0));
#2273=DIRECTION('',(-0.793,0.0,-0.609));
#2263=ORIENTED_EDGE('',*,*,#2264,.F.);
#2274=ORIENTED_EDGE('',*,*,#1894,.T.);
#2243=EDGE_CURVE($,#1993,#1897,#2248,.T.);
#2248=CIRCLE($,#2249,0.26035);
#2249=AXIS2_PLACEMENT_3D($,#2220,#2251,#2252);
#2251=DIRECTION('',(0.0,-1.0,0.0));
#2252=DIRECTION('',(0.793,0.0,0.609));
#2242=ORIENTED_EDGE('',*,*,#2243,.F.);
#2284=STYLED_ITEM('color',(#34),#2285);
#2285=ADVANCED_FACE($,(#2291),#2286,.T.);
#2286=PLANE($,#2287);
#2287=AXIS2_PLACEMENT_3D($,#2288,#2289,#2290);
#2288=CARTESIAN_POINT('',(-0.673,0.152,0.543));
#2289=DIRECTION('',(0.0,1.0,0.0));
#2290=DIRECTION('',(1.,0.,0.));
#2291=FACE_OUTER_BOUND($,#2292,.T.);
#2292=EDGE_LOOP($,(#2295, #2305, #2315, #2378, #2389, #2325, #2336, #2346, #2356, #2366, #2399, #2409));
#2295=ORIENTED_EDGE('',*,*,#1757,.T.);
#2305=ORIENTED_EDGE('',*,*,#1708,.T.);
#2315=ORIENTED_EDGE('',*,*,#1826,.T.);
#2378=ORIENTED_EDGE('',*,*,#2141,.T.);
#2389=ORIENTED_EDGE('',*,*,#1904,.T.);
#2325=ORIENTED_EDGE('',*,*,#2264,.T.);
#2336=ORIENTED_EDGE('',*,*,#2022,.T.);
#2346=ORIENTED_EDGE('',*,*,#2071,.T.);
#2356=ORIENTED_EDGE('',*,*,#1973,.T.);
#2366=ORIENTED_EDGE('',*,*,#2192,.T.);
#2399=ORIENTED_EDGE('',*,*,#1875,.T.);
#2409=ORIENTED_EDGE('',*,*,#2111,.T.);
#2420=STYLED_ITEM('color',(#34),#2421);
#2421=ADVANCED_FACE($,(#2427),#2422,.T.);
#2422=PLANE($,#2423);
#2423=AXIS2_PLACEMENT_3D($,#2424,#2425,#2426);
#2424=CARTESIAN_POINT('',(-1.156,-0.152,0.13));
#2425=DIRECTION('',(0.0,-1.0,0.0));
#2426=DIRECTION('',(1.,0.,0.));
#2427=FACE_OUTER_BOUND($,#2428,.T.);
#2428=EDGE_LOOP($,(#2431, #2441, #2451, #2514, #2525, #2461, #2472, #2482, #2492, #2502, #2535, #2545));
#2431=ORIENTED_EDGE('',*,*,#1806,.T.);
#2441=ORIENTED_EDGE('',*,*,#1728,.T.);
#2451=ORIENTED_EDGE('',*,*,#1777,.T.);
#2514=ORIENTED_EDGE('',*,*,#2090,.T.);
#2525=ORIENTED_EDGE('',*,*,#1855,.T.);
#2461=ORIENTED_EDGE('',*,*,#2213,.T.);
#2472=ORIENTED_EDGE('',*,*,#1953,.T.);
#2482=ORIENTED_EDGE('',*,*,#2051,.T.);
#2492=ORIENTED_EDGE('',*,*,#2002,.T.);
#2502=ORIENTED_EDGE('',*,*,#2243,.T.);
#2535=ORIENTED_EDGE('',*,*,#1924,.T.);
#2545=ORIENTED_EDGE('',*,*,#2162,.T.);
#2556=MANIFOLD_SOLID_BREP($,#2557);
#2557=CLOSED_SHELL('',(#2559,#2608,#2657,#2706,#2755,#2804,#2853,#2902,#2951,#3002,#3053,#3104,#3155,#3291));
#2558=STYLED_ITEM('',(#34),#2559);
#2559=ADVANCED_FACE('',(#2565),#2560,.T.);
#2560=PLANE('',#2561);
#2561=AXIS2_PLACEMENT_3D('',#2562,#2563,#2564);
#2562=CARTESIAN_POINT('',(-0.673,-0.802,0.543));
#2563=DIRECTION('',(1.0,0.0,0.0));
#2564=DIRECTION('',(0.,0.,1.));
#2565=FACE_OUTER_BOUND('',#2566,.T.);
#2566=EDGE_LOOP('',(#2567,#2577,#2587,#2597));
#2570=CARTESIAN_POINT('',(-0.673,-0.498,0.543));
#2569=VERTEX_POINT('',#2570);
#2572=CARTESIAN_POINT('',(-0.673,-0.802,0.543));
#2571=VERTEX_POINT('',#2572);
#2568=EDGE_CURVE('',#2569,#2571,#2573,.T.);
#2573=LINE('',#2570,#2575);
#2575=VECTOR('',#2576,0.304799994946644);
#2576=DIRECTION('',(0.0,-1.0,0.0));
#2567=ORIENTED_EDGE('',*,*,#2568,.F.);
#2580=CARTESIAN_POINT('',(-0.673,-0.498,0.673));
#2579=VERTEX_POINT('',#2580);
#2578=EDGE_CURVE('',#2579,#2569,#2583,.T.);
#2583=LINE('',#2580,#2585);
#2585=VECTOR('',#2586,0.130175);
#2586=DIRECTION('',(0.0,0.0,-1.0));
#2577=ORIENTED_EDGE('',*,*,#2578,.F.);
#2590=CARTESIAN_POINT('',(-0.673,-0.802,0.673));
#2589=VERTEX_POINT('',#2590);
#2588=EDGE_CURVE('',#2589,#2579,#2593,.T.);
#2593=LINE('',#2590,#2595);
#2595=VECTOR('',#2596,0.304799994946644);
#2596=DIRECTION('',(0.0,1.0,0.0));
#2587=ORIENTED_EDGE('',*,*,#2588,.F.);
#2598=EDGE_CURVE('',#2571,#2589,#2603,.T.);
#2603=LINE('',#2572,#2605);
#2605=VECTOR('',#2606,0.130175);
#2606=DIRECTION('',(0.0,0.0,1.0));
#2597=ORIENTED_EDGE('',*,*,#2598,.F.);
#2607=STYLED_ITEM('',(#34),#2608);
#2608=ADVANCED_FACE('',(#2614),#2609,.T.);
#2609=PLANE('',#2610);
#2610=AXIS2_PLACEMENT_3D('',#2611,#2612,#2613);
#2611=CARTESIAN_POINT('',(-0.673,-0.802,0.673));
#2612=DIRECTION('',(0.0,0.0,1.0));
#2613=DIRECTION('',(0.,1.,0.));
#2614=FACE_OUTER_BOUND('',#2615,.T.);
#2615=EDGE_LOOP('',(#2616,#2626,#2636,#2646));
#2616=ORIENTED_EDGE('',*,*,#2588,.T.);
#2629=CARTESIAN_POINT('',(-0.711,-0.498,0.673));
#2628=VERTEX_POINT('',#2629);
#2627=EDGE_CURVE('',#2628,#2579,#2632,.T.);
#2632=LINE('',#2629,#2634);
#2634=VECTOR('',#2635,3.77820721013587E-02);
#2635=DIRECTION('',(1.0,0.0,0.0));
#2626=ORIENTED_EDGE('',*,*,#2627,.F.);
#2639=CARTESIAN_POINT('',(-0.711,-0.802,0.673));
#2638=VERTEX_POINT('',#2639);
#2637=EDGE_CURVE('',#2638,#2628,#2642,.T.);
#2642=LINE('',#2639,#2644);
#2644=VECTOR('',#2645,0.304799994968323);
#2645=DIRECTION('',(0.0,1.0,0.0));
#2636=ORIENTED_EDGE('',*,*,#2637,.F.);
#2647=EDGE_CURVE('',#2589,#2638,#2652,.T.);
#2652=LINE('',#2590,#2654);
#2654=VECTOR('',#2655,3.77820721013588E-02);
#2655=DIRECTION('',(-1.0,0.0,0.0));
#2646=ORIENTED_EDGE('',*,*,#2647,.F.);
#2656=STYLED_ITEM('',(#34),#2657);
#2657=ADVANCED_FACE('',(#2663),#2658,.T.);
#2658=PLANE('',#2659);
#2659=AXIS2_PLACEMENT_3D('',#2660,#2661,#2662);
#2660=CARTESIAN_POINT('',(-0.673,-0.498,0.543));
#2661=DIRECTION('',(0.0,0.0,-1.0));
#2662=DIRECTION('',(0.,1.,0.));
#2663=FACE_OUTER_BOUND('',#2664,.T.);
#2664=EDGE_LOOP('',(#2665,#2675,#2685,#2695));
#2665=ORIENTED_EDGE('',*,*,#2568,.T.);
#2678=CARTESIAN_POINT('',(-0.711,-0.802,0.543));
#2677=VERTEX_POINT('',#2678);
#2676=EDGE_CURVE('',#2677,#2571,#2681,.T.);
#2681=LINE('',#2678,#2683);
#2683=VECTOR('',#2684,3.77820721013588E-02);
#2684=DIRECTION('',(1.0,0.0,0.0));
#2675=ORIENTED_EDGE('',*,*,#2676,.F.);
#2688=CARTESIAN_POINT('',(-0.711,-0.498,0.543));
#2687=VERTEX_POINT('',#2688);
#2686=EDGE_CURVE('',#2687,#2677,#2691,.T.);
#2691=LINE('',#2688,#2693);
#2693=VECTOR('',#2694,0.304799994968323);
#2694=DIRECTION('',(0.0,-1.0,0.0));
#2685=ORIENTED_EDGE('',*,*,#2686,.F.);
#2696=EDGE_CURVE('',#2569,#2687,#2701,.T.);
#2701=LINE('',#2570,#2703);
#2703=VECTOR('',#2704,3.77820721013587E-02);
#2704=DIRECTION('',(-1.0,0.0,0.0));
#2695=ORIENTED_EDGE('',*,*,#2696,.F.);
#2705=STYLED_ITEM('',(#34),#2706);
#2706=ADVANCED_FACE('',(#2712),#2707,.T.);
#2707=PLANE('',#2708);
#2708=AXIS2_PLACEMENT_3D('',#2709,#2710,#2711);
#2709=CARTESIAN_POINT('',(-1.03,-0.498,0.227));
#2710=DIRECTION('',(-0.966,0.0,0.259));
#2711=DIRECTION('',(0.,0.,1.));
#2712=FACE_OUTER_BOUND('',#2713,.T.);
#2713=EDGE_LOOP('',(#2714,#2724,#2734,#2744));
#2717=CARTESIAN_POINT('',(-1.03,-0.802,0.227));
#2716=VERTEX_POINT('',#2717);
#2719=CARTESIAN_POINT('',(-1.03,-0.498,0.227));
#2718=VERTEX_POINT('',#2719);
#2715=EDGE_CURVE('',#2716,#2718,#2720,.T.);
#2720=LINE('',#2717,#2722);
#2722=VECTOR('',#2723,0.304799995818656);
#2723=DIRECTION('',(0.0,1.0,0.0));
#2714=ORIENTED_EDGE('',*,*,#2715,.F.);
#2727=CARTESIAN_POINT('',(-0.962,-0.802,0.48));
#2726=VERTEX_POINT('',#2727);
#2725=EDGE_CURVE('',#2726,#2716,#2730,.T.);
#2730=LINE('',#2727,#2732);
#2732=VECTOR('',#2733,0.262415537526308);
#2733=DIRECTION('',(-0.259,0.0,-0.966));
#2724=ORIENTED_EDGE('',*,*,#2725,.F.);
#2737=CARTESIAN_POINT('',(-0.962,-0.498,0.48));
#2736=VERTEX_POINT('',#2737);
#2735=EDGE_CURVE('',#2736,#2726,#2740,.T.);
#2740=LINE('',#2737,#2742);
#2742=VECTOR('',#2743,0.304799995406365);
#2743=DIRECTION('',(0.0,-1.0,0.0));
#2734=ORIENTED_EDGE('',*,*,#2735,.F.);
#2745=EDGE_CURVE('',#2718,#2736,#2750,.T.);
#2750=LINE('',#2719,#2752);
#2752=VECTOR('',#2753,0.262415537526308);
#2753=DIRECTION('',(0.259,0.0,0.966));
#2744=ORIENTED_EDGE('',*,*,#2745,.F.);
#2754=STYLED_ITEM('',(#34),#2755);
#2755=ADVANCED_FACE('',(#2761),#2756,.T.);
#2756=PLANE('',#2757);
#2757=AXIS2_PLACEMENT_3D('',#2758,#2759,#2760);
#2758=CARTESIAN_POINT('',(-0.905,-0.802,0.193));
#2759=DIRECTION('',(0.966,0.0,-0.259));
#2760=DIRECTION('',(0.,0.,1.));
#2761=FACE_OUTER_BOUND('',#2762,.T.);
#2762=EDGE_LOOP('',(#2763,#2773,#2783,#2793));
#2766=CARTESIAN_POINT('',(-0.905,-0.498,0.193));
#2765=VERTEX_POINT('',#2766);
#2768=CARTESIAN_POINT('',(-0.905,-0.802,0.193));
#2767=VERTEX_POINT('',#2768);
#2764=EDGE_CURVE('',#2765,#2767,#2769,.T.);
#2769=LINE('',#2766,#2771);
#2771=VECTOR('',#2772,0.304799995219162);
#2772=DIRECTION('',(0.0,-1.0,0.0));
#2763=ORIENTED_EDGE('',*,*,#2764,.F.);
#2776=CARTESIAN_POINT('',(-0.837,-0.498,0.446));
#2775=VERTEX_POINT('',#2776);
#2774=EDGE_CURVE('',#2775,#2765,#2779,.T.);
#2779=LINE('',#2776,#2781);
#2781=VECTOR('',#2782,0.262415537584304);
#2782=DIRECTION('',(-0.259,0.0,-0.966));
#2773=ORIENTED_EDGE('',*,*,#2774,.F.);
#2786=CARTESIAN_POINT('',(-0.837,-0.802,0.446));
#2785=VERTEX_POINT('',#2786);
#2784=EDGE_CURVE('',#2785,#2775,#2789,.T.);
#2789=LINE('',#2786,#2791);
#2791=VECTOR('',#2792,0.304799995090222);
#2792=DIRECTION('',(0.0,1.0,0.0));
#2783=ORIENTED_EDGE('',*,*,#2784,.F.);
#2794=EDGE_CURVE('',#2767,#2785,#2799,.T.);
#2799=LINE('',#2768,#2801);
#2801=VECTOR('',#2802,0.262415537584304);
#2802=DIRECTION('',(0.259,0.0,0.966));
#2793=ORIENTED_EDGE('',*,*,#2794,.F.);
#2803=STYLED_ITEM('',(#34),#2804);
#2804=ADVANCED_FACE('',(#2810),#2805,.T.);
#2805=PLANE('',#2806);
#2806=AXIS2_PLACEMENT_3D('',#2807,#2808,#2809);
#2807=CARTESIAN_POINT('',(-1.194,-0.498,0.13));
#2808=DIRECTION('',(0.0,0.0,1.0));
#2809=DIRECTION('',(0.,1.,0.));
#2810=FACE_OUTER_BOUND('',#2811,.T.);
#2811=EDGE_LOOP('',(#2812,#2822,#2832,#2842));
#2815=CARTESIAN_POINT('',(-1.194,-0.802,0.13));
#2814=VERTEX_POINT('',#2815);
#2817=CARTESIAN_POINT('',(-1.194,-0.498,0.13));
#2816=VERTEX_POINT('',#2817);
#2813=EDGE_CURVE('',#2814,#2816,#2818,.T.);
#2818=LINE('',#2815,#2820);
#2820=VECTOR('',#2821,0.3048);
#2821=DIRECTION('',(0.0,1.0,0.0));
#2812=ORIENTED_EDGE('',*,*,#2813,.F.);
#2825=CARTESIAN_POINT('',(-1.156,-0.802,0.13));
#2824=VERTEX_POINT('',#2825);
#2823=EDGE_CURVE('',#2824,#2814,#2828,.T.);
#2828=LINE('',#2825,#2830);
#2830=VECTOR('',#2831,3.77820715208328E-02);
#2831=DIRECTION('',(-1.0,0.0,0.0));
#2822=ORIENTED_EDGE('',*,*,#2823,.F.);
#2835=CARTESIAN_POINT('',(-1.156,-0.498,0.13));
#2834=VERTEX_POINT('',#2835);
#2833=EDGE_CURVE('',#2834,#2824,#2838,.T.);
#2838=LINE('',#2835,#2840);
#2840=VECTOR('',#2841,0.304799998290099);
#2841=DIRECTION('',(0.0,-1.0,0.0));
#2832=ORIENTED_EDGE('',*,*,#2833,.F.);
#2843=EDGE_CURVE('',#2816,#2834,#2848,.T.);
#2848=LINE('',#2817,#2850);
#2850=VECTOR('',#2851,3.77820715208327E-02);
#2851=DIRECTION('',(1.0,0.0,0.0));
#2842=ORIENTED_EDGE('',*,*,#2843,.F.);
#2852=STYLED_ITEM('',(#34),#2853);
#2853=ADVANCED_FACE('',(#2859),#2854,.T.);
#2854=PLANE('',#2855);
#2855=AXIS2_PLACEMENT_3D('',#2856,#2857,#2858);
#2856=CARTESIAN_POINT('',(-1.156,-0.498,0.0));
#2857=DIRECTION('',(0.0,0.0,-1.0));
#2858=DIRECTION('',(0.,1.,0.));
#2859=FACE_OUTER_BOUND('',#2860,.T.);
#2860=EDGE_LOOP('',(#2861,#2871,#2881,#2891));
#2864=CARTESIAN_POINT('',(-1.156,-0.802,0.0));
#2863=VERTEX_POINT('',#2864);
#2866=CARTESIAN_POINT('',(-1.156,-0.498,0.0));
#2865=VERTEX_POINT('',#2866);
#2862=EDGE_CURVE('',#2863,#2865,#2867,.T.);
#2867=LINE('',#2864,#2869);
#2869=VECTOR('',#2870,0.304799998290099);
#2870=DIRECTION('',(0.0,1.0,0.0));
#2861=ORIENTED_EDGE('',*,*,#2862,.F.);
#2874=CARTESIAN_POINT('',(-1.194,-0.802,0.0));
#2873=VERTEX_POINT('',#2874);
#2872=EDGE_CURVE('',#2873,#2863,#2877,.T.);
#2877=LINE('',#2874,#2879);
#2879=VECTOR('',#2880,3.77820715208328E-02);
#2880=DIRECTION('',(1.0,0.0,0.0));
#2871=ORIENTED_EDGE('',*,*,#2872,.F.);
#2884=CARTESIAN_POINT('',(-1.194,-0.498,0.0));
#2883=VERTEX_POINT('',#2884);
#2882=EDGE_CURVE('',#2883,#2873,#2887,.T.);
#2887=LINE('',#2884,#2889);
#2889=VECTOR('',#2890,0.3048);
#2890=DIRECTION('',(0.0,-1.0,0.0));
#2881=ORIENTED_EDGE('',*,*,#2882,.F.);
#2892=EDGE_CURVE('',#2865,#2883,#2897,.T.);
#2897=LINE('',#2866,#2899);
#2899=VECTOR('',#2900,3.77820715208327E-02);
#2900=DIRECTION('',(-1.0,0.0,0.0));
#2891=ORIENTED_EDGE('',*,*,#2892,.F.);
#2901=STYLED_ITEM('',(#34),#2902);
#2902=ADVANCED_FACE('',(#2908),#2903,.T.);
#2903=PLANE('',#2904);
#2904=AXIS2_PLACEMENT_3D('',#2905,#2906,#2907);
#2905=CARTESIAN_POINT('',(-1.194,-0.498,0.0));
#2906=DIRECTION('',(-1.0,0.0,0.0));
#2907=DIRECTION('',(0.,0.,1.));
#2908=FACE_OUTER_BOUND('',#2909,.T.);
#2909=EDGE_LOOP('',(#2910,#2920,#2930,#2940));
#2910=ORIENTED_EDGE('',*,*,#2882,.T.);
#2921=EDGE_CURVE('',#2814,#2873,#2926,.T.);
#2926=LINE('',#2815,#2928);
#2928=VECTOR('',#2929,0.130175);
#2929=DIRECTION('',(0.0,0.0,-1.0));
#2920=ORIENTED_EDGE('',*,*,#2921,.F.);
#2930=ORIENTED_EDGE('',*,*,#2813,.T.);
#2941=EDGE_CURVE('',#2883,#2816,#2946,.T.);
#2946=LINE('',#2884,#2948);
#2948=VECTOR('',#2949,0.130175);
#2949=DIRECTION('',(0.0,0.0,1.0));
#2940=ORIENTED_EDGE('',*,*,#2941,.F.);
#2950=STYLED_ITEM($,(#34),#2951);
#2951=ADVANCED_FACE($,(#2957),#2952,.T.);
#2952=CYLINDRICAL_SURFACE($,#2953,0.26035);
#2953=AXIS2_PLACEMENT_3D($,#2954,#2955,#2956);
#2954=CARTESIAN_POINT('',(-0.711,-0.802,0.413));
#2955=DIRECTION('',(0.0,-1.0,0.0));
#2956=DIRECTION('',(0.,0.,1.));
#2957=FACE_OUTER_BOUND($,#2958,.T.);
#2958=EDGE_LOOP($,(#2970,#2980,#2991,#2959));
#2970=ORIENTED_EDGE('',*,*,#2637,.T.);
#2981=EDGE_CURVE($,#2736,#2628,#2986,.T.);
#2986=CIRCLE($,#2987,0.26035);
#2988=CARTESIAN_POINT('',(-0.711,-0.498,0.413));
#2987=AXIS2_PLACEMENT_3D($,#2988,#2989,#2990);
#2989=DIRECTION('',(0.0,1.0,0.0));
#2990=DIRECTION('',(0.793,0.0,0.609));
#2980=ORIENTED_EDGE('',*,*,#2981,.F.);
#2991=ORIENTED_EDGE('',*,*,#2735,.T.);
#2960=EDGE_CURVE($,#2638,#2726,#2965,.T.);
#2965=CIRCLE($,#2966,0.26035);
#2967=CARTESIAN_POINT('',(-0.711,-0.802,0.413));
#2966=AXIS2_PLACEMENT_3D($,#2967,#2968,#2969);
#2968=DIRECTION('',(0.0,-1.0,0.0));
#2969=DIRECTION('',(-0.793,0.0,-0.609));
#2959=ORIENTED_EDGE('',*,*,#2960,.F.);
#3001=STYLED_ITEM($,(#34),#3002);
#3002=ADVANCED_FACE($,(#3008),#3003,.F.);
#3003=CYLINDRICAL_SURFACE($,#3004,0.130175);
#3004=AXIS2_PLACEMENT_3D($,#3005,#3006,#3007);
#3005=CARTESIAN_POINT('',(-0.711,-0.498,0.413));
#3006=DIRECTION('',(0.0,-1.0,0.0));
#3007=DIRECTION('',(0.,0.,-1.));
#3008=FACE_OUTER_BOUND($,#3009,.T.);
#3009=EDGE_LOOP($,(#3021,#3031,#3042,#3010));
#3021=ORIENTED_EDGE('',*,*,#2686,.T.);
#3032=EDGE_CURVE($,#2785,#2677,#3037,.T.);
#3037=CIRCLE($,#3038,0.130175);
#3038=AXIS2_PLACEMENT_3D($,#2967,#3040,#3041);
#3040=DIRECTION('',(0.0,1.0,0.0));
#3041=DIRECTION('',(0.793,0.0,0.609));
#3031=ORIENTED_EDGE('',*,*,#3032,.F.);
#3042=ORIENTED_EDGE('',*,*,#2784,.T.);
#3011=EDGE_CURVE($,#2687,#2775,#3016,.T.);
#3016=CIRCLE($,#3017,0.130175);
#3017=AXIS2_PLACEMENT_3D($,#2988,#3019,#3020);
#3019=DIRECTION('',(0.0,-1.0,0.0));
#3020=DIRECTION('',(-0.793,0.0,-0.609));
#3010=ORIENTED_EDGE('',*,*,#3011,.F.);
#3052=STYLED_ITEM($,(#34),#3053);
#3053=ADVANCED_FACE($,(#3059),#3054,.F.);
#3054=CYLINDRICAL_SURFACE($,#3055,0.130175);
#3055=AXIS2_PLACEMENT_3D($,#3056,#3057,#3058);
#3056=CARTESIAN_POINT('',(-1.156,-0.498,0.26));
#3057=DIRECTION('',(0.0,-1.0,0.0));
#3058=DIRECTION('',(0.,0.,1.));
#3059=FACE_OUTER_BOUND($,#3060,.T.);
#3060=EDGE_LOOP($,(#3072,#3082,#3093,#3061));
#3072=ORIENTED_EDGE('',*,*,#2833,.T.);
#3083=EDGE_CURVE($,#2716,#2824,#3088,.T.);
#3088=CIRCLE($,#3089,0.130175);
#3090=CARTESIAN_POINT('',(-1.156,-0.802,0.26));
#3089=AXIS2_PLACEMENT_3D($,#3090,#3091,#3092);
#3091=DIRECTION('',(0.0,1.0,0.0));
#3092=DIRECTION('',(-0.793,0.0,-0.609));
#3082=ORIENTED_EDGE('',*,*,#3083,.F.);
#3093=ORIENTED_EDGE('',*,*,#2715,.T.);
#3062=EDGE_CURVE($,#2834,#2718,#3067,.T.);
#3067=CIRCLE($,#3068,0.130175);
#3069=CARTESIAN_POINT('',(-1.156,-0.498,0.26));
#3068=AXIS2_PLACEMENT_3D($,#3069,#3070,#3071);
#3070=DIRECTION('',(0.0,-1.0,0.0));
#3071=DIRECTION('',(0.793,0.0,0.609));
#3061=ORIENTED_EDGE('',*,*,#3062,.F.);
#3103=STYLED_ITEM($,(#34),#3104);
#3104=ADVANCED_FACE($,(#3110),#3105,.T.);
#3105=CYLINDRICAL_SURFACE($,#3106,0.26035);
#3106=AXIS2_PLACEMENT_3D($,#3107,#3108,#3109);
#3107=CARTESIAN_POINT('',(-1.156,-0.498,0.26));
#3108=DIRECTION('',(0.0,-1.0,0.0));
#3109=DIRECTION('',(0.,0.,-1.));
#3110=FACE_OUTER_BOUND($,#3111,.T.);
#3111=EDGE_LOOP($,(#3123,#3133,#3144,#3112));
#3123=ORIENTED_EDGE('',*,*,#2862,.T.);
#3134=EDGE_CURVE($,#2765,#2865,#3139,.T.);
#3139=CIRCLE($,#3140,0.26035);
#3140=AXIS2_PLACEMENT_3D($,#3069,#3142,#3143);
#3142=DIRECTION('',(0.0,1.0,0.0));
#3143=DIRECTION('',(-0.793,0.0,-0.609));
#3133=ORIENTED_EDGE('',*,*,#3134,.F.);
#3144=ORIENTED_EDGE('',*,*,#2764,.T.);
#3113=EDGE_CURVE($,#2863,#2767,#3118,.T.);
#3118=CIRCLE($,#3119,0.26035);
#3119=AXIS2_PLACEMENT_3D($,#3090,#3121,#3122);
#3121=DIRECTION('',(0.0,-1.0,0.0));
#3122=DIRECTION('',(0.793,0.0,0.609));
#3112=ORIENTED_EDGE('',*,*,#3113,.F.);
#3154=STYLED_ITEM('color',(#34),#3155);
#3155=ADVANCED_FACE($,(#3161),#3156,.T.);
#3156=PLANE($,#3157);
#3157=AXIS2_PLACEMENT_3D($,#3158,#3159,#3160);
#3158=CARTESIAN_POINT('',(-0.673,-0.498,0.543));
#3159=DIRECTION('',(0.0,1.0,0.0));
#3160=DIRECTION('',(1.,0.,0.));
#3161=FACE_OUTER_BOUND($,#3162,.T.);
#3162=EDGE_LOOP($,(#3165, #3175, #3185, #3248, #3259, #3195, #3206, #3216, #3226, #3236, #3269, #3279));
#3165=ORIENTED_EDGE('',*,*,#2627,.T.);
#3175=ORIENTED_EDGE('',*,*,#2578,.T.);
#3185=ORIENTED_EDGE('',*,*,#2696,.T.);
#3248=ORIENTED_EDGE('',*,*,#3011,.T.);
#3259=ORIENTED_EDGE('',*,*,#2774,.T.);
#3195=ORIENTED_EDGE('',*,*,#3134,.T.);
#3206=ORIENTED_EDGE('',*,*,#2892,.T.);
#3216=ORIENTED_EDGE('',*,*,#2941,.T.);
#3226=ORIENTED_EDGE('',*,*,#2843,.T.);
#3236=ORIENTED_EDGE('',*,*,#3062,.T.);
#3269=ORIENTED_EDGE('',*,*,#2745,.T.);
#3279=ORIENTED_EDGE('',*,*,#2981,.T.);
#3290=STYLED_ITEM('color',(#34),#3291);
#3291=ADVANCED_FACE($,(#3297),#3292,.T.);
#3292=PLANE($,#3293);
#3293=AXIS2_PLACEMENT_3D($,#3294,#3295,#3296);
#3294=CARTESIAN_POINT('',(-1.156,-0.802,0.13));
#3295=DIRECTION('',(0.0,-1.0,0.0));
#3296=DIRECTION('',(1.,0.,0.));
#3297=FACE_OUTER_BOUND($,#3298,.T.);
#3298=EDGE_LOOP($,(#3301, #3311, #3321, #3384, #3395, #3331, #3342, #3352, #3362, #3372, #3405, #3415));
#3301=ORIENTED_EDGE('',*,*,#2676,.T.);
#3311=ORIENTED_EDGE('',*,*,#2598,.T.);
#3321=ORIENTED_EDGE('',*,*,#2647,.T.);
#3384=ORIENTED_EDGE('',*,*,#2960,.T.);
#3395=ORIENTED_EDGE('',*,*,#2725,.T.);
#3331=ORIENTED_EDGE('',*,*,#3083,.T.);
#3342=ORIENTED_EDGE('',*,*,#2823,.T.);
#3352=ORIENTED_EDGE('',*,*,#2921,.T.);
#3362=ORIENTED_EDGE('',*,*,#2872,.T.);
#3372=ORIENTED_EDGE('',*,*,#3113,.T.);
#3405=ORIENTED_EDGE('',*,*,#2794,.T.);
#3415=ORIENTED_EDGE('',*,*,#3032,.T.);
#3426=MANIFOLD_SOLID_BREP($,#3427);
#3427=CLOSED_SHELL('',(#3429,#3478,#3527,#3576,#3625,#3674,#3723,#3772,#3821,#3872,#3923,#3974,#4025,#4161));
#3428=STYLED_ITEM('',(#34),#3429);
#3429=ADVANCED_FACE('',(#3435),#3430,.T.);
#3430=PLANE('',#3431);
#3431=AXIS2_PLACEMENT_3D('',#3432,#3433,#3434);
#3432=CARTESIAN_POINT('',(0.673,0.802,0.543));
#3433=DIRECTION('',(-1.0,0.0,0.0));
#3434=DIRECTION('',(0.,0.,1.));
#3435=FACE_OUTER_BOUND('',#3436,.T.);
#3436=EDGE_LOOP('',(#3437,#3447,#3457,#3467));
#3440=CARTESIAN_POINT('',(0.673,0.498,0.543));
#3439=VERTEX_POINT('',#3440);
#3442=CARTESIAN_POINT('',(0.673,0.802,0.543));
#3441=VERTEX_POINT('',#3442);
#3438=EDGE_CURVE('',#3439,#3441,#3443,.T.);
#3443=LINE('',#3440,#3445);
#3445=VECTOR('',#3446,0.304799994946643);
#3446=DIRECTION('',(0.0,1.0,0.0));
#3437=ORIENTED_EDGE('',*,*,#3438,.F.);
#3450=CARTESIAN_POINT('',(0.673,0.498,0.673));
#3449=VERTEX_POINT('',#3450);
#3448=EDGE_CURVE('',#3449,#3439,#3453,.T.);
#3453=LINE('',#3450,#3455);
#3455=VECTOR('',#3456,0.130175);
#3456=DIRECTION('',(0.0,0.0,-1.0));
#3447=ORIENTED_EDGE('',*,*,#3448,.F.);
#3460=CARTESIAN_POINT('',(0.673,0.802,0.673));
#3459=VERTEX_POINT('',#3460);
#3458=EDGE_CURVE('',#3459,#3449,#3463,.T.);
#3463=LINE('',#3460,#3465);
#3465=VECTOR('',#3466,0.304799994946643);
#3466=DIRECTION('',(0.0,-1.0,0.0));
#3457=ORIENTED_EDGE('',*,*,#3458,.F.);
#3468=EDGE_CURVE('',#3441,#3459,#3473,.T.);
#3473=LINE('',#3442,#3475);
#3475=VECTOR('',#3476,0.130175);
#3476=DIRECTION('',(0.0,0.0,1.0));
#3467=ORIENTED_EDGE('',*,*,#3468,.F.);
#3477=STYLED_ITEM('',(#34),#3478);
#3478=ADVANCED_FACE('',(#3484),#3479,.T.);
#3479=PLANE('',#3480);
#3480=AXIS2_PLACEMENT_3D('',#3481,#3482,#3483);
#3481=CARTESIAN_POINT('',(0.673,0.802,0.673));
#3482=DIRECTION('',(0.0,0.0,1.0));
#3483=DIRECTION('',(0.,1.,0.));
#3484=FACE_OUTER_BOUND('',#3485,.T.);
#3485=EDGE_LOOP('',(#3486,#3496,#3506,#3516));
#3486=ORIENTED_EDGE('',*,*,#3458,.T.);
#3499=CARTESIAN_POINT('',(0.711,0.498,0.673));
#3498=VERTEX_POINT('',#3499);
#3497=EDGE_CURVE('',#3498,#3449,#3502,.T.);
#3502=LINE('',#3499,#3504);
#3504=VECTOR('',#3505,3.77820721013588E-02);
#3505=DIRECTION('',(-1.0,0.0,0.0));
#3496=ORIENTED_EDGE('',*,*,#3497,.F.);
#3509=CARTESIAN_POINT('',(0.711,0.802,0.673));
#3508=VERTEX_POINT('',#3509);
#3507=EDGE_CURVE('',#3508,#3498,#3512,.T.);
#3512=LINE('',#3509,#3514);
#3514=VECTOR('',#3515,0.304799994968323);
#3515=DIRECTION('',(0.0,-1.0,0.0));
#3506=ORIENTED_EDGE('',*,*,#3507,.F.);
#3517=EDGE_CURVE('',#3459,#3508,#3522,.T.);
#3522=LINE('',#3460,#3524);
#3524=VECTOR('',#3525,3.77820721013587E-02);
#3525=DIRECTION('',(1.0,0.0,0.0));
#3516=ORIENTED_EDGE('',*,*,#3517,.F.);
#3526=STYLED_ITEM('',(#34),#3527);
#3527=ADVANCED_FACE('',(#3533),#3528,.T.);
#3528=PLANE('',#3529);
#3529=AXIS2_PLACEMENT_3D('',#3530,#3531,#3532);
#3530=CARTESIAN_POINT('',(0.673,0.498,0.543));
#3531=DIRECTION('',(0.0,0.0,-1.0));
#3532=DIRECTION('',(0.,1.,0.));
#3533=FACE_OUTER_BOUND('',#3534,.T.);
#3534=EDGE_LOOP('',(#3535,#3545,#3555,#3565));
#3535=ORIENTED_EDGE('',*,*,#3438,.T.);
#3548=CARTESIAN_POINT('',(0.711,0.802,0.543));
#3547=VERTEX_POINT('',#3548);
#3546=EDGE_CURVE('',#3547,#3441,#3551,.T.);
#3551=LINE('',#3548,#3553);
#3553=VECTOR('',#3554,3.77820721013587E-02);
#3554=DIRECTION('',(-1.0,0.0,0.0));
#3545=ORIENTED_EDGE('',*,*,#3546,.F.);
#3558=CARTESIAN_POINT('',(0.711,0.498,0.543));
#3557=VERTEX_POINT('',#3558);
#3556=EDGE_CURVE('',#3557,#3547,#3561,.T.);
#3561=LINE('',#3558,#3563);
#3563=VECTOR('',#3564,0.304799994968323);
#3564=DIRECTION('',(0.0,1.0,0.0));
#3555=ORIENTED_EDGE('',*,*,#3556,.F.);
#3566=EDGE_CURVE('',#3439,#3557,#3571,.T.);
#3571=LINE('',#3440,#3573);
#3573=VECTOR('',#3574,3.77820721013588E-02);
#3574=DIRECTION('',(1.0,0.0,0.0));
#3565=ORIENTED_EDGE('',*,*,#3566,.F.);
#3575=STYLED_ITEM('',(#34),#3576);
#3576=ADVANCED_FACE('',(#3582),#3577,.T.);
#3577=PLANE('',#3578);
#3578=AXIS2_PLACEMENT_3D('',#3579,#3580,#3581);
#3579=CARTESIAN_POINT('',(1.03,0.498,0.227));
#3580=DIRECTION('',(0.966,0.0,0.259));
#3581=DIRECTION('',(0.,0.,1.));
#3582=FACE_OUTER_BOUND('',#3583,.T.);
#3583=EDGE_LOOP('',(#3584,#3594,#3604,#3614));
#3587=CARTESIAN_POINT('',(1.03,0.802,0.227));
#3586=VERTEX_POINT('',#3587);
#3589=CARTESIAN_POINT('',(1.03,0.498,0.227));
#3588=VERTEX_POINT('',#3589);
#3585=EDGE_CURVE('',#3586,#3588,#3590,.T.);
#3590=LINE('',#3587,#3592);
#3592=VECTOR('',#3593,0.304799995818656);
#3593=DIRECTION('',(0.0,-1.0,0.0));
#3584=ORIENTED_EDGE('',*,*,#3585,.F.);
#3597=CARTESIAN_POINT('',(0.962,0.802,0.48));
#3596=VERTEX_POINT('',#3597);
#3595=EDGE_CURVE('',#3596,#3586,#3600,.T.);
#3600=LINE('',#3597,#3602);
#3602=VECTOR('',#3603,0.262415537526308);
#3603=DIRECTION('',(0.259,0.0,-0.966));
#3594=ORIENTED_EDGE('',*,*,#3595,.F.);
#3607=CARTESIAN_POINT('',(0.962,0.498,0.48));
#3606=VERTEX_POINT('',#3607);
#3605=EDGE_CURVE('',#3606,#3596,#3610,.T.);
#3610=LINE('',#3607,#3612);
#3612=VECTOR('',#3613,0.304799995406365);
#3613=DIRECTION('',(0.0,1.0,0.0));
#3604=ORIENTED_EDGE('',*,*,#3605,.F.);
#3615=EDGE_CURVE('',#3588,#3606,#3620,.T.);
#3620=LINE('',#3589,#3622);
#3622=VECTOR('',#3623,0.262415537526308);
#3623=DIRECTION('',(-0.259,0.0,0.966));
#3614=ORIENTED_EDGE('',*,*,#3615,.F.);
#3624=STYLED_ITEM('',(#34),#3625);
#3625=ADVANCED_FACE('',(#3631),#3626,.T.);
#3626=PLANE('',#3627);
#3627=AXIS2_PLACEMENT_3D('',#3628,#3629,#3630);
#3628=CARTESIAN_POINT('',(0.905,0.802,0.193));
#3629=DIRECTION('',(-0.966,0.0,-0.259));
#3630=DIRECTION('',(0.,0.,1.));
#3631=FACE_OUTER_BOUND('',#3632,.T.);
#3632=EDGE_LOOP('',(#3633,#3643,#3653,#3663));
#3636=CARTESIAN_POINT('',(0.905,0.498,0.193));
#3635=VERTEX_POINT('',#3636);
#3638=CARTESIAN_POINT('',(0.905,0.802,0.193));
#3637=VERTEX_POINT('',#3638);
#3634=EDGE_CURVE('',#3635,#3637,#3639,.T.);
#3639=LINE('',#3636,#3641);
#3641=VECTOR('',#3642,0.304799995219162);
#3642=DIRECTION('',(0.0,1.0,0.0));
#3633=ORIENTED_EDGE('',*,*,#3634,.F.);
#3646=CARTESIAN_POINT('',(0.837,0.498,0.446));
#3645=VERTEX_POINT('',#3646);
#3644=EDGE_CURVE('',#3645,#3635,#3649,.T.);
#3649=LINE('',#3646,#3651);
#3651=VECTOR('',#3652,0.262415537584304);
#3652=DIRECTION('',(0.259,0.0,-0.966));
#3643=ORIENTED_EDGE('',*,*,#3644,.F.);
#3656=CARTESIAN_POINT('',(0.837,0.802,0.446));
#3655=VERTEX_POINT('',#3656);
#3654=EDGE_CURVE('',#3655,#3645,#3659,.T.);
#3659=LINE('',#3656,#3661);
#3661=VECTOR('',#3662,0.304799995090222);
#3662=DIRECTION('',(0.0,-1.0,0.0));
#3653=ORIENTED_EDGE('',*,*,#3654,.F.);
#3664=EDGE_CURVE('',#3637,#3655,#3669,.T.);
#3669=LINE('',#3638,#3671);
#3671=VECTOR('',#3672,0.262415537584304);
#3672=DIRECTION('',(-0.259,0.0,0.966));
#3663=ORIENTED_EDGE('',*,*,#3664,.F.);
#3673=STYLED_ITEM('',(#34),#3674);
#3674=ADVANCED_FACE('',(#3680),#3675,.T.);
#3675=PLANE('',#3676);
#3676=AXIS2_PLACEMENT_3D('',#3677,#3678,#3679);
#3677=CARTESIAN_POINT('',(1.194,0.498,0.13));
#3678=DIRECTION('',(0.0,0.0,1.0));
#3679=DIRECTION('',(0.,1.,0.));
#3680=FACE_OUTER_BOUND('',#3681,.T.);
#3681=EDGE_LOOP('',(#3682,#3692,#3702,#3712));
#3685=CARTESIAN_POINT('',(1.194,0.802,0.13));
#3684=VERTEX_POINT('',#3685);
#3687=CARTESIAN_POINT('',(1.194,0.498,0.13));
#3686=VERTEX_POINT('',#3687);
#3683=EDGE_CURVE('',#3684,#3686,#3688,.T.);
#3688=LINE('',#3685,#3690);
#3690=VECTOR('',#3691,0.3048);
#3691=DIRECTION('',(0.0,-1.0,0.0));
#3682=ORIENTED_EDGE('',*,*,#3683,.F.);
#3695=CARTESIAN_POINT('',(1.156,0.802,0.13));
#3694=VERTEX_POINT('',#3695);
#3693=EDGE_CURVE('',#3694,#3684,#3698,.T.);
#3698=LINE('',#3695,#3700);
#3700=VECTOR('',#3701,3.77820715208329E-02);
#3701=DIRECTION('',(1.0,0.0,0.0));
#3692=ORIENTED_EDGE('',*,*,#3693,.F.);
#3705=CARTESIAN_POINT('',(1.156,0.498,0.13));
#3704=VERTEX_POINT('',#3705);
#3703=EDGE_CURVE('',#3704,#3694,#3708,.T.);
#3708=LINE('',#3705,#3710);
#3710=VECTOR('',#3711,0.304799998290099);
#3711=DIRECTION('',(0.0,1.0,0.0));
#3702=ORIENTED_EDGE('',*,*,#3703,.F.);
#3713=EDGE_CURVE('',#3686,#3704,#3718,.T.);
#3718=LINE('',#3687,#3720);
#3720=VECTOR('',#3721,3.77820715208328E-02);
#3721=DIRECTION('',(-1.0,0.0,0.0));
#3712=ORIENTED_EDGE('',*,*,#3713,.F.);
#3722=STYLED_ITEM('',(#34),#3723);
#3723=ADVANCED_FACE('',(#3729),#3724,.T.);
#3724=PLANE('',#3725);
#3725=AXIS2_PLACEMENT_3D('',#3726,#3727,#3728);
#3726=CARTESIAN_POINT('',(1.156,0.498,0.0));
#3727=DIRECTION('',(0.0,0.0,-1.0));
#3728=DIRECTION('',(0.,1.,0.));
#3729=FACE_OUTER_BOUND('',#3730,.T.);
#3730=EDGE_LOOP('',(#3731,#3741,#3751,#3761));
#3734=CARTESIAN_POINT('',(1.156,0.802,0.0));
#3733=VERTEX_POINT('',#3734);
#3736=CARTESIAN_POINT('',(1.156,0.498,0.0));
#3735=VERTEX_POINT('',#3736);
#3732=EDGE_CURVE('',#3733,#3735,#3737,.T.);
#3737=LINE('',#3734,#3739);
#3739=VECTOR('',#3740,0.304799998290099);
#3740=DIRECTION('',(0.0,-1.0,0.0));
#3731=ORIENTED_EDGE('',*,*,#3732,.F.);
#3744=CARTESIAN_POINT('',(1.194,0.802,0.0));
#3743=VERTEX_POINT('',#3744);
#3742=EDGE_CURVE('',#3743,#3733,#3747,.T.);
#3747=LINE('',#3744,#3749);
#3749=VECTOR('',#3750,3.77820715208329E-02);
#3750=DIRECTION('',(-1.0,0.0,0.0));
#3741=ORIENTED_EDGE('',*,*,#3742,.F.);
#3754=CARTESIAN_POINT('',(1.194,0.498,0.0));
#3753=VERTEX_POINT('',#3754);
#3752=EDGE_CURVE('',#3753,#3743,#3757,.T.);
#3757=LINE('',#3754,#3759);
#3759=VECTOR('',#3760,0.3048);
#3760=DIRECTION('',(0.0,1.0,0.0));
#3751=ORIENTED_EDGE('',*,*,#3752,.F.);
#3762=EDGE_CURVE('',#3735,#3753,#3767,.T.);
#3767=LINE('',#3736,#3769);
#3769=VECTOR('',#3770,3.77820715208328E-02);
#3770=DIRECTION('',(1.0,0.0,0.0));
#3761=ORIENTED_EDGE('',*,*,#3762,.F.);
#3771=STYLED_ITEM('',(#34),#3772);
#3772=ADVANCED_FACE('',(#3778),#3773,.T.);
#3773=PLANE('',#3774);
#3774=AXIS2_PLACEMENT_3D('',#3775,#3776,#3777);
#3775=CARTESIAN_POINT('',(1.194,0.498,0.0));
#3776=DIRECTION('',(1.0,0.0,0.0));
#3777=DIRECTION('',(0.,0.,1.));
#3778=FACE_OUTER_BOUND('',#3779,.T.);
#3779=EDGE_LOOP('',(#3780,#3790,#3800,#3810));
#3780=ORIENTED_EDGE('',*,*,#3752,.T.);
#3791=EDGE_CURVE('',#3684,#3743,#3796,.T.);
#3796=LINE('',#3685,#3798);
#3798=VECTOR('',#3799,0.130175);
#3799=DIRECTION('',(0.0,0.0,-1.0));
#3790=ORIENTED_EDGE('',*,*,#3791,.F.);
#3800=ORIENTED_EDGE('',*,*,#3683,.T.);
#3811=EDGE_CURVE('',#3753,#3686,#3816,.T.);
#3816=LINE('',#3754,#3818);
#3818=VECTOR('',#3819,0.130175);
#3819=DIRECTION('',(0.0,0.0,1.0));
#3810=ORIENTED_EDGE('',*,*,#3811,.F.);
#3820=STYLED_ITEM($,(#34),#3821);
#3821=ADVANCED_FACE($,(#3827),#3822,.T.);
#3822=CYLINDRICAL_SURFACE($,#3823,0.26035);
#3823=AXIS2_PLACEMENT_3D($,#3824,#3825,#3826);
#3824=CARTESIAN_POINT('',(0.711,0.802,0.413));
#3825=DIRECTION('',(0.0,1.0,0.0));
#3826=DIRECTION('',(0.,0.,1.));
#3827=FACE_OUTER_BOUND($,#3828,.T.);
#3828=EDGE_LOOP($,(#3840,#3850,#3861,#3829));
#3840=ORIENTED_EDGE('',*,*,#3507,.T.);
#3851=EDGE_CURVE($,#3606,#3498,#3856,.T.);
#3856=CIRCLE($,#3857,0.26035);
#3858=CARTESIAN_POINT('',(0.711,0.498,0.413));
#3857=AXIS2_PLACEMENT_3D($,#3858,#3859,#3860);
#3859=DIRECTION('',(0.0,-1.0,0.0));
#3860=DIRECTION('',(-0.793,0.0,0.609));
#3850=ORIENTED_EDGE('',*,*,#3851,.F.);
#3861=ORIENTED_EDGE('',*,*,#3605,.T.);
#3830=EDGE_CURVE($,#3508,#3596,#3835,.T.);
#3835=CIRCLE($,#3836,0.26035);
#3837=CARTESIAN_POINT('',(0.711,0.802,0.413));
#3836=AXIS2_PLACEMENT_3D($,#3837,#3838,#3839);
#3838=DIRECTION('',(0.0,1.0,0.0));
#3839=DIRECTION('',(0.793,0.0,-0.609));
#3829=ORIENTED_EDGE('',*,*,#3830,.F.);
#3871=STYLED_ITEM($,(#34),#3872);
#3872=ADVANCED_FACE($,(#3878),#3873,.F.);
#3873=CYLINDRICAL_SURFACE($,#3874,0.130175);
#3874=AXIS2_PLACEMENT_3D($,#3875,#3876,#3877);
#3875=CARTESIAN_POINT('',(0.711,0.498,0.413));
#3876=DIRECTION('',(0.0,1.0,0.0));
#3877=DIRECTION('',(0.,0.,-1.));
#3878=FACE_OUTER_BOUND($,#3879,.T.);
#3879=EDGE_LOOP($,(#3891,#3901,#3912,#3880));
#3891=ORIENTED_EDGE('',*,*,#3556,.T.);
#3902=EDGE_CURVE($,#3655,#3547,#3907,.T.);
#3907=CIRCLE($,#3908,0.130175);
#3908=AXIS2_PLACEMENT_3D($,#3837,#3910,#3911);
#3910=DIRECTION('',(0.0,-1.0,0.0));
#3911=DIRECTION('',(-0.793,0.0,0.609));
#3901=ORIENTED_EDGE('',*,*,#3902,.F.);
#3912=ORIENTED_EDGE('',*,*,#3654,.T.);
#3881=EDGE_CURVE($,#3557,#3645,#3886,.T.);
#3886=CIRCLE($,#3887,0.130175);
#3887=AXIS2_PLACEMENT_3D($,#3858,#3889,#3890);
#3889=DIRECTION('',(0.0,1.0,0.0));
#3890=DIRECTION('',(0.793,0.0,-0.609));
#3880=ORIENTED_EDGE('',*,*,#3881,.F.);
#3922=STYLED_ITEM($,(#34),#3923);
#3923=ADVANCED_FACE($,(#3929),#3924,.F.);
#3924=CYLINDRICAL_SURFACE($,#3925,0.130175);
#3925=AXIS2_PLACEMENT_3D($,#3926,#3927,#3928);
#3926=CARTESIAN_POINT('',(1.156,0.498,0.26));
#3927=DIRECTION('',(0.0,1.0,0.0));
#3928=DIRECTION('',(0.,0.,1.));
#3929=FACE_OUTER_BOUND($,#3930,.T.);
#3930=EDGE_LOOP($,(#3942,#3952,#3963,#3931));
#3942=ORIENTED_EDGE('',*,*,#3703,.T.);
#3953=EDGE_CURVE($,#3586,#3694,#3958,.T.);
#3958=CIRCLE($,#3959,0.130175);
#3960=CARTESIAN_POINT('',(1.156,0.802,0.26));
#3959=AXIS2_PLACEMENT_3D($,#3960,#3961,#3962);
#3961=DIRECTION('',(0.0,-1.0,0.0));
#3962=DIRECTION('',(0.793,0.0,-0.609));
#3952=ORIENTED_EDGE('',*,*,#3953,.F.);
#3963=ORIENTED_EDGE('',*,*,#3585,.T.);
#3932=EDGE_CURVE($,#3704,#3588,#3937,.T.);
#3937=CIRCLE($,#3938,0.130175);
#3939=CARTESIAN_POINT('',(1.156,0.498,0.26));
#3938=AXIS2_PLACEMENT_3D($,#3939,#3940,#3941);
#3940=DIRECTION('',(0.0,1.0,0.0));
#3941=DIRECTION('',(-0.793,0.0,0.609));
#3931=ORIENTED_EDGE('',*,*,#3932,.F.);
#3973=STYLED_ITEM($,(#34),#3974);
#3974=ADVANCED_FACE($,(#3980),#3975,.T.);
#3975=CYLINDRICAL_SURFACE($,#3976,0.26035);
#3976=AXIS2_PLACEMENT_3D($,#3977,#3978,#3979);
#3977=CARTESIAN_POINT('',(1.156,0.498,0.26));
#3978=DIRECTION('',(0.0,1.0,0.0));
#3979=DIRECTION('',(0.,0.,-1.));
#3980=FACE_OUTER_BOUND($,#3981,.T.);
#3981=EDGE_LOOP($,(#3993,#4003,#4014,#3982));
#3993=ORIENTED_EDGE('',*,*,#3732,.T.);
#4004=EDGE_CURVE($,#3635,#3735,#4009,.T.);
#4009=CIRCLE($,#4010,0.26035);
#4010=AXIS2_PLACEMENT_3D($,#3939,#4012,#4013);
#4012=DIRECTION('',(0.0,-1.0,0.0));
#4013=DIRECTION('',(0.793,0.0,-0.609));
#4003=ORIENTED_EDGE('',*,*,#4004,.F.);
#4014=ORIENTED_EDGE('',*,*,#3634,.T.);
#3983=EDGE_CURVE($,#3733,#3637,#3988,.T.);
#3988=CIRCLE($,#3989,0.26035);
#3989=AXIS2_PLACEMENT_3D($,#3960,#3991,#3992);
#3991=DIRECTION('',(0.0,1.0,0.0));
#3992=DIRECTION('',(-0.793,0.0,0.609));
#3982=ORIENTED_EDGE('',*,*,#3983,.F.);
#4024=STYLED_ITEM('color',(#34),#4025);
#4025=ADVANCED_FACE($,(#4031),#4026,.T.);
#4026=PLANE($,#4027);
#4027=AXIS2_PLACEMENT_3D($,#4028,#4029,#4030);
#4028=CARTESIAN_POINT('',(0.673,0.498,0.543));
#4029=DIRECTION('',(0.0,-1.0,0.0));
#4030=DIRECTION('',(1.,0.,0.));
#4031=FACE_OUTER_BOUND($,#4032,.T.);
#4032=EDGE_LOOP($,(#4035, #4045, #4055, #4118, #4129, #4065, #4076, #4086, #4096, #4106, #4139, #4149));
#4035=ORIENTED_EDGE('',*,*,#3497,.T.);
#4045=ORIENTED_EDGE('',*,*,#3448,.T.);
#4055=ORIENTED_EDGE('',*,*,#3566,.T.);
#4118=ORIENTED_EDGE('',*,*,#3881,.T.);
#4129=ORIENTED_EDGE('',*,*,#3644,.T.);
#4065=ORIENTED_EDGE('',*,*,#4004,.T.);
#4076=ORIENTED_EDGE('',*,*,#3762,.T.);
#4086=ORIENTED_EDGE('',*,*,#3811,.T.);
#4096=ORIENTED_EDGE('',*,*,#3713,.T.);
#4106=ORIENTED_EDGE('',*,*,#3932,.T.);
#4139=ORIENTED_EDGE('',*,*,#3615,.T.);
#4149=ORIENTED_EDGE('',*,*,#3851,.T.);
#4160=STYLED_ITEM('color',(#34),#4161);
#4161=ADVANCED_FACE($,(#4167),#4162,.T.);
#4162=PLANE($,#4163);
#4163=AXIS2_PLACEMENT_3D($,#4164,#4165,#4166);
#4164=CARTESIAN_POINT('',(1.156,0.802,0.13));
#4165=DIRECTION('',(0.0,1.0,0.0));
#4166=DIRECTION('',(1.,0.,0.));
#4167=FACE_OUTER_BOUND($,#4168,.T.);
#4168=EDGE_LOOP($,(#4171, #4181, #4191, #4254, #4265, #4201, #4212, #4222, #4232, #4242, #4275, #4285));
#4171=ORIENTED_EDGE('',*,*,#3546,.T.);
#4181=ORIENTED_EDGE('',*,*,#3468,.T.);
#4191=ORIENTED_EDGE('',*,*,#3517,.T.);
#4254=ORIENTED_EDGE('',*,*,#3830,.T.);
#4265=ORIENTED_EDGE('',*,*,#3595,.T.);
#4201=ORIENTED_EDGE('',*,*,#3953,.T.);
#4212=ORIENTED_EDGE('',*,*,#3693,.T.);
#4222=ORIENTED_EDGE('',*,*,#3791,.T.);
#4232=ORIENTED_EDGE('',*,*,#3742,.T.);
#4242=ORIENTED_EDGE('',*,*,#3983,.T.);
#4275=ORIENTED_EDGE('',*,*,#3664,.T.);
#4285=ORIENTED_EDGE('',*,*,#3902,.T.);
#4296=MANIFOLD_SOLID_BREP($,#4297);
#4297=CLOSED_SHELL('',(#4299,#4348,#4397,#4446,#4495,#4544,#4593,#4642,#4691,#4742,#4793,#4844,#4895,#5031));
#4298=STYLED_ITEM('',(#34),#4299);
#4299=ADVANCED_FACE('',(#4305),#4300,.T.);
#4300=PLANE('',#4301);
#4301=AXIS2_PLACEMENT_3D('',#4302,#4303,#4304);
#4302=CARTESIAN_POINT('',(0.673,-0.498,0.543));
#4303=DIRECTION('',(-1.0,0.0,0.0));
#4304=DIRECTION('',(0.,0.,1.));
#4305=FACE_OUTER_BOUND('',#4306,.T.);
#4306=EDGE_LOOP('',(#4307,#4317,#4327,#4337));
#4310=CARTESIAN_POINT('',(0.673,-0.802,0.543));
#4309=VERTEX_POINT('',#4310);
#4312=CARTESIAN_POINT('',(0.673,-0.498,0.543));
#4311=VERTEX_POINT('',#4312);
#4308=EDGE_CURVE('',#4309,#4311,#4313,.T.);
#4313=LINE('',#4310,#4315);
#4315=VECTOR('',#4316,0.304799994946643);
#4316=DIRECTION('',(0.0,1.0,0.0));
#4307=ORIENTED_EDGE('',*,*,#4308,.F.);
#4320=CARTESIAN_POINT('',(0.673,-0.802,0.673));
#4319=VERTEX_POINT('',#4320);
#4318=EDGE_CURVE('',#4319,#4309,#4323,.T.);
#4323=LINE('',#4320,#4325);
#4325=VECTOR('',#4326,0.130175);
#4326=DIRECTION('',(0.0,0.0,-1.0));
#4317=ORIENTED_EDGE('',*,*,#4318,.F.);
#4330=CARTESIAN_POINT('',(0.673,-0.498,0.673));
#4329=VERTEX_POINT('',#4330);
#4328=EDGE_CURVE('',#4329,#4319,#4333,.T.);
#4333=LINE('',#4330,#4335);
#4335=VECTOR('',#4336,0.304799994946643);
#4336=DIRECTION('',(0.0,-1.0,0.0));
#4327=ORIENTED_EDGE('',*,*,#4328,.F.);
#4338=EDGE_CURVE('',#4311,#4329,#4343,.T.);
#4343=LINE('',#4312,#4345);
#4345=VECTOR('',#4346,0.130175);
#4346=DIRECTION('',(0.0,0.0,1.0));
#4337=ORIENTED_EDGE('',*,*,#4338,.F.);
#4347=STYLED_ITEM('',(#34),#4348);
#4348=ADVANCED_FACE('',(#4354),#4349,.T.);
#4349=PLANE('',#4350);
#4350=AXIS2_PLACEMENT_3D('',#4351,#4352,#4353);
#4351=CARTESIAN_POINT('',(0.673,-0.498,0.673));
#4352=DIRECTION('',(0.0,0.0,1.0));
#4353=DIRECTION('',(0.,1.,0.));
#4354=FACE_OUTER_BOUND('',#4355,.T.);
#4355=EDGE_LOOP('',(#4356,#4366,#4376,#4386));
#4356=ORIENTED_EDGE('',*,*,#4328,.T.);
#4369=CARTESIAN_POINT('',(0.711,-0.802,0.673));
#4368=VERTEX_POINT('',#4369);
#4367=EDGE_CURVE('',#4368,#4319,#4372,.T.);
#4372=LINE('',#4369,#4374);
#4374=VECTOR('',#4375,3.77820721013588E-02);
#4375=DIRECTION('',(-1.0,0.0,0.0));
#4366=ORIENTED_EDGE('',*,*,#4367,.F.);
#4379=CARTESIAN_POINT('',(0.711,-0.498,0.673));
#4378=VERTEX_POINT('',#4379);
#4377=EDGE_CURVE('',#4378,#4368,#4382,.T.);
#4382=LINE('',#4379,#4384);
#4384=VECTOR('',#4385,0.304799994968323);
#4385=DIRECTION('',(0.0,-1.0,0.0));
#4376=ORIENTED_EDGE('',*,*,#4377,.F.);
#4387=EDGE_CURVE('',#4329,#4378,#4392,.T.);
#4392=LINE('',#4330,#4394);
#4394=VECTOR('',#4395,3.77820721013587E-02);
#4395=DIRECTION('',(1.0,0.0,0.0));
#4386=ORIENTED_EDGE('',*,*,#4387,.F.);
#4396=STYLED_ITEM('',(#34),#4397);
#4397=ADVANCED_FACE('',(#4403),#4398,.T.);
#4398=PLANE('',#4399);
#4399=AXIS2_PLACEMENT_3D('',#4400,#4401,#4402);
#4400=CARTESIAN_POINT('',(0.673,-0.802,0.543));
#4401=DIRECTION('',(0.0,0.0,-1.0));
#4402=DIRECTION('',(0.,1.,0.));
#4403=FACE_OUTER_BOUND('',#4404,.T.);
#4404=EDGE_LOOP('',(#4405,#4415,#4425,#4435));
#4405=ORIENTED_EDGE('',*,*,#4308,.T.);
#4418=CARTESIAN_POINT('',(0.711,-0.498,0.543));
#4417=VERTEX_POINT('',#4418);
#4416=EDGE_CURVE('',#4417,#4311,#4421,.T.);
#4421=LINE('',#4418,#4423);
#4423=VECTOR('',#4424,3.77820721013587E-02);
#4424=DIRECTION('',(-1.0,0.0,0.0));
#4415=ORIENTED_EDGE('',*,*,#4416,.F.);
#4428=CARTESIAN_POINT('',(0.711,-0.802,0.543));
#4427=VERTEX_POINT('',#4428);
#4426=EDGE_CURVE('',#4427,#4417,#4431,.T.);
#4431=LINE('',#4428,#4433);
#4433=VECTOR('',#4434,0.304799994968323);
#4434=DIRECTION('',(0.0,1.0,0.0));
#4425=ORIENTED_EDGE('',*,*,#4426,.F.);
#4436=EDGE_CURVE('',#4309,#4427,#4441,.T.);
#4441=LINE('',#4310,#4443);
#4443=VECTOR('',#4444,3.77820721013588E-02);
#4444=DIRECTION('',(1.0,0.0,0.0));
#4435=ORIENTED_EDGE('',*,*,#4436,.F.);
#4445=STYLED_ITEM('',(#34),#4446);
#4446=ADVANCED_FACE('',(#4452),#4447,.T.);
#4447=PLANE('',#4448);
#4448=AXIS2_PLACEMENT_3D('',#4449,#4450,#4451);
#4449=CARTESIAN_POINT('',(1.03,-0.802,0.227));
#4450=DIRECTION('',(0.966,0.0,0.259));
#4451=DIRECTION('',(0.,0.,1.));
#4452=FACE_OUTER_BOUND('',#4453,.T.);
#4453=EDGE_LOOP('',(#4454,#4464,#4474,#4484));
#4457=CARTESIAN_POINT('',(1.03,-0.498,0.227));
#4456=VERTEX_POINT('',#4457);
#4459=CARTESIAN_POINT('',(1.03,-0.802,0.227));
#4458=VERTEX_POINT('',#4459);
#4455=EDGE_CURVE('',#4456,#4458,#4460,.T.);
#4460=LINE('',#4457,#4462);
#4462=VECTOR('',#4463,0.304799995818656);
#4463=DIRECTION('',(0.0,-1.0,0.0));
#4454=ORIENTED_EDGE('',*,*,#4455,.F.);
#4467=CARTESIAN_POINT('',(0.962,-0.498,0.48));
#4466=VERTEX_POINT('',#4467);
#4465=EDGE_CURVE('',#4466,#4456,#4470,.T.);
#4470=LINE('',#4467,#4472);
#4472=VECTOR('',#4473,0.262415537526308);
#4473=DIRECTION('',(0.259,0.0,-0.966));
#4464=ORIENTED_EDGE('',*,*,#4465,.F.);
#4477=CARTESIAN_POINT('',(0.962,-0.802,0.48));
#4476=VERTEX_POINT('',#4477);
#4475=EDGE_CURVE('',#4476,#4466,#4480,.T.);
#4480=LINE('',#4477,#4482);
#4482=VECTOR('',#4483,0.304799995406365);
#4483=DIRECTION('',(0.0,1.0,0.0));
#4474=ORIENTED_EDGE('',*,*,#4475,.F.);
#4485=EDGE_CURVE('',#4458,#4476,#4490,.T.);
#4490=LINE('',#4459,#4492);
#4492=VECTOR('',#4493,0.262415537526308);
#4493=DIRECTION('',(-0.259,0.0,0.966));
#4484=ORIENTED_EDGE('',*,*,#4485,.F.);
#4494=STYLED_ITEM('',(#34),#4495);
#4495=ADVANCED_FACE('',(#4501),#4496,.T.);
#4496=PLANE('',#4497);
#4497=AXIS2_PLACEMENT_3D('',#4498,#4499,#4500);
#4498=CARTESIAN_POINT('',(0.905,-0.498,0.193));
#4499=DIRECTION('',(-0.966,0.0,-0.259));
#4500=DIRECTION('',(0.,0.,1.));
#4501=FACE_OUTER_BOUND('',#4502,.T.);
#4502=EDGE_LOOP('',(#4503,#4513,#4523,#4533));
#4506=CARTESIAN_POINT('',(0.905,-0.802,0.193));
#4505=VERTEX_POINT('',#4506);
#4508=CARTESIAN_POINT('',(0.905,-0.498,0.193));
#4507=VERTEX_POINT('',#4508);
#4504=EDGE_CURVE('',#4505,#4507,#4509,.T.);
#4509=LINE('',#4506,#4511);
#4511=VECTOR('',#4512,0.304799995219162);
#4512=DIRECTION('',(0.0,1.0,0.0));
#4503=ORIENTED_EDGE('',*,*,#4504,.F.);
#4516=CARTESIAN_POINT('',(0.837,-0.802,0.446));
#4515=VERTEX_POINT('',#4516);
#4514=EDGE_CURVE('',#4515,#4505,#4519,.T.);
#4519=LINE('',#4516,#4521);
#4521=VECTOR('',#4522,0.262415537584304);
#4522=DIRECTION('',(0.259,0.0,-0.966));
#4513=ORIENTED_EDGE('',*,*,#4514,.F.);
#4526=CARTESIAN_POINT('',(0.837,-0.498,0.446));
#4525=VERTEX_POINT('',#4526);
#4524=EDGE_CURVE('',#4525,#4515,#4529,.T.);
#4529=LINE('',#4526,#4531);
#4531=VECTOR('',#4532,0.304799995090222);
#4532=DIRECTION('',(0.0,-1.0,0.0));
#4523=ORIENTED_EDGE('',*,*,#4524,.F.);
#4534=EDGE_CURVE('',#4507,#4525,#4539,.T.);
#4539=LINE('',#4508,#4541);
#4541=VECTOR('',#4542,0.262415537584304);
#4542=DIRECTION('',(-0.259,0.0,0.966));
#4533=ORIENTED_EDGE('',*,*,#4534,.F.);
#4543=STYLED_ITEM('',(#34),#4544);
#4544=ADVANCED_FACE('',(#4550),#4545,.T.);
#4545=PLANE('',#4546);
#4546=AXIS2_PLACEMENT_3D('',#4547,#4548,#4549);
#4547=CARTESIAN_POINT('',(1.194,-0.802,0.13));
#4548=DIRECTION('',(0.0,0.0,1.0));
#4549=DIRECTION('',(0.,1.,0.));
#4550=FACE_OUTER_BOUND('',#4551,.T.);
#4551=EDGE_LOOP('',(#4552,#4562,#4572,#4582));
#4555=CARTESIAN_POINT('',(1.194,-0.498,0.13));
#4554=VERTEX_POINT('',#4555);
#4557=CARTESIAN_POINT('',(1.194,-0.802,0.13));
#4556=VERTEX_POINT('',#4557);
#4553=EDGE_CURVE('',#4554,#4556,#4558,.T.);
#4558=LINE('',#4555,#4560);
#4560=VECTOR('',#4561,0.3048);
#4561=DIRECTION('',(0.0,-1.0,0.0));
#4552=ORIENTED_EDGE('',*,*,#4553,.F.);
#4565=CARTESIAN_POINT('',(1.156,-0.498,0.13));
#4564=VERTEX_POINT('',#4565);
#4563=EDGE_CURVE('',#4564,#4554,#4568,.T.);
#4568=LINE('',#4565,#4570);
#4570=VECTOR('',#4571,3.77820715208329E-02);
#4571=DIRECTION('',(1.0,0.0,0.0));
#4562=ORIENTED_EDGE('',*,*,#4563,.F.);
#4575=CARTESIAN_POINT('',(1.156,-0.802,0.13));
#4574=VERTEX_POINT('',#4575);
#4573=EDGE_CURVE('',#4574,#4564,#4578,.T.);
#4578=LINE('',#4575,#4580);
#4580=VECTOR('',#4581,0.304799998290099);
#4581=DIRECTION('',(0.0,1.0,0.0));
#4572=ORIENTED_EDGE('',*,*,#4573,.F.);
#4583=EDGE_CURVE('',#4556,#4574,#4588,.T.);
#4588=LINE('',#4557,#4590);
#4590=VECTOR('',#4591,3.77820715208328E-02);
#4591=DIRECTION('',(-1.0,0.0,0.0));
#4582=ORIENTED_EDGE('',*,*,#4583,.F.);
#4592=STYLED_ITEM('',(#34),#4593);
#4593=ADVANCED_FACE('',(#4599),#4594,.T.);
#4594=PLANE('',#4595);
#4595=AXIS2_PLACEMENT_3D('',#4596,#4597,#4598);
#4596=CARTESIAN_POINT('',(1.156,-0.802,0.0));
#4597=DIRECTION('',(0.0,0.0,-1.0));
#4598=DIRECTION('',(0.,1.,0.));
#4599=FACE_OUTER_BOUND('',#4600,.T.);
#4600=EDGE_LOOP('',(#4601,#4611,#4621,#4631));
#4604=CARTESIAN_POINT('',(1.156,-0.498,0.0));
#4603=VERTEX_POINT('',#4604);
#4606=CARTESIAN_POINT('',(1.156,-0.802,0.0));
#4605=VERTEX_POINT('',#4606);
#4602=EDGE_CURVE('',#4603,#4605,#4607,.T.);
#4607=LINE('',#4604,#4609);
#4609=VECTOR('',#4610,0.304799998290099);
#4610=DIRECTION('',(0.0,-1.0,0.0));
#4601=ORIENTED_EDGE('',*,*,#4602,.F.);
#4614=CARTESIAN_POINT('',(1.194,-0.498,0.0));
#4613=VERTEX_POINT('',#4614);
#4612=EDGE_CURVE('',#4613,#4603,#4617,.T.);
#4617=LINE('',#4614,#4619);
#4619=VECTOR('',#4620,3.77820715208329E-02);
#4620=DIRECTION('',(-1.0,0.0,0.0));
#4611=ORIENTED_EDGE('',*,*,#4612,.F.);
#4624=CARTESIAN_POINT('',(1.194,-0.802,0.0));
#4623=VERTEX_POINT('',#4624);
#4622=EDGE_CURVE('',#4623,#4613,#4627,.T.);
#4627=LINE('',#4624,#4629);
#4629=VECTOR('',#4630,0.3048);
#4630=DIRECTION('',(0.0,1.0,0.0));
#4621=ORIENTED_EDGE('',*,*,#4622,.F.);
#4632=EDGE_CURVE('',#4605,#4623,#4637,.T.);
#4637=LINE('',#4606,#4639);
#4639=VECTOR('',#4640,3.77820715208328E-02);
#4640=DIRECTION('',(1.0,0.0,0.0));
#4631=ORIENTED_EDGE('',*,*,#4632,.F.);
#4641=STYLED_ITEM('',(#34),#4642);
#4642=ADVANCED_FACE('',(#4648),#4643,.T.);
#4643=PLANE('',#4644);
#4644=AXIS2_PLACEMENT_3D('',#4645,#4646,#4647);
#4645=CARTESIAN_POINT('',(1.194,-0.802,0.0));
#4646=DIRECTION('',(1.0,0.0,0.0));
#4647=DIRECTION('',(0.,0.,1.));
#4648=FACE_OUTER_BOUND('',#4649,.T.);
#4649=EDGE_LOOP('',(#4650,#4660,#4670,#4680));
#4650=ORIENTED_EDGE('',*,*,#4622,.T.);
#4661=EDGE_CURVE('',#4554,#4613,#4666,.T.);
#4666=LINE('',#4555,#4668);
#4668=VECTOR('',#4669,0.130175);
#4669=DIRECTION('',(0.0,0.0,-1.0));
#4660=ORIENTED_EDGE('',*,*,#4661,.F.);
#4670=ORIENTED_EDGE('',*,*,#4553,.T.);
#4681=EDGE_CURVE('',#4623,#4556,#4686,.T.);
#4686=LINE('',#4624,#4688);
#4688=VECTOR('',#4689,0.130175);
#4689=DIRECTION('',(0.0,0.0,1.0));
#4680=ORIENTED_EDGE('',*,*,#4681,.F.);
#4690=STYLED_ITEM($,(#34),#4691);
#4691=ADVANCED_FACE($,(#4697),#4692,.T.);
#4692=CYLINDRICAL_SURFACE($,#4693,0.26035);
#4693=AXIS2_PLACEMENT_3D($,#4694,#4695,#4696);
#4694=CARTESIAN_POINT('',(0.711,-0.498,0.413));
#4695=DIRECTION('',(0.0,1.0,0.0));
#4696=DIRECTION('',(0.,0.,1.));
#4697=FACE_OUTER_BOUND($,#4698,.T.);
#4698=EDGE_LOOP($,(#4710,#4720,#4731,#4699));
#4710=ORIENTED_EDGE('',*,*,#4377,.T.);
#4721=EDGE_CURVE($,#4476,#4368,#4726,.T.);
#4726=CIRCLE($,#4727,0.26035);
#4728=CARTESIAN_POINT('',(0.711,-0.802,0.413));
#4727=AXIS2_PLACEMENT_3D($,#4728,#4729,#4730);
#4729=DIRECTION('',(0.0,-1.0,0.0));
#4730=DIRECTION('',(-0.793,0.0,0.609));
#4720=ORIENTED_EDGE('',*,*,#4721,.F.);
#4731=ORIENTED_EDGE('',*,*,#4475,.T.);
#4700=EDGE_CURVE($,#4378,#4466,#4705,.T.);
#4705=CIRCLE($,#4706,0.26035);
#4707=CARTESIAN_POINT('',(0.711,-0.498,0.413));
#4706=AXIS2_PLACEMENT_3D($,#4707,#4708,#4709);
#4708=DIRECTION('',(0.0,1.0,0.0));
#4709=DIRECTION('',(0.793,0.0,-0.609));
#4699=ORIENTED_EDGE('',*,*,#4700,.F.);
#4741=STYLED_ITEM($,(#34),#4742);
#4742=ADVANCED_FACE($,(#4748),#4743,.F.);
#4743=CYLINDRICAL_SURFACE($,#4744,0.130175);
#4744=AXIS2_PLACEMENT_3D($,#4745,#4746,#4747);
#4745=CARTESIAN_POINT('',(0.711,-0.802,0.413));
#4746=DIRECTION('',(0.0,1.0,0.0));
#4747=DIRECTION('',(0.,0.,-1.));
#4748=FACE_OUTER_BOUND($,#4749,.T.);
#4749=EDGE_LOOP($,(#4761,#4771,#4782,#4750));
#4761=ORIENTED_EDGE('',*,*,#4426,.T.);
#4772=EDGE_CURVE($,#4525,#4417,#4777,.T.);
#4777=CIRCLE($,#4778,0.130175);
#4778=AXIS2_PLACEMENT_3D($,#4707,#4780,#4781);
#4780=DIRECTION('',(0.0,-1.0,0.0));
#4781=DIRECTION('',(-0.793,0.0,0.609));
#4771=ORIENTED_EDGE('',*,*,#4772,.F.);
#4782=ORIENTED_EDGE('',*,*,#4524,.T.);
#4751=EDGE_CURVE($,#4427,#4515,#4756,.T.);
#4756=CIRCLE($,#4757,0.130175);
#4757=AXIS2_PLACEMENT_3D($,#4728,#4759,#4760);
#4759=DIRECTION('',(0.0,1.0,0.0));
#4760=DIRECTION('',(0.793,0.0,-0.609));
#4750=ORIENTED_EDGE('',*,*,#4751,.F.);
#4792=STYLED_ITEM($,(#34),#4793);
#4793=ADVANCED_FACE($,(#4799),#4794,.F.);
#4794=CYLINDRICAL_SURFACE($,#4795,0.130175);
#4795=AXIS2_PLACEMENT_3D($,#4796,#4797,#4798);
#4796=CARTESIAN_POINT('',(1.156,-0.802,0.26));
#4797=DIRECTION('',(0.0,1.0,0.0));
#4798=DIRECTION('',(0.,0.,1.));
#4799=FACE_OUTER_BOUND($,#4800,.T.);
#4800=EDGE_LOOP($,(#4812,#4822,#4833,#4801));
#4812=ORIENTED_EDGE('',*,*,#4573,.T.);
#4823=EDGE_CURVE($,#4456,#4564,#4828,.T.);
#4828=CIRCLE($,#4829,0.130175);
#4830=CARTESIAN_POINT('',(1.156,-0.498,0.26));
#4829=AXIS2_PLACEMENT_3D($,#4830,#4831,#4832);
#4831=DIRECTION('',(0.0,-1.0,0.0));
#4832=DIRECTION('',(0.793,0.0,-0.609));
#4822=ORIENTED_EDGE('',*,*,#4823,.F.);
#4833=ORIENTED_EDGE('',*,*,#4455,.T.);
#4802=EDGE_CURVE($,#4574,#4458,#4807,.T.);
#4807=CIRCLE($,#4808,0.130175);
#4809=CARTESIAN_POINT('',(1.156,-0.802,0.26));
#4808=AXIS2_PLACEMENT_3D($,#4809,#4810,#4811);
#4810=DIRECTION('',(0.0,1.0,0.0));
#4811=DIRECTION('',(-0.793,0.0,0.609));
#4801=ORIENTED_EDGE('',*,*,#4802,.F.);
#4843=STYLED_ITEM($,(#34),#4844);
#4844=ADVANCED_FACE($,(#4850),#4845,.T.);
#4845=CYLINDRICAL_SURFACE($,#4846,0.26035);
#4846=AXIS2_PLACEMENT_3D($,#4847,#4848,#4849);
#4847=CARTESIAN_POINT('',(1.156,-0.802,0.26));
#4848=DIRECTION('',(0.0,1.0,0.0));
#4849=DIRECTION('',(0.,0.,-1.));
#4850=FACE_OUTER_BOUND($,#4851,.T.);
#4851=EDGE_LOOP($,(#4863,#4873,#4884,#4852));
#4863=ORIENTED_EDGE('',*,*,#4602,.T.);
#4874=EDGE_CURVE($,#4505,#4605,#4879,.T.);
#4879=CIRCLE($,#4880,0.26035);
#4880=AXIS2_PLACEMENT_3D($,#4809,#4882,#4883);
#4882=DIRECTION('',(0.0,-1.0,0.0));
#4883=DIRECTION('',(0.793,0.0,-0.609));
#4873=ORIENTED_EDGE('',*,*,#4874,.F.);
#4884=ORIENTED_EDGE('',*,*,#4504,.T.);
#4853=EDGE_CURVE($,#4603,#4507,#4858,.T.);
#4858=CIRCLE($,#4859,0.26035);
#4859=AXIS2_PLACEMENT_3D($,#4830,#4861,#4862);
#4861=DIRECTION('',(0.0,1.0,0.0));
#4862=DIRECTION('',(-0.793,0.0,0.609));
#4852=ORIENTED_EDGE('',*,*,#4853,.F.);
#4894=STYLED_ITEM('color',(#34),#4895);
#4895=ADVANCED_FACE($,(#4901),#4896,.T.);
#4896=PLANE($,#4897);
#4897=AXIS2_PLACEMENT_3D($,#4898,#4899,#4900);
#4898=CARTESIAN_POINT('',(0.673,-0.802,0.543));
#4899=DIRECTION('',(0.0,-1.0,0.0));
#4900=DIRECTION('',(1.,0.,0.));
#4901=FACE_OUTER_BOUND($,#4902,.T.);
#4902=EDGE_LOOP($,(#4905, #4915, #4925, #4988, #4999, #4935, #4946, #4956, #4966, #4976, #5009, #5019));
#4905=ORIENTED_EDGE('',*,*,#4367,.T.);
#4915=ORIENTED_EDGE('',*,*,#4318,.T.);
#4925=ORIENTED_EDGE('',*,*,#4436,.T.);
#4988=ORIENTED_EDGE('',*,*,#4751,.T.);
#4999=ORIENTED_EDGE('',*,*,#4514,.T.);
#4935=ORIENTED_EDGE('',*,*,#4874,.T.);
#4946=ORIENTED_EDGE('',*,*,#4632,.T.);
#4956=ORIENTED_EDGE('',*,*,#4681,.T.);
#4966=ORIENTED_EDGE('',*,*,#4583,.T.);
#4976=ORIENTED_EDGE('',*,*,#4802,.T.);
#5009=ORIENTED_EDGE('',*,*,#4485,.T.);
#5019=ORIENTED_EDGE('',*,*,#4721,.T.);
#5030=STYLED_ITEM('color',(#34),#5031);
#5031=ADVANCED_FACE($,(#5037),#5032,.T.);
#5032=PLANE($,#5033);
#5033=AXIS2_PLACEMENT_3D($,#5034,#5035,#5036);
#5034=CARTESIAN_POINT('',(1.156,-0.498,0.13));
#5035=DIRECTION('',(0.0,1.0,0.0));
#5036=DIRECTION('',(1.,0.,0.));
#5037=FACE_OUTER_BOUND($,#5038,.T.);
#5038=EDGE_LOOP($,(#5041, #5051, #5061, #5124, #5135, #5071, #5082, #5092, #5102, #5112, #5145, #5155));
#5041=ORIENTED_EDGE('',*,*,#4416,.T.);
#5051=ORIENTED_EDGE('',*,*,#4338,.T.);
#5061=ORIENTED_EDGE('',*,*,#4387,.T.);
#5124=ORIENTED_EDGE('',*,*,#4700,.T.);
#5135=ORIENTED_EDGE('',*,*,#4465,.T.);
#5071=ORIENTED_EDGE('',*,*,#4823,.T.);
#5082=ORIENTED_EDGE('',*,*,#4563,.T.);
#5092=ORIENTED_EDGE('',*,*,#4661,.T.);
#5102=ORIENTED_EDGE('',*,*,#4612,.T.);
#5112=ORIENTED_EDGE('',*,*,#4853,.T.);
#5145=ORIENTED_EDGE('',*,*,#4534,.T.);
#5155=ORIENTED_EDGE('',*,*,#4772,.T.);
ENDSEC;
END-ISO-10303-21;
