G04*
G04 #@! TF.GenerationSoftware,Altium Limited,Altium Designer,22.4.2 (48)*
G04*
G04 Layer_Color=8421504*
%FSLAX44Y44*%
%MOMM*%
G71*
G04*
G04 #@! TF.SameCoordinates,48E91D8D-70C2-4821-B120-44B0D6A4F858*
G04*
G04*
G04 #@! TF.FilePolarity,Positive*
G04*
G01*
G75*
%ADD23C,0.0875*%
%ADD34R,1.0065X1.4082*%
G04:AMPARAMS|DCode=35|XSize=1.0746mm|YSize=0.538mm|CornerRadius=0.269mm|HoleSize=0mm|Usage=FLASHONLY|Rotation=180.000|XOffset=0mm|YOffset=0mm|HoleType=Round|Shape=RoundedRectangle|*
%AMROUNDEDRECTD35*
21,1,1.0746,0.0000,0,0,180.0*
21,1,0.5366,0.5380,0,0,180.0*
1,1,0.5380,-0.2683,0.0000*
1,1,0.5380,0.2683,0.0000*
1,1,0.5380,0.2683,0.0000*
1,1,0.5380,-0.2683,0.0000*
%
%ADD35ROUNDEDRECTD35*%
%ADD36R,1.0746X0.5380*%
%ADD37R,1.4000X1.0000*%
%ADD38R,1.4000X1.1000*%
%ADD39R,1.1500X1.8000*%
%ADD40R,0.9500X0.8000*%
%ADD41R,0.8000X0.9500*%
%ADD42R,1.3000X0.7000*%
%ADD43R,1.0000X1.4000*%
%ADD44R,1.4500X1.1500*%
%ADD45R,1.3000X1.5000*%
%ADD46R,1.5500X1.3500*%
%ADD47R,2.6000X3.0000*%
%ADD48R,3.6000X3.0000*%
%ADD49R,0.7500X1.0000*%
%ADD50R,0.5000X0.5000*%
%ADD51R,0.5000X0.5000*%
%ADD52R,1.0000X0.7500*%
%ADD53R,1.5000X1.9000*%
%ADD54R,1.9000X1.5000*%
%ADD55R,2.3000X2.3000*%
%ADD56R,0.7500X0.5000*%
%ADD57R,1.1000X1.0000*%
%ADD58R,3.4000X1.8000*%
%ADD59R,1.4500X0.3000*%
%ADD60R,0.3000X1.4500*%
%ADD61R,1.9000X0.6500*%
%ADD62R,0.9000X3.5500*%
%ADD63R,10.8000X10.1500*%
%ADD64R,0.7000X0.3000*%
%ADD65R,0.3000X0.7000*%
%ADD66R,3.5000X3.5000*%
%ADD67R,0.3000X0.9300*%
%ADD68R,0.9300X0.3000*%
%ADD69R,1.1000X0.7500*%
%ADD70R,1.0000X1.2200*%
%ADD71R,1.3500X1.9000*%
%ADD72R,1.8000X1.1700*%
%ADD73R,1.3500X1.5500*%
%ADD74R,0.7000X2.0000*%
%ADD75R,1.2700X3.6830*%
%ADD76R,0.4000X2.1000*%
%ADD77R,2.1000X0.4000*%
%ADD78R,3.6830X1.2700*%
%ADD79R,1.2700X3.4290*%
%ADD80R,2.2000X0.8000*%
%ADD81R,1.0000X2.7500*%
%ADD82R,3.1750X1.2700*%
%ADD83R,1.5000X0.4500*%
%ADD84R,1.0000X1.1000*%
%ADD85R,1.4000X3.3000*%
%ADD86R,3.3000X1.4000*%
%ADD87R,0.7600X1.2700*%
%ADD88R,2.1000X1.4000*%
%ADD89R,1.2700X0.7600*%
%ADD90R,0.7000X0.2800*%
%ADD91R,0.2800X0.7000*%
%ADD92R,5.8000X5.8000*%
%ADD93R,0.6750X0.7750*%
%ADD94R,0.6500X0.2800*%
%ADD95R,0.2800X0.6500*%
%ADD96R,2.7000X2.7000*%
%ADD97R,0.6500X1.9000*%
%ADD98R,0.4000X0.9500*%
%ADD99R,1.7000X1.0000*%
%ADD100O,0.8500X0.2500*%
%ADD101O,0.2500X0.8500*%
%ADD102R,1.9400X2.6000*%
%ADD103C,1.0000*%
%ADD104R,3.0000X5.0000*%
%ADD105R,0.6500X1.4500*%
G36*
X1547500Y1544500D02*
X1539500D01*
Y1552500D01*
X1547500D01*
Y1544500D01*
D02*
G37*
G36*
X1536500D02*
X1528500D01*
Y1552500D01*
X1536500D01*
Y1544500D01*
D02*
G37*
G36*
X1525500D02*
X1517500D01*
Y1552500D01*
X1525500D01*
Y1544500D01*
D02*
G37*
G36*
X1547500Y1533500D02*
X1539500D01*
Y1541500D01*
X1547500D01*
Y1533500D01*
D02*
G37*
G36*
X1536500D02*
X1528500D01*
Y1541500D01*
X1536500D01*
Y1533500D01*
D02*
G37*
G36*
X1525500D02*
X1517500D01*
Y1541500D01*
X1525500D01*
Y1533500D01*
D02*
G37*
G36*
X1547500Y1522500D02*
X1539500D01*
Y1530500D01*
X1547500D01*
Y1522500D01*
D02*
G37*
G36*
X1536500D02*
X1528500D01*
Y1530500D01*
X1536500D01*
Y1522500D01*
D02*
G37*
G36*
X1525500D02*
X1517500D01*
Y1530500D01*
X1525500D01*
Y1522500D01*
D02*
G37*
G36*
X1396630Y1371430D02*
X1383930D01*
Y1384130D01*
X1396630D01*
Y1371430D01*
D02*
G37*
G36*
X1378850D02*
X1366150D01*
Y1384130D01*
X1378850D01*
Y1371430D01*
D02*
G37*
G36*
X1361070D02*
X1348370D01*
Y1384130D01*
X1361070D01*
Y1371430D01*
D02*
G37*
G36*
X1396630Y1353650D02*
X1383930D01*
Y1366350D01*
X1396630D01*
Y1353650D01*
D02*
G37*
G36*
X1378850D02*
X1366150D01*
Y1366350D01*
X1378850D01*
Y1353650D01*
D02*
G37*
G36*
X1361070D02*
X1348370D01*
Y1366350D01*
X1361070D01*
Y1353650D01*
D02*
G37*
G36*
X1396630Y1335870D02*
X1383930D01*
Y1348570D01*
X1396630D01*
Y1335870D01*
D02*
G37*
G36*
X1378850D02*
X1366150D01*
Y1348570D01*
X1378850D01*
Y1335870D01*
D02*
G37*
G36*
X1361070D02*
X1348370D01*
Y1348570D01*
X1361070D01*
Y1335870D01*
D02*
G37*
G36*
X1262550Y374250D02*
X1252550D01*
Y382250D01*
X1262550D01*
Y374250D01*
D02*
G37*
G36*
Y362750D02*
X1252550D01*
Y370750D01*
X1262550D01*
Y362750D01*
D02*
G37*
G36*
X442500Y287000D02*
X431500D01*
Y298000D01*
X442500D01*
Y287000D01*
D02*
G37*
G36*
X428500D02*
X417500D01*
Y298000D01*
X428500D01*
Y287000D01*
D02*
G37*
G36*
X52500D02*
X41500D01*
Y298000D01*
X52500D01*
Y287000D01*
D02*
G37*
G36*
X38500D02*
X27500D01*
Y298000D01*
X38500D01*
Y287000D01*
D02*
G37*
G36*
X442500Y267000D02*
X431500D01*
Y283000D01*
X442500D01*
Y267000D01*
D02*
G37*
G36*
X52500D02*
X41500D01*
Y283000D01*
X52500D01*
Y267000D01*
D02*
G37*
G36*
X38500D02*
X27500D01*
Y283000D01*
X38500D01*
Y267000D01*
D02*
G37*
G36*
X442500Y252000D02*
X431500D01*
Y263000D01*
X442500D01*
Y252000D01*
D02*
G37*
G36*
X428500D02*
X417500D01*
Y263000D01*
X428500D01*
Y252000D01*
D02*
G37*
G36*
X52500D02*
X41500D01*
Y263000D01*
X52500D01*
Y252000D01*
D02*
G37*
G36*
X38500D02*
X27500D01*
Y263000D01*
X38500D01*
Y252000D01*
D02*
G37*
G36*
X1155720Y209520D02*
X1140480D01*
Y224760D01*
X1155720D01*
Y209520D01*
D02*
G37*
G36*
X1130320D02*
X1115080D01*
Y224760D01*
X1130320D01*
Y209520D01*
D02*
G37*
G36*
X1104920D02*
X1089680D01*
Y224760D01*
X1104920D01*
Y209520D01*
D02*
G37*
G36*
X1079520D02*
X1064280D01*
Y224760D01*
X1079520D01*
Y209520D01*
D02*
G37*
G36*
X488250Y190250D02*
X477750D01*
Y200750D01*
X488250D01*
Y190250D01*
D02*
G37*
G36*
X474750D02*
X464250D01*
Y200750D01*
X474750D01*
Y190250D01*
D02*
G37*
G36*
X1155720Y184120D02*
X1140480D01*
Y199360D01*
X1155720D01*
Y184120D01*
D02*
G37*
G36*
X1130320D02*
X1115080D01*
Y199360D01*
X1130320D01*
Y184120D01*
D02*
G37*
G36*
X1104920D02*
X1089680D01*
Y199360D01*
X1104920D01*
Y184120D01*
D02*
G37*
G36*
X1079520D02*
X1064280D01*
Y199360D01*
X1079520D01*
Y184120D01*
D02*
G37*
G36*
X488250Y176750D02*
X477750D01*
Y187250D01*
X488250D01*
Y176750D01*
D02*
G37*
G36*
X474750D02*
X464250D01*
Y187250D01*
X474750D01*
Y176750D01*
D02*
G37*
G36*
X1155720Y158720D02*
X1140480D01*
Y173960D01*
X1155720D01*
Y158720D01*
D02*
G37*
G36*
X1130320D02*
X1115080D01*
Y173960D01*
X1130320D01*
Y158720D01*
D02*
G37*
G36*
X1104920D02*
X1089680D01*
Y173960D01*
X1104920D01*
Y158720D01*
D02*
G37*
G36*
X1079520D02*
X1064280D01*
Y173960D01*
X1079520D01*
Y158720D01*
D02*
G37*
G36*
X1155720Y133320D02*
X1140480D01*
Y148560D01*
X1155720D01*
Y133320D01*
D02*
G37*
G36*
X1130320D02*
X1115080D01*
Y148560D01*
X1130320D01*
Y133320D01*
D02*
G37*
G36*
X1104920D02*
X1089680D01*
Y148560D01*
X1104920D01*
Y133320D01*
D02*
G37*
G36*
X1079520D02*
X1064280D01*
Y148560D01*
X1079520D01*
Y133320D01*
D02*
G37*
D23*
X-16666Y0D02*
Y3749D01*
X-17082Y4999D01*
X-17499Y5415D01*
X-18332Y5832D01*
X-19582D01*
X-20415Y5415D01*
X-20832Y4999D01*
X-21248Y3749D01*
Y0D01*
X-12500D01*
Y14455D02*
X-21248Y11123D01*
X-12500Y7790D01*
X-15416Y9040D02*
Y13205D01*
X-19998Y22329D02*
X-20832Y21495D01*
X-21248Y20246D01*
Y18579D01*
X-20832Y17330D01*
X-19998Y16496D01*
X-19165D01*
X-18332Y16913D01*
X-17916Y17330D01*
X-17499Y18163D01*
X-16666Y20662D01*
X-16249Y21495D01*
X-15833Y21912D01*
X-15000Y22329D01*
X-13750D01*
X-12917Y21495D01*
X-12500Y20246D01*
Y18579D01*
X-12917Y17330D01*
X-13750Y16496D01*
X-21248Y27202D02*
X-12500D01*
X-21248Y24286D02*
Y30119D01*
Y36576D02*
Y31160D01*
X-12500D01*
Y36576D01*
X-17082Y31160D02*
Y34493D01*
X-21248Y44907D02*
X-12500D01*
X-21248D02*
X-12500Y48240D01*
X-21248Y51572D02*
X-12500Y48240D01*
X-21248Y51572D02*
X-12500D01*
Y60737D02*
X-21248Y57404D01*
X-12500Y54072D01*
X-15416Y55321D02*
Y59487D01*
X-19998Y68610D02*
X-20832Y67777D01*
X-21248Y66527D01*
Y64861D01*
X-20832Y63611D01*
X-19998Y62778D01*
X-19165D01*
X-18332Y63195D01*
X-17916Y63611D01*
X-17499Y64444D01*
X-16666Y66944D01*
X-16249Y67777D01*
X-15833Y68194D01*
X-15000Y68610D01*
X-13750D01*
X-12917Y67777D01*
X-12500Y66527D01*
Y64861D01*
X-12917Y63611D01*
X-13750Y62778D01*
X-21248Y70568D02*
X-12500D01*
X-21248Y76400D02*
X-15416Y70568D01*
X-17499Y72651D02*
X-12500Y76400D01*
X-21248Y88148D02*
X-12500D01*
X-21248Y85232D02*
Y91064D01*
Y94605D02*
X-20832Y93771D01*
X-19998Y92938D01*
X-19165Y92522D01*
X-17916Y92105D01*
X-15833D01*
X-14583Y92522D01*
X-13750Y92938D01*
X-12917Y93771D01*
X-12500Y94605D01*
Y96271D01*
X-12917Y97104D01*
X-13750Y97937D01*
X-14583Y98354D01*
X-15833Y98771D01*
X-17916D01*
X-19165Y98354D01*
X-19998Y97937D01*
X-20832Y97104D01*
X-21248Y96271D01*
Y94605D01*
X-16666Y100812D02*
Y104561D01*
X-17082Y105811D01*
X-17499Y106227D01*
X-18332Y106644D01*
X-19582D01*
X-20415Y106227D01*
X-20832Y105811D01*
X-21248Y104561D01*
Y100812D01*
X-12500D01*
D34*
X1038209Y308610D02*
D03*
X1019191D02*
D03*
D35*
X992680Y374650D02*
D03*
X1011380Y384150D02*
D03*
D36*
Y365150D02*
D03*
D37*
X265000Y578000D02*
D03*
Y597000D02*
D03*
X290000Y578000D02*
D03*
Y597000D02*
D03*
X1462500Y224500D02*
D03*
Y205500D02*
D03*
X1625000Y1249500D02*
D03*
Y1230500D02*
D03*
X1247500Y1375500D02*
D03*
Y1394500D02*
D03*
X1302500Y1328000D02*
D03*
Y1347000D02*
D03*
X1187500Y729500D02*
D03*
Y710500D02*
D03*
X1162050Y465430D02*
D03*
Y446430D02*
D03*
X1504950Y470510D02*
D03*
Y451510D02*
D03*
X1482090Y470510D02*
D03*
Y451510D02*
D03*
X1504950Y283820D02*
D03*
Y264820D02*
D03*
X1295000Y437000D02*
D03*
Y418000D02*
D03*
X225000Y369500D02*
D03*
Y350500D02*
D03*
X205000Y369500D02*
D03*
Y350500D02*
D03*
X215000Y180500D02*
D03*
Y199500D02*
D03*
X235000Y180500D02*
D03*
Y199500D02*
D03*
X265000Y180500D02*
D03*
Y199500D02*
D03*
X285000Y180500D02*
D03*
Y199500D02*
D03*
X305000Y180500D02*
D03*
Y199500D02*
D03*
X325000Y180500D02*
D03*
Y199500D02*
D03*
X345000Y180500D02*
D03*
Y199500D02*
D03*
X365000Y180500D02*
D03*
Y199500D02*
D03*
X860000Y529500D02*
D03*
Y510500D02*
D03*
X1479550Y55220D02*
D03*
Y36220D02*
D03*
X1456690Y55220D02*
D03*
Y36220D02*
D03*
X1005000Y230500D02*
D03*
Y249500D02*
D03*
X1122500Y329500D02*
D03*
Y310500D02*
D03*
X1422500Y1421750D02*
D03*
Y1440750D02*
D03*
X1675000Y1249500D02*
D03*
Y1230500D02*
D03*
X1055000Y569500D02*
D03*
Y550500D02*
D03*
X1365000Y679500D02*
D03*
Y660500D02*
D03*
X1462500Y709500D02*
D03*
Y690500D02*
D03*
X1370000Y474500D02*
D03*
Y455500D02*
D03*
X1235000Y418000D02*
D03*
Y437000D02*
D03*
X365000Y578000D02*
D03*
Y597000D02*
D03*
X340000Y578000D02*
D03*
Y597000D02*
D03*
X315000Y578000D02*
D03*
Y597000D02*
D03*
X240000Y578000D02*
D03*
Y597000D02*
D03*
X215000Y578000D02*
D03*
Y597000D02*
D03*
X190000Y578000D02*
D03*
Y597000D02*
D03*
X365000Y449500D02*
D03*
Y430500D02*
D03*
X340000Y449500D02*
D03*
Y430500D02*
D03*
X315000Y449500D02*
D03*
Y430500D02*
D03*
X290000Y449500D02*
D03*
Y430500D02*
D03*
X265000Y449500D02*
D03*
Y430500D02*
D03*
X240000Y449500D02*
D03*
Y430500D02*
D03*
X215000Y449500D02*
D03*
Y430500D02*
D03*
X190000Y449500D02*
D03*
Y430500D02*
D03*
X860000Y774500D02*
D03*
Y755500D02*
D03*
X840000D02*
D03*
Y774500D02*
D03*
X1097500Y310500D02*
D03*
Y329500D02*
D03*
D38*
X119380Y1156850D02*
D03*
Y1141850D02*
D03*
Y1248290D02*
D03*
Y1233290D02*
D03*
D39*
X1408670Y388620D02*
D03*
X1438670D02*
D03*
X1413750Y588010D02*
D03*
X1443750D02*
D03*
X1032270Y461010D02*
D03*
X1002270D02*
D03*
X1437400Y54610D02*
D03*
X1407400D02*
D03*
D40*
X1017270Y415390D02*
D03*
Y427890D02*
D03*
X1370330Y532030D02*
D03*
Y519530D02*
D03*
D41*
X1392020Y288290D02*
D03*
X1404520D02*
D03*
Y153670D02*
D03*
X1392020D02*
D03*
D42*
X1483360Y286360D02*
D03*
Y267360D02*
D03*
D43*
X1425500Y225000D02*
D03*
X1444500D02*
D03*
Y245000D02*
D03*
X1425500D02*
D03*
X1482000D02*
D03*
X1463000D02*
D03*
X1284500Y1360000D02*
D03*
X1265500D02*
D03*
X1125830Y496570D02*
D03*
X1106830D02*
D03*
X357000Y737500D02*
D03*
X338000D02*
D03*
X357000Y692500D02*
D03*
X338000D02*
D03*
X1284500Y330000D02*
D03*
X1265500D02*
D03*
X1195500Y437500D02*
D03*
X1214500D02*
D03*
X1274500Y417500D02*
D03*
X1255500D02*
D03*
X163000Y795000D02*
D03*
X182000D02*
D03*
X219500Y885000D02*
D03*
X200500D02*
D03*
X925500Y370000D02*
D03*
X944500D02*
D03*
X950500Y175000D02*
D03*
X969500D02*
D03*
X1285500Y555000D02*
D03*
X1304500D02*
D03*
X1307000Y1385000D02*
D03*
X1288000D02*
D03*
X1573000Y30000D02*
D03*
X1592000D02*
D03*
X1425500Y710000D02*
D03*
X1444500D02*
D03*
X1274500Y462500D02*
D03*
X1255500D02*
D03*
X1214500Y417500D02*
D03*
X1195500D02*
D03*
X1255500Y437500D02*
D03*
X1274500D02*
D03*
X198000Y795000D02*
D03*
X217000D02*
D03*
X189500Y940000D02*
D03*
X170500D02*
D03*
X189500Y980000D02*
D03*
X170500D02*
D03*
X189500Y1020000D02*
D03*
X170500D02*
D03*
X189500Y1060000D02*
D03*
X170500D02*
D03*
X184500Y885000D02*
D03*
X165500D02*
D03*
X1029500Y810000D02*
D03*
X1010500D02*
D03*
X1029500Y772500D02*
D03*
X1010500D02*
D03*
X1048000Y752500D02*
D03*
X1067000D02*
D03*
Y772500D02*
D03*
X1048000D02*
D03*
X1549500Y1120000D02*
D03*
X1530500D02*
D03*
X1549500Y1160000D02*
D03*
X1530500D02*
D03*
X1549500Y1200000D02*
D03*
X1530500D02*
D03*
X1549500Y1240000D02*
D03*
X1530500D02*
D03*
D44*
X576580Y1414920D02*
D03*
Y1432420D02*
D03*
X919480Y1437780D02*
D03*
Y1455280D02*
D03*
X1057910Y1511440D02*
D03*
Y1528940D02*
D03*
D45*
X1077820Y1487648D02*
D03*
X1058320D02*
D03*
D46*
X1076960Y1440105D02*
D03*
Y1460105D02*
D03*
D47*
X360000Y990000D02*
D03*
D48*
Y776000D02*
D03*
D49*
X1274375Y1435000D02*
D03*
X1290625D02*
D03*
X1295625Y1310000D02*
D03*
X1279375D02*
D03*
X488125Y150000D02*
D03*
X471875D02*
D03*
X1583125Y1497500D02*
D03*
X1566875D02*
D03*
X1555625Y30000D02*
D03*
X1539375D02*
D03*
X1056875Y590000D02*
D03*
X1073125D02*
D03*
X1273125Y482500D02*
D03*
X1256875D02*
D03*
X188125Y960000D02*
D03*
X171875D02*
D03*
X188125Y1000000D02*
D03*
X171875D02*
D03*
X1548125Y1100000D02*
D03*
X1531875D02*
D03*
X1548125Y1140000D02*
D03*
X1531875D02*
D03*
X1548125Y1180000D02*
D03*
X1531875D02*
D03*
X1548125Y1220000D02*
D03*
X1531875D02*
D03*
X1021875Y330000D02*
D03*
X1038125D02*
D03*
X188125Y1040000D02*
D03*
X171875D02*
D03*
X188125Y1080000D02*
D03*
X171875D02*
D03*
X1274375Y1450000D02*
D03*
X1290625D02*
D03*
X1448125Y1365000D02*
D03*
X1431875D02*
D03*
X478125Y300000D02*
D03*
X461875D02*
D03*
X478125Y420000D02*
D03*
X461875D02*
D03*
X1078125Y310000D02*
D03*
X1061875D02*
D03*
D50*
X1435000Y1377500D02*
D03*
X1445000D02*
D03*
X1315000Y1435000D02*
D03*
X1325000D02*
D03*
X1447500Y1302500D02*
D03*
X1437500D02*
D03*
X1435000Y1347500D02*
D03*
X1445000D02*
D03*
X510000Y197500D02*
D03*
X520000D02*
D03*
X1075000Y330000D02*
D03*
X1065000D02*
D03*
X1567500Y1602500D02*
D03*
X1557500D02*
D03*
X1567500Y1617500D02*
D03*
X1557500D02*
D03*
X25000Y415000D02*
D03*
X35000D02*
D03*
X25000Y370000D02*
D03*
X35000D02*
D03*
X25000Y385000D02*
D03*
X35000D02*
D03*
X25000Y400000D02*
D03*
X35000D02*
D03*
X920000Y385000D02*
D03*
X930000D02*
D03*
X950000D02*
D03*
X940000D02*
D03*
X945000Y190000D02*
D03*
X955000D02*
D03*
X975000D02*
D03*
X965000D02*
D03*
X1280000Y570000D02*
D03*
X1290000D02*
D03*
X1310000D02*
D03*
X1300000D02*
D03*
X277500Y1258750D02*
D03*
X287500D02*
D03*
X277500Y1246250D02*
D03*
X287500D02*
D03*
X277500Y1233750D02*
D03*
X287500D02*
D03*
Y1221250D02*
D03*
X277500D02*
D03*
Y1168750D02*
D03*
X287500D02*
D03*
X277500Y1156250D02*
D03*
X287500D02*
D03*
X277500Y1143750D02*
D03*
X287500D02*
D03*
Y1131250D02*
D03*
X277500D02*
D03*
X120000Y1115000D02*
D03*
X110000D02*
D03*
X120000Y1205000D02*
D03*
X110000D02*
D03*
D51*
X1367500Y1297500D02*
D03*
Y1287500D02*
D03*
X1387500Y1297500D02*
D03*
Y1287500D02*
D03*
X1386250Y1425000D02*
D03*
Y1435000D02*
D03*
X1348750Y1425000D02*
D03*
Y1435000D02*
D03*
X1287500Y1337500D02*
D03*
Y1327500D02*
D03*
X1307500Y1370000D02*
D03*
Y1360000D02*
D03*
Y1315000D02*
D03*
Y1305000D02*
D03*
X1297500Y1360000D02*
D03*
Y1370000D02*
D03*
X105000Y455000D02*
D03*
Y465000D02*
D03*
X60000Y455000D02*
D03*
Y465000D02*
D03*
X75000Y455000D02*
D03*
Y465000D02*
D03*
X90000Y455000D02*
D03*
Y465000D02*
D03*
X480000Y17500D02*
D03*
Y27500D02*
D03*
X1529608Y1650000D02*
D03*
Y1660000D02*
D03*
X875000Y535000D02*
D03*
Y525000D02*
D03*
Y505000D02*
D03*
Y515000D02*
D03*
X1235000Y197500D02*
D03*
Y207500D02*
D03*
X1247500Y197500D02*
D03*
Y207500D02*
D03*
X1275000Y197500D02*
D03*
Y207500D02*
D03*
X1500000Y1660000D02*
D03*
Y1650000D02*
D03*
D52*
X1275000Y1343125D02*
D03*
Y1326875D02*
D03*
X440000Y198125D02*
D03*
Y181875D02*
D03*
X1580000Y1618125D02*
D03*
Y1601875D02*
D03*
X1545000Y1618125D02*
D03*
Y1601875D02*
D03*
X1530000Y1618125D02*
D03*
Y1601875D02*
D03*
X1515000Y1618125D02*
D03*
Y1601875D02*
D03*
X1580000Y1563125D02*
D03*
Y1546875D02*
D03*
X1490000Y1539375D02*
D03*
Y1555625D02*
D03*
X1365000Y696875D02*
D03*
Y713125D02*
D03*
X1390000Y456875D02*
D03*
Y473125D02*
D03*
X1545000Y1663125D02*
D03*
Y1646875D02*
D03*
X1515000Y1663125D02*
D03*
Y1646875D02*
D03*
X1265000Y1376875D02*
D03*
Y1393125D02*
D03*
X1307500Y1401875D02*
D03*
Y1418125D02*
D03*
X1470000Y1555625D02*
D03*
Y1539375D02*
D03*
X1262500Y191875D02*
D03*
Y208125D02*
D03*
D53*
X1245000Y330000D02*
D03*
X1215000D02*
D03*
X340000Y1420000D02*
D03*
X310000D02*
D03*
X260000D02*
D03*
X290000D02*
D03*
X340000Y1540000D02*
D03*
X310000D02*
D03*
X260000D02*
D03*
X290000D02*
D03*
X55000Y1320000D02*
D03*
X85000D02*
D03*
D54*
X1191250Y265000D02*
D03*
Y235000D02*
D03*
X1030000Y225000D02*
D03*
Y255000D02*
D03*
X1600000Y1250000D02*
D03*
Y1220000D02*
D03*
D55*
X1535000Y82500D02*
D03*
Y127500D02*
D03*
D56*
X322000Y686000D02*
D03*
Y699000D02*
D03*
X303000Y692500D02*
D03*
D57*
X218000Y1429500D02*
D03*
Y1410500D02*
D03*
X242000Y1420000D02*
D03*
X232000Y950500D02*
D03*
Y969500D02*
D03*
X208000Y960000D02*
D03*
X232000Y990500D02*
D03*
Y1009500D02*
D03*
X208000Y1000000D02*
D03*
X232000Y1030500D02*
D03*
Y1049500D02*
D03*
X208000Y1040000D02*
D03*
X232000Y1070500D02*
D03*
Y1089500D02*
D03*
X208000Y1080000D02*
D03*
X1488000Y1109500D02*
D03*
Y1090500D02*
D03*
X1512000Y1100000D02*
D03*
X1488000Y1149500D02*
D03*
Y1130500D02*
D03*
X1512000Y1140000D02*
D03*
X1488000Y1189500D02*
D03*
Y1170500D02*
D03*
X1512000Y1180000D02*
D03*
X1488000Y1229500D02*
D03*
Y1210500D02*
D03*
X1512000Y1220000D02*
D03*
D58*
X1660000Y293000D02*
D03*
Y247000D02*
D03*
D59*
X911000Y350000D02*
D03*
Y345000D02*
D03*
Y335000D02*
D03*
Y330000D02*
D03*
X959000D02*
D03*
Y335000D02*
D03*
Y340000D02*
D03*
Y345000D02*
D03*
Y350000D02*
D03*
X936000Y155000D02*
D03*
Y150000D02*
D03*
Y140000D02*
D03*
Y135000D02*
D03*
X984000D02*
D03*
Y140000D02*
D03*
Y145000D02*
D03*
Y150000D02*
D03*
Y155000D02*
D03*
X1271000Y535000D02*
D03*
Y530000D02*
D03*
Y520000D02*
D03*
Y515000D02*
D03*
X1319000D02*
D03*
Y520000D02*
D03*
Y525000D02*
D03*
Y530000D02*
D03*
Y535000D02*
D03*
X911000Y340000D02*
D03*
X936000Y145000D02*
D03*
X1271000Y525000D02*
D03*
D60*
X840000Y544000D02*
D03*
X835000D02*
D03*
X825000D02*
D03*
X820000D02*
D03*
Y496000D02*
D03*
X825000D02*
D03*
X830000D02*
D03*
X835000D02*
D03*
X840000D02*
D03*
X830000Y544000D02*
D03*
D61*
X42500Y1474050D02*
D03*
Y1461350D02*
D03*
Y1448650D02*
D03*
Y1435950D02*
D03*
X97500Y1448650D02*
D03*
Y1461350D02*
D03*
Y1496900D02*
D03*
Y1509600D02*
D03*
Y1522300D02*
D03*
Y1573100D02*
D03*
X42500D02*
D03*
Y1522300D02*
D03*
Y1509600D02*
D03*
Y1496900D02*
D03*
X327500Y1441900D02*
D03*
Y1454600D02*
D03*
Y1467300D02*
D03*
Y1480000D02*
D03*
Y1492700D02*
D03*
Y1518100D02*
D03*
X272500D02*
D03*
Y1492700D02*
D03*
Y1480000D02*
D03*
Y1467300D02*
D03*
Y1454600D02*
D03*
Y1441900D02*
D03*
X327500Y1561900D02*
D03*
Y1574600D02*
D03*
Y1587300D02*
D03*
Y1600000D02*
D03*
Y1612700D02*
D03*
Y1638100D02*
D03*
X272500D02*
D03*
Y1612700D02*
D03*
Y1600000D02*
D03*
Y1587300D02*
D03*
Y1574600D02*
D03*
Y1561900D02*
D03*
X97500Y1474050D02*
D03*
Y1435950D02*
D03*
X42500Y1535000D02*
D03*
Y1547700D02*
D03*
Y1560400D02*
D03*
X97500D02*
D03*
Y1547700D02*
D03*
Y1535000D02*
D03*
X272500Y1505400D02*
D03*
X327500D02*
D03*
X272500Y1625400D02*
D03*
X327500D02*
D03*
D62*
X1148100Y275560D02*
D03*
X1135400D02*
D03*
X1122500D02*
D03*
X1110000D02*
D03*
X1097500D02*
D03*
X1084600D02*
D03*
X1071900D02*
D03*
D63*
X1110000Y179040D02*
D03*
D64*
X1508000Y1555000D02*
D03*
Y1550000D02*
D03*
Y1540000D02*
D03*
Y1535000D02*
D03*
Y1530000D02*
D03*
X1557000Y1520000D02*
D03*
Y1530000D02*
D03*
Y1535000D02*
D03*
Y1550000D02*
D03*
Y1555000D02*
D03*
X356750Y715000D02*
D03*
X338250Y720000D02*
D03*
Y715000D02*
D03*
Y710000D02*
D03*
X1557000Y1545000D02*
D03*
Y1540000D02*
D03*
Y1525000D02*
D03*
X1508000Y1520000D02*
D03*
Y1525000D02*
D03*
Y1545000D02*
D03*
X356750Y720000D02*
D03*
Y710000D02*
D03*
D65*
X1540000Y1513000D02*
D03*
X1545000D02*
D03*
X1550000D02*
D03*
Y1562000D02*
D03*
X1545000D02*
D03*
X1525000D02*
D03*
X1515000D02*
D03*
X1520000D02*
D03*
X1530000D02*
D03*
X1535000D02*
D03*
X1540000D02*
D03*
X1535000Y1513000D02*
D03*
X1530000D02*
D03*
X1525000D02*
D03*
X1520000D02*
D03*
X1515000D02*
D03*
D66*
X1532500Y1537500D02*
D03*
D67*
X1067500Y1100350D02*
D03*
Y1053650D02*
D03*
X1062500Y1100350D02*
D03*
Y1053650D02*
D03*
X1057500Y1100350D02*
D03*
Y1053650D02*
D03*
X1052500Y1100350D02*
D03*
Y1053650D02*
D03*
X1047500Y1100350D02*
D03*
Y1053650D02*
D03*
X1042500Y1100350D02*
D03*
Y1053650D02*
D03*
X1037500Y1100350D02*
D03*
Y1053650D02*
D03*
X1032500Y1100350D02*
D03*
Y1053650D02*
D03*
X1027500Y1100350D02*
D03*
Y1053650D02*
D03*
X1022500Y1100350D02*
D03*
Y1053650D02*
D03*
X1017500Y1100350D02*
D03*
Y1053650D02*
D03*
X1012500Y1100350D02*
D03*
Y1053650D02*
D03*
X1007500Y1100350D02*
D03*
Y1053650D02*
D03*
X1002500Y1100350D02*
D03*
Y1053650D02*
D03*
X997500Y1100350D02*
D03*
Y1053650D02*
D03*
X992500Y1100350D02*
D03*
Y1053650D02*
D03*
X987500Y1100350D02*
D03*
Y1053650D02*
D03*
X982500Y1100350D02*
D03*
Y1053650D02*
D03*
X977500Y1100350D02*
D03*
Y1053650D02*
D03*
X972500Y1100350D02*
D03*
Y1053650D02*
D03*
X967500Y1100350D02*
D03*
Y1053650D02*
D03*
X962500Y1100350D02*
D03*
Y1053650D02*
D03*
X957500Y1100350D02*
D03*
Y1053650D02*
D03*
X952500Y1100350D02*
D03*
Y1053650D02*
D03*
X947500Y1100350D02*
D03*
Y1053650D02*
D03*
X942500Y1100350D02*
D03*
Y1053650D02*
D03*
X937500Y1100350D02*
D03*
Y1053650D02*
D03*
X932500Y1100350D02*
D03*
Y1053650D02*
D03*
X927500Y1100350D02*
D03*
Y1053650D02*
D03*
X922500Y1100350D02*
D03*
Y1053650D02*
D03*
X917500Y1100350D02*
D03*
Y1053650D02*
D03*
X912500Y1100350D02*
D03*
Y1053650D02*
D03*
X907500Y1100350D02*
D03*
Y1053650D02*
D03*
X902500Y1100350D02*
D03*
Y1053650D02*
D03*
X897500Y1100350D02*
D03*
Y1053650D02*
D03*
X892500Y1100350D02*
D03*
Y1053650D02*
D03*
X887500Y1100350D02*
D03*
Y1053650D02*
D03*
X882500Y1100350D02*
D03*
Y1053650D02*
D03*
X877500Y1100350D02*
D03*
Y1053650D02*
D03*
X872500Y1100350D02*
D03*
Y1053650D02*
D03*
X867500Y1100350D02*
D03*
Y1053650D02*
D03*
X862500Y1100350D02*
D03*
Y1053650D02*
D03*
X857500Y1100350D02*
D03*
Y1053650D02*
D03*
X852500Y1100350D02*
D03*
Y1053650D02*
D03*
X847500Y1100350D02*
D03*
Y1053650D02*
D03*
X842500D02*
D03*
X837500Y1100350D02*
D03*
Y1053650D02*
D03*
X832500Y1100350D02*
D03*
Y1053650D02*
D03*
X827500Y1100350D02*
D03*
Y1053650D02*
D03*
X822500Y1100350D02*
D03*
Y1053650D02*
D03*
X817500Y1100350D02*
D03*
Y1053650D02*
D03*
X812500Y1100350D02*
D03*
Y1053650D02*
D03*
X807500Y1100350D02*
D03*
Y1053650D02*
D03*
X802500Y1100350D02*
D03*
Y1053650D02*
D03*
X797500Y1100350D02*
D03*
Y1053650D02*
D03*
X792500Y1100350D02*
D03*
Y1053650D02*
D03*
X787500Y1100350D02*
D03*
Y1053650D02*
D03*
X782500Y1100350D02*
D03*
Y1053650D02*
D03*
X777500Y1100350D02*
D03*
Y1053650D02*
D03*
X772500Y1100350D02*
D03*
Y1053650D02*
D03*
X767500D02*
D03*
X762500Y1100350D02*
D03*
Y1053650D02*
D03*
X757500Y1100350D02*
D03*
Y1053650D02*
D03*
X752500Y1100350D02*
D03*
Y1053650D02*
D03*
X747500Y1100350D02*
D03*
Y1053650D02*
D03*
X742500Y1100350D02*
D03*
Y1053650D02*
D03*
X737500Y1100350D02*
D03*
Y1053650D02*
D03*
X732500Y1100350D02*
D03*
Y1053650D02*
D03*
X727500Y1100350D02*
D03*
Y1053650D02*
D03*
X722500Y1100350D02*
D03*
Y1053650D02*
D03*
X717500D02*
D03*
X712500D02*
D03*
X707500D02*
D03*
X702500D02*
D03*
X697500Y1100350D02*
D03*
Y1053650D02*
D03*
X692500Y1100350D02*
D03*
Y1053650D02*
D03*
X687500Y1100350D02*
D03*
Y1053650D02*
D03*
X682500Y1100350D02*
D03*
Y1053650D02*
D03*
X677500Y1100350D02*
D03*
Y1053650D02*
D03*
X672500Y1100350D02*
D03*
Y1053650D02*
D03*
X1067500Y716350D02*
D03*
Y669650D02*
D03*
X1062500Y716350D02*
D03*
X1057500D02*
D03*
X1052500Y669650D02*
D03*
X1042500Y716350D02*
D03*
X1037500Y669650D02*
D03*
X1027500Y716350D02*
D03*
X1022500Y669650D02*
D03*
X1012500Y716350D02*
D03*
X1007500D02*
D03*
Y669650D02*
D03*
X1002500Y716350D02*
D03*
Y669650D02*
D03*
X997500Y716350D02*
D03*
Y669650D02*
D03*
X992500Y716350D02*
D03*
Y669650D02*
D03*
X987500Y716350D02*
D03*
Y669650D02*
D03*
X982500Y716350D02*
D03*
Y669650D02*
D03*
X977500Y716350D02*
D03*
Y669650D02*
D03*
X972500Y716350D02*
D03*
Y669650D02*
D03*
X967500Y716350D02*
D03*
Y669650D02*
D03*
X962500Y716350D02*
D03*
Y669650D02*
D03*
X957500Y716350D02*
D03*
Y669650D02*
D03*
X952500Y716350D02*
D03*
Y669650D02*
D03*
X947500Y716350D02*
D03*
Y669650D02*
D03*
X942500Y716350D02*
D03*
Y669650D02*
D03*
X937500Y716350D02*
D03*
Y669650D02*
D03*
X932500Y716350D02*
D03*
Y669650D02*
D03*
X927500Y716350D02*
D03*
Y669650D02*
D03*
X922500Y716350D02*
D03*
Y669650D02*
D03*
X917500Y716350D02*
D03*
Y669650D02*
D03*
X912500Y716350D02*
D03*
Y669650D02*
D03*
X907500Y716350D02*
D03*
Y669650D02*
D03*
X902500Y716350D02*
D03*
Y669650D02*
D03*
X897500Y716350D02*
D03*
Y669650D02*
D03*
X892500Y716350D02*
D03*
Y669650D02*
D03*
X887500D02*
D03*
X877500Y716350D02*
D03*
X872500D02*
D03*
Y669650D02*
D03*
X867500D02*
D03*
X862500Y716350D02*
D03*
Y669650D02*
D03*
X857500Y716350D02*
D03*
Y669650D02*
D03*
X852500Y716350D02*
D03*
Y669650D02*
D03*
X847500Y716350D02*
D03*
Y669650D02*
D03*
X842500Y716350D02*
D03*
Y669650D02*
D03*
X837500Y716350D02*
D03*
X832500D02*
D03*
Y669650D02*
D03*
X827500Y716350D02*
D03*
Y669650D02*
D03*
X822500D02*
D03*
X817500Y716350D02*
D03*
Y669650D02*
D03*
X812500Y716350D02*
D03*
Y669650D02*
D03*
X807500Y716350D02*
D03*
Y669650D02*
D03*
X802500Y716350D02*
D03*
Y669650D02*
D03*
X797500Y716350D02*
D03*
Y669650D02*
D03*
X792500Y716350D02*
D03*
Y669650D02*
D03*
X787500D02*
D03*
X782500D02*
D03*
X777500Y716350D02*
D03*
Y669650D02*
D03*
X772500D02*
D03*
X767500D02*
D03*
X762500Y716350D02*
D03*
Y669650D02*
D03*
X757500Y716350D02*
D03*
Y669650D02*
D03*
X752500Y716350D02*
D03*
Y669650D02*
D03*
X727500Y716350D02*
D03*
Y669650D02*
D03*
X722500Y716350D02*
D03*
Y669650D02*
D03*
X717500Y716350D02*
D03*
Y669650D02*
D03*
X712500Y716350D02*
D03*
Y669650D02*
D03*
X707500Y716350D02*
D03*
Y669650D02*
D03*
X702500Y716350D02*
D03*
Y669650D02*
D03*
X697500Y716350D02*
D03*
Y669650D02*
D03*
X692500Y716350D02*
D03*
Y669650D02*
D03*
X687500Y716350D02*
D03*
Y669650D02*
D03*
X682500Y716350D02*
D03*
Y669650D02*
D03*
X677500Y716350D02*
D03*
Y669650D02*
D03*
X672500Y716350D02*
D03*
Y669650D02*
D03*
X702500Y1100350D02*
D03*
X707500D02*
D03*
X712500D02*
D03*
X717500D02*
D03*
X767500D02*
D03*
X842500D02*
D03*
X732500Y669650D02*
D03*
Y716350D02*
D03*
X737500Y669650D02*
D03*
Y716350D02*
D03*
X742500Y669650D02*
D03*
Y716350D02*
D03*
X747500Y669650D02*
D03*
Y716350D02*
D03*
X767500D02*
D03*
X772500D02*
D03*
X782500D02*
D03*
X787500D02*
D03*
X822500D02*
D03*
X837500Y669650D02*
D03*
X867500Y716350D02*
D03*
X877500Y669650D02*
D03*
X882500D02*
D03*
Y716350D02*
D03*
X887500D02*
D03*
X1012500Y669650D02*
D03*
X1017500D02*
D03*
Y716350D02*
D03*
X1022500D02*
D03*
X1027500Y669650D02*
D03*
X1032500D02*
D03*
Y716350D02*
D03*
X1037500D02*
D03*
X1042500Y669650D02*
D03*
X1047500D02*
D03*
Y716350D02*
D03*
X1052500D02*
D03*
X1057500Y669650D02*
D03*
X1062500D02*
D03*
D68*
X1106650Y1082500D02*
D03*
X1153350D02*
D03*
X1106650Y1077500D02*
D03*
X1153350D02*
D03*
X1106650Y1072500D02*
D03*
X1153350D02*
D03*
X1106650Y1067500D02*
D03*
X1153350D02*
D03*
X1106650Y1062500D02*
D03*
X1153350D02*
D03*
X1106650Y1057500D02*
D03*
X1153350D02*
D03*
X1106650Y1052500D02*
D03*
X1153350D02*
D03*
X1106650Y1047500D02*
D03*
X1153350D02*
D03*
X1106650Y1042500D02*
D03*
X1153350D02*
D03*
X1106650Y1037500D02*
D03*
X1153350D02*
D03*
X1106650Y1032500D02*
D03*
X1153350D02*
D03*
X1106650Y1027500D02*
D03*
X1153350D02*
D03*
X1106650Y1022500D02*
D03*
X1153350D02*
D03*
X1106650Y1017500D02*
D03*
X1153350D02*
D03*
X1106650Y1012500D02*
D03*
X1153350D02*
D03*
X1106650Y1007500D02*
D03*
X1153350D02*
D03*
X1106650Y1002500D02*
D03*
X1153350D02*
D03*
X1106650Y997500D02*
D03*
X1153350D02*
D03*
X1106650Y992500D02*
D03*
X1153350D02*
D03*
X1106650Y987500D02*
D03*
X1153350D02*
D03*
X1106650Y982500D02*
D03*
X1153350D02*
D03*
X1106650Y977500D02*
D03*
X1153350D02*
D03*
X1106650Y972500D02*
D03*
X1153350D02*
D03*
X1106650Y967500D02*
D03*
X1153350D02*
D03*
X1106650Y962500D02*
D03*
X1153350D02*
D03*
X1106650Y957500D02*
D03*
X1153350D02*
D03*
X1106650Y952500D02*
D03*
X1153350D02*
D03*
X1106650Y947500D02*
D03*
X1153350D02*
D03*
X1106650Y942500D02*
D03*
X1153350D02*
D03*
X1106650Y927500D02*
D03*
X1153350D02*
D03*
X1106650Y912500D02*
D03*
X1153350D02*
D03*
X1106650Y907500D02*
D03*
X1153350D02*
D03*
X1106650Y902500D02*
D03*
X1153350D02*
D03*
X1106650Y897500D02*
D03*
X1153350D02*
D03*
X1106650Y892500D02*
D03*
X1153350D02*
D03*
X1106650Y887500D02*
D03*
X1153350D02*
D03*
X1106650Y882500D02*
D03*
X1153350D02*
D03*
X1106650Y877500D02*
D03*
Y872500D02*
D03*
X1153350D02*
D03*
X1106650Y867500D02*
D03*
X1153350D02*
D03*
X1106650Y862500D02*
D03*
X1153350D02*
D03*
X1106650Y857500D02*
D03*
X1153350D02*
D03*
X1106650Y852500D02*
D03*
X1153350D02*
D03*
X1106650Y847500D02*
D03*
X1153350D02*
D03*
X1106650Y842500D02*
D03*
X1153350D02*
D03*
X1106650Y837500D02*
D03*
X1153350D02*
D03*
X1106650Y832500D02*
D03*
X1153350D02*
D03*
X1106650Y827500D02*
D03*
X1153350D02*
D03*
X1106650Y822500D02*
D03*
X1153350D02*
D03*
X1106650Y817500D02*
D03*
X1153350D02*
D03*
X1106650Y812500D02*
D03*
X1153350D02*
D03*
X1106650Y807500D02*
D03*
X1153350D02*
D03*
X1106650Y802500D02*
D03*
X1153350D02*
D03*
X1106650Y797500D02*
D03*
X1153350D02*
D03*
X1106650Y792500D02*
D03*
X1153350D02*
D03*
X1106650Y787500D02*
D03*
X1153350D02*
D03*
X1106650Y782500D02*
D03*
X1153350D02*
D03*
X1106650Y777500D02*
D03*
X1153350D02*
D03*
X1106650Y772500D02*
D03*
X1153350D02*
D03*
X1106650Y767500D02*
D03*
X1153350D02*
D03*
X1106650Y762500D02*
D03*
X1153350D02*
D03*
X1106650Y757500D02*
D03*
X1153350D02*
D03*
X1106650Y752500D02*
D03*
X1153350D02*
D03*
X1106650Y747500D02*
D03*
X1153350D02*
D03*
X1106650Y742500D02*
D03*
X1153350D02*
D03*
X1106650Y737500D02*
D03*
X1153350D02*
D03*
X1106650Y732500D02*
D03*
X1153350D02*
D03*
X1106650Y727500D02*
D03*
X1153350D02*
D03*
X1106650Y722500D02*
D03*
X1153350D02*
D03*
X1106650Y717500D02*
D03*
X1153350D02*
D03*
X1106650Y707500D02*
D03*
X1153350D02*
D03*
X1106650Y702500D02*
D03*
X1153350D02*
D03*
X1106650Y697500D02*
D03*
X1153350D02*
D03*
X1106650Y692500D02*
D03*
X1153350D02*
D03*
X1106650Y687500D02*
D03*
X1153350D02*
D03*
X586650Y1082500D02*
D03*
X633350D02*
D03*
X586650Y1077500D02*
D03*
X633350D02*
D03*
X586650Y1072500D02*
D03*
X633350D02*
D03*
X586650Y1067500D02*
D03*
X633350D02*
D03*
X586650Y1062500D02*
D03*
X633350D02*
D03*
X586650Y1057500D02*
D03*
X633350D02*
D03*
X586650Y1052500D02*
D03*
X633350D02*
D03*
X586650Y1047500D02*
D03*
X633350D02*
D03*
X586650Y1042500D02*
D03*
X633350D02*
D03*
X586650Y1037500D02*
D03*
X633350D02*
D03*
X586650Y1032500D02*
D03*
X633350D02*
D03*
X586650Y1027500D02*
D03*
X633350D02*
D03*
X586650Y1022500D02*
D03*
X633350D02*
D03*
X586650Y1017500D02*
D03*
X633350D02*
D03*
X586650Y1012500D02*
D03*
X633350D02*
D03*
X586650Y1007500D02*
D03*
X633350D02*
D03*
X586650Y1002500D02*
D03*
X633350D02*
D03*
X586650Y997500D02*
D03*
X633350D02*
D03*
X586650Y992500D02*
D03*
X633350D02*
D03*
X586650Y987500D02*
D03*
X633350D02*
D03*
X586650Y982500D02*
D03*
X633350D02*
D03*
X586650Y977500D02*
D03*
X633350D02*
D03*
X586650Y972500D02*
D03*
X633350D02*
D03*
X586650Y967500D02*
D03*
X633350D02*
D03*
X586650Y962500D02*
D03*
X633350D02*
D03*
X586650Y957500D02*
D03*
X633350D02*
D03*
X586650Y952500D02*
D03*
X633350D02*
D03*
X586650Y947500D02*
D03*
X633350D02*
D03*
X586650Y942500D02*
D03*
X633350D02*
D03*
X586650Y937500D02*
D03*
X633350D02*
D03*
X586650Y932500D02*
D03*
X633350D02*
D03*
X586650Y927500D02*
D03*
X633350D02*
D03*
X586650Y922500D02*
D03*
X633350D02*
D03*
X586650Y917500D02*
D03*
X633350D02*
D03*
X586650Y912500D02*
D03*
X633350D02*
D03*
X586650Y907500D02*
D03*
X633350D02*
D03*
X586650Y902500D02*
D03*
X633350D02*
D03*
X586650Y897500D02*
D03*
X633350D02*
D03*
X586650Y892500D02*
D03*
X633350D02*
D03*
X586650Y887500D02*
D03*
X633350D02*
D03*
X586650Y882500D02*
D03*
X633350D02*
D03*
X586650Y877500D02*
D03*
X633350D02*
D03*
X586650Y872500D02*
D03*
X633350D02*
D03*
X586650Y867500D02*
D03*
X633350D02*
D03*
X586650Y862500D02*
D03*
X633350D02*
D03*
X586650Y857500D02*
D03*
X633350D02*
D03*
X586650Y852500D02*
D03*
X633350D02*
D03*
X586650Y847500D02*
D03*
X633350D02*
D03*
X586650Y842500D02*
D03*
X633350D02*
D03*
X586650Y837500D02*
D03*
X633350D02*
D03*
X586650Y832500D02*
D03*
X633350D02*
D03*
X586650Y827500D02*
D03*
X633350D02*
D03*
X586650Y822500D02*
D03*
X633350D02*
D03*
X586650Y817500D02*
D03*
X633350D02*
D03*
X586650Y812500D02*
D03*
X633350D02*
D03*
X586650Y807500D02*
D03*
X633350D02*
D03*
X586650Y802500D02*
D03*
X633350D02*
D03*
X586650Y797500D02*
D03*
X633350D02*
D03*
X586650Y792500D02*
D03*
X633350D02*
D03*
X586650Y787500D02*
D03*
X633350D02*
D03*
X586650Y782500D02*
D03*
X633350D02*
D03*
X586650Y777500D02*
D03*
X633350D02*
D03*
X586650Y772500D02*
D03*
X633350D02*
D03*
X586650Y767500D02*
D03*
X633350D02*
D03*
X586650Y762500D02*
D03*
X633350D02*
D03*
X586650Y757500D02*
D03*
X633350D02*
D03*
X586650Y752500D02*
D03*
X633350D02*
D03*
X586650Y747500D02*
D03*
X633350D02*
D03*
X586650Y742500D02*
D03*
X633350D02*
D03*
X586650Y737500D02*
D03*
X633350D02*
D03*
X586650Y732500D02*
D03*
X633350D02*
D03*
X586650Y727500D02*
D03*
X633350D02*
D03*
X586650Y722500D02*
D03*
X633350D02*
D03*
X586650Y717500D02*
D03*
X633350D02*
D03*
X586650Y712500D02*
D03*
X633350D02*
D03*
X586650Y707500D02*
D03*
X633350D02*
D03*
X586650Y702500D02*
D03*
X633350D02*
D03*
X1153350Y712500D02*
D03*
X1106650D02*
D03*
X1153350Y877500D02*
D03*
Y917500D02*
D03*
X1106650D02*
D03*
X1153350Y922500D02*
D03*
X1106650D02*
D03*
X1153350Y932500D02*
D03*
X1106650D02*
D03*
X1153350Y937500D02*
D03*
X1106650D02*
D03*
X633350Y687500D02*
D03*
X586650D02*
D03*
X633350Y692500D02*
D03*
X586650D02*
D03*
X633350Y697500D02*
D03*
X586650D02*
D03*
D69*
X355500Y41450D02*
D03*
Y52450D02*
D03*
Y63450D02*
D03*
Y74450D02*
D03*
Y85450D02*
D03*
Y96450D02*
D03*
Y107450D02*
D03*
Y118450D02*
D03*
D70*
X417000Y15700D02*
D03*
X454000D02*
D03*
D71*
X463750Y50100D02*
D03*
Y109800D02*
D03*
D72*
X359000Y130550D02*
D03*
D73*
X356750Y17350D02*
D03*
D74*
X80000Y311000D02*
D03*
X90000D02*
D03*
X100000D02*
D03*
X150000D02*
D03*
X160000D02*
D03*
X170000D02*
D03*
X200000D02*
D03*
X210000D02*
D03*
X220000D02*
D03*
X230000D02*
D03*
X240000D02*
D03*
X250000D02*
D03*
X260000D02*
D03*
X280000D02*
D03*
X290000D02*
D03*
X300000D02*
D03*
X310000D02*
D03*
X320000D02*
D03*
X330000D02*
D03*
X340000D02*
D03*
X350000D02*
D03*
X360000D02*
D03*
X370000D02*
D03*
X380000D02*
D03*
X390000D02*
D03*
X70000Y239000D02*
D03*
X80000D02*
D03*
X90000D02*
D03*
X100000D02*
D03*
X130000D02*
D03*
X140000D02*
D03*
X160000D02*
D03*
X210000D02*
D03*
X220000D02*
D03*
X230000D02*
D03*
X240000D02*
D03*
X250000D02*
D03*
X260000D02*
D03*
X270000D02*
D03*
X280000D02*
D03*
X290000D02*
D03*
X300000D02*
D03*
X310000D02*
D03*
X320000D02*
D03*
X330000D02*
D03*
X340000D02*
D03*
X350000D02*
D03*
X360000D02*
D03*
X370000D02*
D03*
X390000D02*
D03*
X400000D02*
D03*
Y311000D02*
D03*
X380000Y239000D02*
D03*
X270000Y311000D02*
D03*
X200000Y239000D02*
D03*
X170000D02*
D03*
X150000D02*
D03*
X140000Y311000D02*
D03*
X130000D02*
D03*
X120000D02*
D03*
Y239000D02*
D03*
X110000Y311000D02*
D03*
Y239000D02*
D03*
X70000Y311000D02*
D03*
D75*
X84600Y130235D02*
D03*
X110000D02*
D03*
X135400D02*
D03*
X138200Y490235D02*
D03*
Y539765D02*
D03*
X163600Y490235D02*
D03*
Y539765D02*
D03*
X189000Y490235D02*
D03*
Y539765D02*
D03*
X214400Y490235D02*
D03*
Y539765D02*
D03*
X239800Y490235D02*
D03*
Y539765D02*
D03*
X265200Y490235D02*
D03*
Y539765D02*
D03*
X290600Y490235D02*
D03*
Y539765D02*
D03*
X316000Y490235D02*
D03*
Y539765D02*
D03*
X341400Y490235D02*
D03*
Y539765D02*
D03*
X366800Y490235D02*
D03*
Y539765D02*
D03*
X456900Y335235D02*
D03*
Y384765D02*
D03*
X482300Y335235D02*
D03*
Y384765D02*
D03*
X533100Y335235D02*
D03*
Y384765D02*
D03*
X135400Y179765D02*
D03*
X110000D02*
D03*
X84600D02*
D03*
X507700Y384765D02*
D03*
Y335235D02*
D03*
D76*
X574000Y1608000D02*
D03*
X582000D02*
D03*
X590000D02*
D03*
X598000D02*
D03*
X606000D02*
D03*
X614000D02*
D03*
X622000D02*
D03*
X630000D02*
D03*
X638000D02*
D03*
X646000D02*
D03*
X654000D02*
D03*
X662000D02*
D03*
X670000D02*
D03*
X678000D02*
D03*
X686000D02*
D03*
X694000D02*
D03*
X702000D02*
D03*
X710000D02*
D03*
X718000D02*
D03*
X726000D02*
D03*
X734000D02*
D03*
X742000D02*
D03*
X750000D02*
D03*
X758000D02*
D03*
X766000D02*
D03*
X774000D02*
D03*
X782000D02*
D03*
X790000D02*
D03*
X798000D02*
D03*
X806000D02*
D03*
X814000D02*
D03*
X822000D02*
D03*
X830000D02*
D03*
X838000D02*
D03*
X846000D02*
D03*
X854000D02*
D03*
X862000D02*
D03*
X870000D02*
D03*
X878000D02*
D03*
X886000D02*
D03*
X894000D02*
D03*
X902000D02*
D03*
X910000D02*
D03*
X918000D02*
D03*
X926000D02*
D03*
X934000D02*
D03*
X942000D02*
D03*
X950000D02*
D03*
X958000D02*
D03*
X966000D02*
D03*
X574000Y1672000D02*
D03*
X582000D02*
D03*
X590000D02*
D03*
X598000D02*
D03*
X606000D02*
D03*
X614000D02*
D03*
X622000D02*
D03*
X630000D02*
D03*
X638000D02*
D03*
X646000D02*
D03*
X654000D02*
D03*
X662000D02*
D03*
X670000D02*
D03*
X678000D02*
D03*
X686000D02*
D03*
X694000D02*
D03*
X702000D02*
D03*
X710000D02*
D03*
X718000D02*
D03*
X726000D02*
D03*
X734000D02*
D03*
X742000D02*
D03*
X750000D02*
D03*
X758000D02*
D03*
X766000D02*
D03*
X774000D02*
D03*
X782000D02*
D03*
X790000D02*
D03*
X798000D02*
D03*
X806000D02*
D03*
X814000D02*
D03*
X822000D02*
D03*
X830000D02*
D03*
X838000D02*
D03*
X846000D02*
D03*
X854000D02*
D03*
X862000D02*
D03*
X870000D02*
D03*
X878000D02*
D03*
X886000D02*
D03*
X894000D02*
D03*
X902000D02*
D03*
X910000D02*
D03*
X918000D02*
D03*
X926000D02*
D03*
X934000D02*
D03*
X942000D02*
D03*
X950000D02*
D03*
X958000D02*
D03*
X966000D02*
D03*
X974000D02*
D03*
X982000D02*
D03*
X990000D02*
D03*
X998000D02*
D03*
X1006000D02*
D03*
X1014000D02*
D03*
X1022000D02*
D03*
X1030000D02*
D03*
X1038000D02*
D03*
X1046000D02*
D03*
X1054000D02*
D03*
X1062000D02*
D03*
X1070000D02*
D03*
X1078000D02*
D03*
X1086000D02*
D03*
X1094000D02*
D03*
X1102000D02*
D03*
X1110000D02*
D03*
X1118000D02*
D03*
X1126000D02*
D03*
X574000Y81500D02*
D03*
X582000D02*
D03*
X590000D02*
D03*
X598000D02*
D03*
X606000D02*
D03*
X614000D02*
D03*
X622000D02*
D03*
X630000D02*
D03*
X638000D02*
D03*
X646000D02*
D03*
X654000D02*
D03*
X662000D02*
D03*
X670000D02*
D03*
X678000D02*
D03*
X686000D02*
D03*
X694000D02*
D03*
X702000D02*
D03*
X710000D02*
D03*
X718000D02*
D03*
X726000D02*
D03*
X734000D02*
D03*
X742000D02*
D03*
X750000D02*
D03*
X758000D02*
D03*
X766000D02*
D03*
X774000D02*
D03*
X782000D02*
D03*
X790000D02*
D03*
X798000D02*
D03*
X806000D02*
D03*
X814000D02*
D03*
X822000D02*
D03*
X830000D02*
D03*
X838000D02*
D03*
X846000D02*
D03*
X854000D02*
D03*
X862000D02*
D03*
X870000D02*
D03*
X878000D02*
D03*
X886000D02*
D03*
X894000D02*
D03*
X902000D02*
D03*
X910000D02*
D03*
X918000D02*
D03*
X926000D02*
D03*
X934000D02*
D03*
X942000D02*
D03*
X950000D02*
D03*
X958000D02*
D03*
X966000D02*
D03*
X574000Y18500D02*
D03*
X582000D02*
D03*
X590000D02*
D03*
X598000D02*
D03*
X606000D02*
D03*
X614000D02*
D03*
X622000D02*
D03*
X630000D02*
D03*
X638000D02*
D03*
X646000D02*
D03*
X654000D02*
D03*
X662000D02*
D03*
X670000D02*
D03*
X678000D02*
D03*
X686000D02*
D03*
X694000D02*
D03*
X702000D02*
D03*
X710000D02*
D03*
X718000D02*
D03*
X726000D02*
D03*
X734000D02*
D03*
X742000D02*
D03*
X750000D02*
D03*
X758000D02*
D03*
X766000D02*
D03*
X774000D02*
D03*
X782000D02*
D03*
X790000D02*
D03*
X798000D02*
D03*
X806000D02*
D03*
X814000D02*
D03*
X822000D02*
D03*
X830000D02*
D03*
X838000D02*
D03*
X846000D02*
D03*
X854000D02*
D03*
X862000D02*
D03*
X870000D02*
D03*
X878000D02*
D03*
X886000D02*
D03*
X894000D02*
D03*
X902000D02*
D03*
X910000D02*
D03*
X918000D02*
D03*
X926000D02*
D03*
X934000D02*
D03*
X942000D02*
D03*
X950000D02*
D03*
X958000D02*
D03*
X966000D02*
D03*
X974000D02*
D03*
X982000D02*
D03*
X990000D02*
D03*
X998000D02*
D03*
X1006000D02*
D03*
X1014000D02*
D03*
X1022000D02*
D03*
X1030000D02*
D03*
X1038000D02*
D03*
X1046000D02*
D03*
X1054000D02*
D03*
X1062000D02*
D03*
X1070000D02*
D03*
X1078000D02*
D03*
X1086000D02*
D03*
X1094000D02*
D03*
X1102000D02*
D03*
X1110000D02*
D03*
X1118000D02*
D03*
X1126000D02*
D03*
Y1608000D02*
D03*
X1118000D02*
D03*
X1110000D02*
D03*
X1102000D02*
D03*
X1094000D02*
D03*
X1086000D02*
D03*
X1078000D02*
D03*
X1070000D02*
D03*
X1062000D02*
D03*
X1054000D02*
D03*
X1046000D02*
D03*
X1038000D02*
D03*
X1030000D02*
D03*
X1022000D02*
D03*
X1014000D02*
D03*
X1006000D02*
D03*
X998000D02*
D03*
X990000D02*
D03*
X982000D02*
D03*
X974000D02*
D03*
X1126000Y81500D02*
D03*
X1118000D02*
D03*
X1110000D02*
D03*
X1102000D02*
D03*
X1094000D02*
D03*
X1086000D02*
D03*
X1078000D02*
D03*
X1070000D02*
D03*
X1062000D02*
D03*
X1054000D02*
D03*
X1046000D02*
D03*
X1038000D02*
D03*
X1030000D02*
D03*
X1022000D02*
D03*
X1014000D02*
D03*
X1006000D02*
D03*
X998000D02*
D03*
X990000D02*
D03*
X982000D02*
D03*
X974000D02*
D03*
D77*
X82000Y574000D02*
D03*
Y582000D02*
D03*
Y590000D02*
D03*
Y598000D02*
D03*
Y606000D02*
D03*
Y614000D02*
D03*
Y622000D02*
D03*
Y630000D02*
D03*
Y638000D02*
D03*
Y646000D02*
D03*
Y654000D02*
D03*
Y662000D02*
D03*
Y670000D02*
D03*
Y678000D02*
D03*
Y686000D02*
D03*
Y694000D02*
D03*
Y702000D02*
D03*
Y710000D02*
D03*
Y718000D02*
D03*
Y726000D02*
D03*
Y734000D02*
D03*
Y742000D02*
D03*
Y750000D02*
D03*
Y758000D02*
D03*
Y766000D02*
D03*
Y774000D02*
D03*
Y782000D02*
D03*
Y790000D02*
D03*
Y798000D02*
D03*
Y806000D02*
D03*
Y814000D02*
D03*
Y822000D02*
D03*
Y830000D02*
D03*
Y838000D02*
D03*
Y846000D02*
D03*
Y854000D02*
D03*
Y862000D02*
D03*
Y870000D02*
D03*
Y878000D02*
D03*
Y886000D02*
D03*
Y894000D02*
D03*
Y902000D02*
D03*
Y910000D02*
D03*
Y918000D02*
D03*
Y926000D02*
D03*
Y934000D02*
D03*
Y942000D02*
D03*
Y950000D02*
D03*
Y958000D02*
D03*
Y966000D02*
D03*
X18000Y574000D02*
D03*
Y582000D02*
D03*
Y590000D02*
D03*
Y598000D02*
D03*
Y606000D02*
D03*
Y614000D02*
D03*
Y622000D02*
D03*
Y630000D02*
D03*
Y638000D02*
D03*
Y646000D02*
D03*
Y654000D02*
D03*
Y662000D02*
D03*
Y670000D02*
D03*
Y678000D02*
D03*
Y686000D02*
D03*
Y694000D02*
D03*
Y702000D02*
D03*
Y710000D02*
D03*
Y718000D02*
D03*
Y726000D02*
D03*
Y734000D02*
D03*
Y742000D02*
D03*
Y750000D02*
D03*
Y758000D02*
D03*
Y766000D02*
D03*
Y774000D02*
D03*
Y782000D02*
D03*
Y790000D02*
D03*
Y798000D02*
D03*
Y806000D02*
D03*
Y814000D02*
D03*
Y822000D02*
D03*
Y830000D02*
D03*
Y838000D02*
D03*
Y846000D02*
D03*
Y854000D02*
D03*
Y862000D02*
D03*
Y870000D02*
D03*
Y878000D02*
D03*
Y886000D02*
D03*
Y894000D02*
D03*
Y902000D02*
D03*
Y910000D02*
D03*
Y918000D02*
D03*
Y926000D02*
D03*
Y934000D02*
D03*
Y942000D02*
D03*
Y950000D02*
D03*
Y958000D02*
D03*
Y966000D02*
D03*
Y974000D02*
D03*
Y982000D02*
D03*
Y990000D02*
D03*
Y998000D02*
D03*
Y1006000D02*
D03*
Y1014000D02*
D03*
Y1022000D02*
D03*
Y1030000D02*
D03*
Y1038000D02*
D03*
Y1046000D02*
D03*
Y1054000D02*
D03*
Y1062000D02*
D03*
Y1070000D02*
D03*
Y1078000D02*
D03*
Y1086000D02*
D03*
Y1094000D02*
D03*
Y1102000D02*
D03*
Y1110000D02*
D03*
Y1118000D02*
D03*
Y1126000D02*
D03*
X1618500Y574000D02*
D03*
Y582000D02*
D03*
Y590000D02*
D03*
Y598000D02*
D03*
Y606000D02*
D03*
Y614000D02*
D03*
Y622000D02*
D03*
Y630000D02*
D03*
Y638000D02*
D03*
Y646000D02*
D03*
Y654000D02*
D03*
Y662000D02*
D03*
Y670000D02*
D03*
Y678000D02*
D03*
Y686000D02*
D03*
Y694000D02*
D03*
Y702000D02*
D03*
Y710000D02*
D03*
Y718000D02*
D03*
Y726000D02*
D03*
Y734000D02*
D03*
Y742000D02*
D03*
Y750000D02*
D03*
Y758000D02*
D03*
Y766000D02*
D03*
Y774000D02*
D03*
Y782000D02*
D03*
Y790000D02*
D03*
Y798000D02*
D03*
Y806000D02*
D03*
Y814000D02*
D03*
Y822000D02*
D03*
Y830000D02*
D03*
Y838000D02*
D03*
Y846000D02*
D03*
Y854000D02*
D03*
Y862000D02*
D03*
Y870000D02*
D03*
Y878000D02*
D03*
Y886000D02*
D03*
Y894000D02*
D03*
Y902000D02*
D03*
Y910000D02*
D03*
Y918000D02*
D03*
Y926000D02*
D03*
Y934000D02*
D03*
Y942000D02*
D03*
Y950000D02*
D03*
Y958000D02*
D03*
Y966000D02*
D03*
X1681500Y574000D02*
D03*
Y582000D02*
D03*
Y590000D02*
D03*
Y598000D02*
D03*
Y606000D02*
D03*
Y614000D02*
D03*
Y622000D02*
D03*
Y630000D02*
D03*
Y638000D02*
D03*
Y646000D02*
D03*
Y654000D02*
D03*
Y662000D02*
D03*
Y670000D02*
D03*
Y678000D02*
D03*
Y686000D02*
D03*
Y694000D02*
D03*
Y702000D02*
D03*
Y710000D02*
D03*
Y718000D02*
D03*
Y726000D02*
D03*
Y734000D02*
D03*
Y742000D02*
D03*
Y750000D02*
D03*
Y758000D02*
D03*
Y766000D02*
D03*
Y774000D02*
D03*
Y782000D02*
D03*
Y790000D02*
D03*
Y798000D02*
D03*
Y806000D02*
D03*
Y814000D02*
D03*
Y822000D02*
D03*
Y830000D02*
D03*
Y838000D02*
D03*
Y846000D02*
D03*
Y854000D02*
D03*
Y862000D02*
D03*
Y870000D02*
D03*
Y878000D02*
D03*
Y886000D02*
D03*
Y894000D02*
D03*
Y902000D02*
D03*
Y910000D02*
D03*
Y918000D02*
D03*
Y926000D02*
D03*
Y934000D02*
D03*
Y942000D02*
D03*
Y950000D02*
D03*
Y958000D02*
D03*
Y966000D02*
D03*
Y974000D02*
D03*
Y982000D02*
D03*
Y990000D02*
D03*
Y998000D02*
D03*
Y1006000D02*
D03*
Y1014000D02*
D03*
Y1022000D02*
D03*
Y1030000D02*
D03*
Y1038000D02*
D03*
Y1046000D02*
D03*
Y1054000D02*
D03*
Y1062000D02*
D03*
Y1070000D02*
D03*
Y1078000D02*
D03*
Y1086000D02*
D03*
Y1094000D02*
D03*
Y1102000D02*
D03*
Y1110000D02*
D03*
Y1118000D02*
D03*
Y1126000D02*
D03*
X82000D02*
D03*
Y1118000D02*
D03*
Y1110000D02*
D03*
Y1102000D02*
D03*
Y1094000D02*
D03*
Y1086000D02*
D03*
Y1078000D02*
D03*
Y1070000D02*
D03*
Y1062000D02*
D03*
Y1054000D02*
D03*
Y1046000D02*
D03*
Y1038000D02*
D03*
Y1030000D02*
D03*
Y1022000D02*
D03*
Y1014000D02*
D03*
Y1006000D02*
D03*
Y998000D02*
D03*
Y990000D02*
D03*
Y982000D02*
D03*
Y974000D02*
D03*
X1618500Y1126000D02*
D03*
Y1118000D02*
D03*
Y1110000D02*
D03*
Y1102000D02*
D03*
Y1094000D02*
D03*
Y1086000D02*
D03*
Y1078000D02*
D03*
Y1070000D02*
D03*
Y1062000D02*
D03*
Y1054000D02*
D03*
Y1046000D02*
D03*
Y1038000D02*
D03*
Y1030000D02*
D03*
Y1022000D02*
D03*
Y1014000D02*
D03*
Y1006000D02*
D03*
Y998000D02*
D03*
Y990000D02*
D03*
Y982000D02*
D03*
Y974000D02*
D03*
D78*
X275235Y1388100D02*
D03*
X324765D02*
D03*
X275235Y1362700D02*
D03*
X324765D02*
D03*
X275235Y1337300D02*
D03*
X324765D02*
D03*
X275235Y1311900D02*
D03*
X324765D02*
D03*
X155235Y1388100D02*
D03*
X204765D02*
D03*
X155235Y1362700D02*
D03*
X204765D02*
D03*
X155235Y1337300D02*
D03*
X204765D02*
D03*
X155235Y1311900D02*
D03*
X204765D02*
D03*
D79*
X57300Y1394605D02*
D03*
X82700Y1365395D02*
D03*
D80*
X1212500Y710000D02*
D03*
Y730000D02*
D03*
D81*
X680000Y1458700D02*
D03*
Y1501300D02*
D03*
X700000Y1458700D02*
D03*
Y1501300D02*
D03*
X720000Y1458700D02*
D03*
Y1501300D02*
D03*
X740000Y1458700D02*
D03*
Y1501300D02*
D03*
X760000Y1458700D02*
D03*
Y1501300D02*
D03*
X780000Y1458700D02*
D03*
X800000D02*
D03*
Y1501300D02*
D03*
X780000D02*
D03*
D82*
X152695Y1506500D02*
D03*
X207305D02*
D03*
X152695Y1531900D02*
D03*
X207305D02*
D03*
X152695Y1557300D02*
D03*
X207305D02*
D03*
X152695Y1582700D02*
D03*
X207305D02*
D03*
X152695Y1608100D02*
D03*
X207305D02*
D03*
X152695Y1633500D02*
D03*
X207305D02*
D03*
D83*
X1651500Y1553000D02*
D03*
Y1546500D02*
D03*
Y1540000D02*
D03*
Y1527000D02*
D03*
Y1533500D02*
D03*
D84*
X1215500Y460500D02*
D03*
X1234500D02*
D03*
X1225000Y484500D02*
D03*
D85*
X917000Y456500D02*
D03*
X953000D02*
D03*
X917000Y413500D02*
D03*
X953000D02*
D03*
X942000Y261500D02*
D03*
X978000D02*
D03*
X942000Y218500D02*
D03*
X978000D02*
D03*
X1277000Y641500D02*
D03*
X1313000D02*
D03*
X1277000Y598500D02*
D03*
X1313000D02*
D03*
D86*
X946500Y538000D02*
D03*
Y502000D02*
D03*
X903500Y538000D02*
D03*
Y502000D02*
D03*
D87*
X60950Y351900D02*
D03*
X73650D02*
D03*
X86350D02*
D03*
X99050D02*
D03*
Y428100D02*
D03*
X86350D02*
D03*
X73650D02*
D03*
X60950D02*
D03*
X1274050Y300600D02*
D03*
X1261350D02*
D03*
X1248650D02*
D03*
X1235950D02*
D03*
Y224400D02*
D03*
X1248650D02*
D03*
X1261350D02*
D03*
X1274050D02*
D03*
D88*
X144500Y682500D02*
D03*
X235500D02*
D03*
X144500Y637500D02*
D03*
X235500D02*
D03*
X144500Y772500D02*
D03*
X235500D02*
D03*
X144500Y727500D02*
D03*
X235500D02*
D03*
X144500Y862500D02*
D03*
X235500D02*
D03*
X144500Y817500D02*
D03*
X235500D02*
D03*
X144500Y1172500D02*
D03*
X235500D02*
D03*
X144500Y1127500D02*
D03*
X235500D02*
D03*
X144500Y1262500D02*
D03*
X235500D02*
D03*
X144500Y1217500D02*
D03*
X235500D02*
D03*
D89*
X378100Y1220950D02*
D03*
Y1233650D02*
D03*
Y1246350D02*
D03*
Y1259050D02*
D03*
X301900D02*
D03*
Y1246350D02*
D03*
Y1233650D02*
D03*
Y1220950D02*
D03*
X378100Y1130950D02*
D03*
Y1143650D02*
D03*
Y1156350D02*
D03*
Y1169050D02*
D03*
X301900D02*
D03*
Y1156350D02*
D03*
Y1143650D02*
D03*
Y1130950D02*
D03*
D90*
X1411500Y1337500D02*
D03*
Y1352500D02*
D03*
Y1357500D02*
D03*
Y1362500D02*
D03*
Y1372500D02*
D03*
Y1377500D02*
D03*
Y1382500D02*
D03*
Y1387500D02*
D03*
Y1392500D02*
D03*
X1333500Y1387500D02*
D03*
Y1367500D02*
D03*
Y1362500D02*
D03*
Y1357500D02*
D03*
Y1352500D02*
D03*
Y1347500D02*
D03*
Y1342500D02*
D03*
Y1337500D02*
D03*
Y1332500D02*
D03*
Y1327500D02*
D03*
Y1372500D02*
D03*
Y1377500D02*
D03*
Y1382500D02*
D03*
Y1392500D02*
D03*
X1411500Y1367500D02*
D03*
Y1347500D02*
D03*
Y1342500D02*
D03*
Y1332500D02*
D03*
Y1327500D02*
D03*
D91*
X1405000Y1399000D02*
D03*
X1400000D02*
D03*
X1395000D02*
D03*
X1390000D02*
D03*
X1385000D02*
D03*
X1380000D02*
D03*
X1375000D02*
D03*
X1370000D02*
D03*
X1365000D02*
D03*
X1360000D02*
D03*
X1355000D02*
D03*
X1350000D02*
D03*
X1345000D02*
D03*
X1340000D02*
D03*
Y1321000D02*
D03*
X1345000D02*
D03*
X1350000D02*
D03*
X1355000D02*
D03*
X1360000D02*
D03*
X1365000D02*
D03*
X1370000D02*
D03*
X1375000D02*
D03*
X1380000D02*
D03*
X1385000D02*
D03*
X1390000D02*
D03*
X1395000D02*
D03*
X1400000D02*
D03*
X1405000D02*
D03*
D92*
X1372500Y1360000D02*
D03*
D93*
X1280125Y1416375D02*
D03*
Y1403625D02*
D03*
X1289875D02*
D03*
Y1416375D02*
D03*
D94*
X495500Y176250D02*
D03*
Y181250D02*
D03*
Y186250D02*
D03*
Y191250D02*
D03*
Y196250D02*
D03*
Y201250D02*
D03*
X457000Y186250D02*
D03*
Y181250D02*
D03*
Y176250D02*
D03*
Y191250D02*
D03*
Y196250D02*
D03*
Y201250D02*
D03*
D95*
X488750Y208000D02*
D03*
X478750D02*
D03*
X468750D02*
D03*
X463750Y169500D02*
D03*
X468750D02*
D03*
X473750D02*
D03*
X478750D02*
D03*
X483750D02*
D03*
X488750D02*
D03*
X463750Y208000D02*
D03*
X473750D02*
D03*
X483750D02*
D03*
D96*
X476250Y188750D02*
D03*
D97*
X1376900Y1507500D02*
D03*
X1389600D02*
D03*
X1402300D02*
D03*
X1415000D02*
D03*
X1427700D02*
D03*
X1453100D02*
D03*
Y1562500D02*
D03*
X1427700D02*
D03*
X1415000D02*
D03*
X1402300D02*
D03*
X1389600D02*
D03*
X1376900D02*
D03*
X1440400D02*
D03*
Y1507500D02*
D03*
D98*
X1624500Y1529250D02*
D03*
X1615000D02*
D03*
X1605500D02*
D03*
X1624500Y1500750D02*
D03*
X1615000D02*
D03*
X1605500D02*
D03*
D99*
X1615000Y1515000D02*
D03*
D100*
X1209750Y365000D02*
D03*
Y360000D02*
D03*
X1280250D02*
D03*
Y365000D02*
D03*
Y385000D02*
D03*
Y380000D02*
D03*
Y375000D02*
D03*
Y370000D02*
D03*
X1209750D02*
D03*
Y375000D02*
D03*
Y380000D02*
D03*
Y385000D02*
D03*
D101*
X1215000Y352250D02*
D03*
X1220000D02*
D03*
X1225000D02*
D03*
X1230000D02*
D03*
X1235000D02*
D03*
X1245000D02*
D03*
X1250000D02*
D03*
X1255000D02*
D03*
X1260000D02*
D03*
X1265000D02*
D03*
X1270000D02*
D03*
X1275000D02*
D03*
Y392750D02*
D03*
X1270000D02*
D03*
X1255000D02*
D03*
X1250000D02*
D03*
X1245000D02*
D03*
X1240000D02*
D03*
X1215000D02*
D03*
X1220000D02*
D03*
X1225000D02*
D03*
X1230000D02*
D03*
X1235000D02*
D03*
X1260000D02*
D03*
X1265000D02*
D03*
X1240000Y352250D02*
D03*
D102*
X1257550Y372500D02*
D03*
D103*
X110000Y1650000D02*
D03*
X1580000D02*
D03*
X50000Y110000D02*
D03*
X1620000Y200000D02*
D03*
X1282500Y1477500D02*
D03*
X1462500Y1265000D02*
D03*
D104*
X40000Y275000D02*
D03*
D105*
X347500Y715000D02*
D03*
M02*
