# Altium Pin Report File;;;;;;;;;;;;;
;;;;;;;;;;;;;
Pin Designator;Net Name;Display Name;IO Bank;IO Standard;Slew Rate;Drive Strength;IO Pin;Vref Pin;CLK Pin;Config Pin;Special Pin;Group;Differential Pair
43;1.8V;43;;;;;;;;;;;
44;1.8V;44;;;;;;;;;;;
157;3.3V_MOD;157;;;;;;;;;;;
158;3.3V_MOD;158;;;;;;;;;;;
159;3.3V_MOD;159;;;;;;;;;;;
160;3.3V_MOD;160;;;;;;;;;;;
55;ADC_SDATA;55;;;;;;;;;;;
60;B228_CLK0_N;60;;;;;;;;;;;
62;B228_CLK0_P;62;;;;;;;;;;;
65;B229_CLK0_N;65;;;;;;;;;;;
67;B229_CLK0_P;67;;;;;;;;;;;
59;B230_CLK1_N;59;;;;;;;;;;;
61;B230_CLK1_P;61;;;;;;;;;;;
31;B47_L11_N;31;;;;;;;;;;;
33;B47_L11_P;33;;;;;;;;;;;
35;B47_L12_N;35;;;;;;;;;;;
37;B47_L12_P;37;;;;;;;;;;;
54;B47_L5_N;54;;;;;;;;;;;
56;B47_L5_P;56;;;;;;;;;;;
39;B47_L8_N;39;;;;;;;;;;;
41;B47_L8_P;41;;;;;;;;;;;
17;B48_L1_N;17;;;;;;;;;;;
19;B48_L1_P;19;;;;;;;;;;;
22;B48_L10_N;22;;;;;;;;;;;
24;B48_L10_P;24;;;;;;;;;;;
26;B48_L11_N;26;;;;;;;;;;;
28;B48_L11_P;28;;;;;;;;;;;
12;B48_L12_N;12;;;;;;;;;;;
14;B48_L12_P;14;;;;;;;;;;;
21;B48_L2_N;21;;;;;;;;;;;
23;B48_L2_P;23;;;;;;;;;;;
7;B48_L3_N;7;;;;;;;;;;;
9;B48_L3_P;9;;;;;;;;;;;
11;B48_L4_N;11;;;;;;;;;;;
13;B48_L4_P;13;;;;;;;;;;;
25;B48_L5_N;25;;;;;;;;;;;
27;B48_L5_P;27;;;;;;;;;;;
3;B48_L6_N;3;;;;;;;;;;;
5;B48_L6_P;5;;;;;;;;;;;
4;B48_L8_N;4;;;;;;;;;;;
6;B48_L8_P;6;;;;;;;;;;;
8;B48_L9_N;8;;;;;;;;;;;
10;B48_L9_P;10;;;;;;;;;;;
51;BCLK;51;;;;;;;;;;;
53;DAC_SDATA;53;;;;;;;;;;;
143;ETH_MDC;143;;;;;;;;;;;
144;ETH_MDIO;144;;;;;;;;;;;
132;ETH_RXCK;132;;;;;;;;;;;
142;ETH_RXCTL;142;;;;;;;;;;;
134;ETH_RXD0;134;;;;;;;;;;;
136;ETH_RXD1;136;;;;;;;;;;;
138;ETH_RXD2;138;;;;;;;;;;;
140;ETH_RXD3;140;;;;;;;;;;;
131;ETH_TXCK;131;;;;;;;;;;;
141;ETH_TXCTL;141;;;;;;;;;;;
133;ETH_TXD0;133;;;;;;;;;;;
135;ETH_TXD1;135;;;;;;;;;;;
137;ETH_TXD2;137;;;;;;;;;;;
139;ETH_TXD3;139;;;;;;;;;;;
15;FMC_VADJ;15;;;;;;;;;;;
16;FMC_VADJ;16;;;;;;;;;;;
1;GND;1;;;;;;;;;;;
2;GND;2;;;;;;;;;;;
29;GND;29;;;;;;;;;;;
30;GND;30;;;;;;;;;;;
57;GND;57;;;;;;;;;;;
58;GND;58;;;;;;;;;;;
63;GND;63;;;;;;;;;;;
64;GND;64;;;;;;;;;;;
69;GND;69;;;;;;;;;;;
70;GND;70;;;;;;;;;;;
85;GND;85;;;;;;;;;;;
86;GND;86;;;;;;;;;;;
99;GND;99;;;;;;;;;;;
100;GND;100;;;;;;;;;;;
115;GND;115;;;;;;;;;;;
116;GND;116;;;;;;;;;;;
129;GND;129;;;;;;;;;;;
130;GND;130;;;;;;;;;;;
145;GND;145;;;;;;;;;;;
146;GND;146;;;;;;;;;;;
153;GND;153;;;;;;;;;;;
154;GND;154;;;;;;;;;;;
155;GND;155;;;;;;;;;;;
156;GND;156;;;;;;;;;;;
32;B47_L1_N;32;;;;;;;;;;;
34;B47_L1_P;34;;;;;;;;;;;
36;B47_L4_N;36;;;;;;;;;;;
38;B47_L4_P;38;;;;;;;;;;;
40;B47_L6_N;40;;;;;;;;;;;
42;B47_L6_P;42;;;;;;;;;;;
46;B47_L3_N;46;;;;;;;;;;;
48;B47_L3_P;48;;;;;;;;;;;
50;B47_L2_N;50;;;;;;;;;;;
52;B47_L2_P;52;;;;;;;;;;;
45;B47_L10_N;45;;;;;;;;;;;
47;B47_L10_P;47;;;;;;;;;;;
102;I2C_SCL;102;;;;;;;;;;;
104;I2C_SDA;104;;;;;;;;;;;
68;IN2_N;68;;;;;;;;;;;
66;IN2_P;66;;;;;;;;;;;
49;LRCLK;49;;;;;;;;;;;
81;MIO24;81;;;;;;;;;;;
83;MIO25;83;;;;;;;;;;;
88;MIO26;88;;;;;;;;;;;
90;MIO27;90;;;;;;;;;;;
92;MIO28;92;;;;;;;;;;;
94;MIO29;94;;;;;;;;;;;
96;MIO30;96;;;;;;;;;;;
98;MIO31;98;;;;;;;;;;;
87;MIO32;87;;;;;;;;;;;
89;MIO33;89;;;;;;;;;;;
91;MIO34;91;;;;;;;;;;;
93;MIO35;93;;;;;;;;;;;
95;MIO36;95;;;;;;;;;;;
97;MIO37;97;;;;;;;;;;;
106;MIO40;106;;;;;;;;;;;
108;MIO41;108;;;;;;;;;;;
110;MIO42;110;;;;;;;;;;;
112;MIO43;112;;;;;;;;;;;
101;MIO44;101;;;;;;;;;;;
79;MMC_RST;79;;;;;;;;;;;
77;MMC-CLKR;77;;;;;;;;;;;
75;MMC-CMD;75;;;;;;;;;;;
72;MMC-D0;72;;;;;;;;;;;
74;MMC-D1;74;;;;;;;;;;;
76;MMC-D2;76;;;;;;;;;;;
78;MMC-D3;78;;;;;;;;;;;
80;MMC-D4;80;;;;;;;;;;;
82;MMC-D5;82;;;;;;;;;;;
71;MMC-D6;71;;;;;;;;;;;
73;MMC-D7;73;;;;;;;;;;;
152;PLL_3V3;152;;;;;;;;;;;
103;SD_CD;103;;;;;;;;;;;
114;SD_CLK;114;;;;;;;;;;;
113;SD_CMD;113;;;;;;;;;;;
105;SD_DAT0;105;;;;;;;;;;;
107;SD_DAT1;107;;;;;;;;;;;
109;SD_DAT2;109;;;;;;;;;;;
111;SD_DAT3;111;;;;;;;;;;;
151;SI_PLL_1V8;151;;;;;;;;;;;
118;USB0_CLK;118;;;;;;;;;;;
126;USB0_DATA0;126;;;;;;;;;;;
128;USB0_DATA1;128;;;;;;;;;;;
122;USB0_DATA2;122;;;;;;;;;;;
119;USB0_DATA3;119;;;;;;;;;;;
121;USB0_DATA4;121;;;;;;;;;;;
123;USB0_DATA5;123;;;;;;;;;;;
125;USB0_DATA6;125;;;;;;;;;;;
127;USB0_DATA7;127;;;;;;;;;;;
120;USB0_DIR;120;;;;;;;;;;;
124;USB0_NXT;124;;;;;;;;;;;
117;USB0_STP;117;;;;;;;;;;;
18;;18;;;;;;;;;;;
20;;20;;;;;;;;;;;
84;;84;;;;;;;;;;;
147;;147;;;;;;;;;;;
148;;148;;;;;;;;;;;
149;;149;;;;;;;;;;;
150;;150;;;;;;;;;;;
